gen: 0 best: 0.127357
gen: 500 best: 0.205403
gen: 1000 best: 0.207752
gen: 1500 best: 0.208749
gen: 2000 best: 0.208789
gen: 2500 best: 0.209447
gen: 3000 best: 0.209447
gen: 3500 best: 0.210047
gen: 4000 best: 0.210365
gen: 4500 best: 0.211600
gen: 5000 best: 0.276632
gen: 5500 best: 0.288123
gen: 6000 best: 0.290505
gen: 6500 best: 0.291312
gen: 7000 best: 0.292467
gen: 7500 best: 0.292619
gen: 8000 best: 0.293226
gen: 8500 best: 0.293226
gen: 9000 best: 0.298484
gen: 9500 best: 0.299389
gen: 10000 best: 0.299389
gen: 10500 best: 0.305503
gen: 11000 best: 0.307904
gen: 11500 best: 0.308650
gen: 12000 best: 0.308650
gen: 12500 best: 0.308756
gen: 13000 best: 0.309722
gen: 13500 best: 0.309909
gen: 14000 best: 0.310016
gen: 14500 best: 0.310577
gen: 15000 best: 0.310577
gen: 15500 best: 0.311172
gen: 16000 best: 0.311172
gen: 16500 best: 0.311172
gen: 17000 best: 0.311361
gen: 17500 best: 0.312283
gen: 18000 best: 0.313627
gen: 18500 best: 0.313804
gen: 19000 best: 0.313804
gen: 19500 best: 0.314286
gen: 20000 best: 0.314286
gen: 20500 best: 0.314543
gen: 21000 best: 0.314616
gen: 21500 best: 0.314616
gen: 22000 best: 0.314727
gen: 22500 best: 0.314941
gen: 23000 best: 0.315301
gen: 23500 best: 0.315301
gen: 24000 best: 0.315301
gen: 24500 best: 0.315998
gen: 25000 best: 0.315998
gen: 25500 best: 0.315998
gen: 26000 best: 0.315998
gen: 26500 best: 0.315998
gen: 27000 best: 0.316569
gen: 27500 best: 0.316569
gen: 28000 best: 0.316569
gen: 28500 best: 0.316569
gen: 29000 best: 0.316569
gen: 29500 best: 0.316569
gen: 30000 best: 0.317464
gen: 30500 best: 0.318825
gen: 31000 best: 0.318989
gen: 31500 best: 0.318989
gen: 32000 best: 0.318989
gen: 32500 best: 0.318989
gen: 33000 best: 0.318989
gen: 33500 best: 0.318989
gen: 34000 best: 0.318989
gen: 34500 best: 0.318989
gen: 35000 best: 0.318989
gen: 35500 best: 0.318989
gen: 36000 best: 0.318989
gen: 36500 best: 0.318989
gen: 37000 best: 0.319830
gen: 37500 best: 0.319869
gen: 38000 best: 0.320164
gen: 38500 best: 0.320256
gen: 39000 best: 0.320294
gen: 39500 best: 0.321083
gen: 40000 best: 0.321306
gen: 40500 best: 0.321306
gen: 41000 best: 0.322046
gen: 41500 best: 0.322046
gen: 42000 best: 0.322046
gen: 42500 best: 0.322046
gen: 43000 best: 0.323293
gen: 43500 best: 0.323972
gen: 44000 best: 0.323972
gen: 44500 best: 0.324870
gen: 45000 best: 0.324870
gen: 45500 best: 0.324870
gen: 46000 best: 0.325443
gen: 46500 best: 0.325443
gen: 47000 best: 0.325465
gen: 47500 best: 0.325465
gen: 48000 best: 0.325465
gen: 48500 best: 0.325465
gen: 49000 best: 0.325465
gen: 49500 best: 0.326166
gen: 50000 best: 0.326166
gen: 50500 best: 0.326166
gen: 51000 best: 0.326166
gen: 51500 best: 0.326166
gen: 52000 best: 0.326166
gen: 52500 best: 0.326166
gen: 53000 best: 0.326166
gen: 53500 best: 0.326166
gen: 54000 best: 0.326277
gen: 54500 best: 0.326277
gen: 55000 best: 0.326310
gen: 55500 best: 0.326310
gen: 56000 best: 0.326310
gen: 56500 best: 0.326435
gen: 57000 best: 0.326435
gen: 57500 best: 0.326506
gen: 58000 best: 0.326506
gen: 58500 best: 0.326506
gen: 59000 best: 0.326506
gen: 59500 best: 0.326506
gen: 60000 best: 0.326642
gen: 60500 best: 0.326642
gen: 61000 best: 0.326642
gen: 61500 best: 0.326642
gen: 62000 best: 0.326642
gen: 62500 best: 0.326642
gen: 63000 best: 0.326642
gen: 63500 best: 0.326729
gen: 64000 best: 0.326729
gen: 64500 best: 0.326729
gen: 65000 best: 0.326729
gen: 65500 best: 0.326729
gen: 66000 best: 0.326729
gen: 66500 best: 0.327056
gen: 67000 best: 0.327056
gen: 67500 best: 0.327065
gen: 68000 best: 0.327065
gen: 68500 best: 0.327065
gen: 69000 best: 0.327065
gen: 69500 best: 0.327065
gen: 70000 best: 0.327065
