gen: 0 best: 0.012063
gen: 500 best: 0.030529
gen: 1000 best: 0.033470
gen: 1500 best: 0.034061
gen: 2000 best: 0.036174
gen: 2500 best: 0.037064
gen: 3000 best: 0.037656
gen: 3500 best: 0.037936
gen: 4000 best: 0.038339
gen: 4500 best: 0.038404
gen: 5000 best: 0.038857
gen: 5500 best: 0.042705
gen: 6000 best: 0.042705
gen: 6500 best: 0.042705
gen: 7000 best: 0.042705
gen: 7500 best: 0.042742
gen: 8000 best: 0.042742
gen: 8500 best: 0.042743
gen: 9000 best: 0.042743
gen: 9500 best: 0.042838
gen: 10000 best: 0.043021
gen: 10500 best: 0.043211
gen: 11000 best: 0.043244
gen: 11500 best: 0.043530
gen: 12000 best: 0.043545
gen: 12500 best: 0.043545
gen: 13000 best: 0.043588
gen: 13500 best: 0.044142
gen: 14000 best: 0.050710
gen: 14500 best: 0.051126
gen: 15000 best: 0.051150
gen: 15500 best: 0.051150
gen: 16000 best: 0.051150
gen: 16500 best: 0.051150
gen: 17000 best: 0.051415
gen: 17500 best: 0.051563
gen: 18000 best: 0.051821
gen: 18500 best: 0.051821
gen: 19000 best: 0.051821
gen: 19500 best: 0.051990
gen: 20000 best: 0.052022
gen: 20500 best: 0.052133
gen: 21000 best: 0.052279
gen: 21500 best: 0.052428
gen: 22000 best: 0.052651
gen: 22500 best: 0.052783
gen: 23000 best: 0.053289
gen: 23500 best: 0.053343
gen: 24000 best: 0.053829
gen: 24500 best: 0.054074
gen: 25000 best: 0.054415
gen: 25500 best: 0.074570
gen: 26000 best: 0.075355
gen: 26500 best: 0.076742
gen: 27000 best: 0.077652
gen: 27500 best: 0.078023
gen: 28000 best: 0.078313
gen: 28500 best: 0.078660
gen: 29000 best: 0.079041
gen: 29500 best: 0.080091
gen: 30000 best: 0.082270
gen: 30500 best: 0.082666
gen: 31000 best: 0.083135
gen: 31500 best: 0.083630
gen: 32000 best: 0.083938
gen: 32500 best: 0.084357
gen: 33000 best: 0.087400
gen: 33500 best: 0.087795
gen: 34000 best: 0.088414
gen: 34500 best: 0.088414
gen: 35000 best: 0.088629
gen: 35500 best: 0.088820
gen: 36000 best: 0.088873
gen: 36500 best: 0.089182
gen: 37000 best: 0.089182
gen: 37500 best: 0.089182
gen: 38000 best: 0.089338
gen: 38500 best: 0.089338
gen: 39000 best: 0.089600
gen: 39500 best: 0.089805
gen: 40000 best: 0.093390
gen: 40500 best: 0.093589
gen: 41000 best: 0.093669
gen: 41500 best: 0.093669
gen: 42000 best: 0.093903
gen: 42500 best: 0.094225
gen: 43000 best: 0.094627
gen: 43500 best: 0.094627
gen: 44000 best: 0.094627
gen: 44500 best: 0.094627
gen: 45000 best: 0.094627
gen: 45500 best: 0.094694
gen: 46000 best: 0.094694
gen: 46500 best: 0.095146
gen: 47000 best: 0.095146
gen: 47500 best: 0.095981
gen: 48000 best: 0.096825
gen: 48500 best: 0.096825
gen: 49000 best: 0.097556
gen: 49500 best: 0.097556
gen: 50000 best: 0.097811
gen: 50500 best: 0.098726
gen: 51000 best: 0.098726
gen: 51500 best: 0.098726
gen: 52000 best: 0.098726
gen: 52500 best: 0.099184
gen: 53000 best: 0.099747
gen: 53500 best: 0.099747
gen: 54000 best: 0.100246
gen: 54500 best: 0.100370
gen: 55000 best: 0.100488
gen: 55500 best: 0.100488
gen: 56000 best: 0.100488
gen: 56500 best: 0.101034
gen: 57000 best: 0.101067
gen: 57500 best: 0.101067
gen: 58000 best: 0.101530
gen: 58500 best: 0.101530
gen: 59000 best: 0.101530
gen: 59500 best: 0.101530
gen: 60000 best: 0.101530
gen: 60500 best: 0.101530
gen: 61000 best: 0.101626
gen: 61500 best: 0.103256
gen: 62000 best: 0.103286
gen: 62500 best: 0.106586
gen: 63000 best: 0.108114
gen: 63500 best: 0.108114
gen: 64000 best: 0.108114
gen: 64500 best: 0.108114
gen: 65000 best: 0.109951
gen: 65500 best: 0.109951
gen: 66000 best: 0.109951
gen: 66500 best: 0.109951
gen: 67000 best: 0.110024
gen: 67500 best: 0.110024
gen: 68000 best: 0.110024
gen: 68500 best: 0.110024
gen: 69000 best: 0.110024
gen: 69500 best: 0.110024
gen: 70000 best: 0.110024
