gen: 0 best: 0.135658
gen: 500 best: 0.145617
gen: 1000 best: 0.146267
gen: 1500 best: 0.146741
gen: 2000 best: 0.146759
gen: 2500 best: 0.146772
gen: 3000 best: 0.146914
gen: 3500 best: 0.147206
gen: 4000 best: 0.147280
gen: 4500 best: 0.147405
gen: 5000 best: 0.147524
gen: 5500 best: 0.147634
gen: 6000 best: 0.147688
gen: 6500 best: 0.147790
gen: 7000 best: 0.147836
gen: 7500 best: 0.147842
gen: 8000 best: 0.147849
gen: 8500 best: 0.147870
gen: 9000 best: 0.147892
gen: 9500 best: 0.147902
gen: 10000 best: 0.147902
gen: 10500 best: 0.147902
gen: 11000 best: 0.147902
gen: 11500 best: 0.148017
gen: 12000 best: 0.148063
gen: 12500 best: 0.148117
gen: 13000 best: 0.148118
gen: 13500 best: 0.148149
gen: 14000 best: 0.148229
gen: 14500 best: 0.148232
gen: 15000 best: 0.148316
gen: 15500 best: 0.148325
gen: 16000 best: 0.148325
gen: 16500 best: 0.148325
gen: 17000 best: 0.148331
gen: 17500 best: 0.148332
gen: 18000 best: 0.148332
gen: 18500 best: 0.148332
gen: 19000 best: 0.148332
gen: 19500 best: 0.148332
gen: 20000 best: 0.148332
gen: 20500 best: 0.148334
gen: 21000 best: 0.148334
gen: 21500 best: 0.148339
gen: 22000 best: 0.148339
gen: 22500 best: 0.148339
gen: 23000 best: 0.148339
gen: 23500 best: 0.148339
gen: 24000 best: 0.148388
gen: 24500 best: 0.148472
gen: 25000 best: 0.148534
gen: 25500 best: 0.148576
gen: 26000 best: 0.148576
gen: 26500 best: 0.148610
gen: 27000 best: 0.148661
gen: 27500 best: 0.148728
gen: 28000 best: 0.148738
gen: 28500 best: 0.148809
gen: 29000 best: 0.148825
gen: 29500 best: 0.148834
gen: 30000 best: 0.148846
gen: 30500 best: 0.148846
gen: 31000 best: 0.148846
gen: 31500 best: 0.148846
gen: 32000 best: 0.148846
gen: 32500 best: 0.148846
gen: 33000 best: 0.148853
gen: 33500 best: 0.148853
gen: 34000 best: 0.148853
gen: 34500 best: 0.148864
gen: 35000 best: 0.148864
gen: 35500 best: 0.148864
gen: 36000 best: 0.148870
gen: 36500 best: 0.148884
gen: 37000 best: 0.148884
gen: 37500 best: 0.148890
gen: 38000 best: 0.148896
gen: 38500 best: 0.148896
gen: 39000 best: 0.148896
gen: 39500 best: 0.148898
gen: 40000 best: 0.148903
gen: 40500 best: 0.148903
gen: 41000 best: 0.148908
gen: 41500 best: 0.148908
gen: 42000 best: 0.148908
gen: 42500 best: 0.148908
gen: 43000 best: 0.148908
gen: 43500 best: 0.148908
gen: 44000 best: 0.148908
gen: 44500 best: 0.148908
gen: 45000 best: 0.148908
gen: 45500 best: 0.148915
gen: 46000 best: 0.148915
gen: 46500 best: 0.148915
gen: 47000 best: 0.148915
gen: 47500 best: 0.148915
gen: 48000 best: 0.148915
gen: 48500 best: 0.148915
gen: 49000 best: 0.148915
gen: 49500 best: 0.148915
gen: 50000 best: 0.148915
gen: 50500 best: 0.148915
gen: 51000 best: 0.148916
gen: 51500 best: 0.148916
gen: 52000 best: 0.148916
gen: 52500 best: 0.148916
gen: 53000 best: 0.148916
gen: 53500 best: 0.148916
gen: 54000 best: 0.148916
gen: 54500 best: 0.148916
gen: 55000 best: 0.148916
gen: 55500 best: 0.148922
gen: 56000 best: 0.148922
gen: 56500 best: 0.148922
gen: 57000 best: 0.148923
gen: 57500 best: 0.148923
gen: 58000 best: 0.148923
gen: 58500 best: 0.148923
gen: 59000 best: 0.148924
gen: 59500 best: 0.148925
gen: 60000 best: 0.148925
gen: 60500 best: 0.148925
gen: 61000 best: 0.148925
gen: 61500 best: 0.148927
gen: 62000 best: 0.148927
gen: 62500 best: 0.148927
gen: 63000 best: 0.148930
gen: 63500 best: 0.148930
gen: 64000 best: 0.148930
gen: 64500 best: 0.148930
gen: 65000 best: 0.148930
gen: 65500 best: 0.148930
gen: 66000 best: 0.148930
gen: 66500 best: 0.148930
gen: 67000 best: 0.148930
gen: 67500 best: 0.148931
gen: 68000 best: 0.148934
gen: 68500 best: 0.148934
gen: 69000 best: 0.148934
gen: 69500 best: 0.148934
gen: 70000 best: 0.148934
