# architectures
phase1.architecture.length = 4
phase1.architecture = 8 15 10 2
phase1.architecture.hidden.activation = tanh
phase1.architecture.output.activation = tanh
phase2.architecture.length = 4
phase2.architecture = 14 20 12 2
phase2.architecture.hidden.activation = tanh
phase2.architecture.output.activation = tanh
wall.sensors = 6
car.sensors = 6

# other params
mutation.deviation = 0.500000
mutation.probability = 0.010000
alpha = 0.700000
beta = 0.700000

# static params
k.tournament = 3
population.size = 50
population.mean = 0.000000
population.deviation = 1.000000
mutation.mean = 0.000000
phase1.generations = 70000
phase2.generations = 70000
phase3.generations = 70000
number.of.steps = 500

# tracks params
train.number.of.tracks = 6
train.track.files = ../tracks/left1.txt ../tracks/right1.txt ../tracks/left2.txt ../tracks/right2.txt ../tracks/left4.txt ../tracks/right3.txt
train.number.of.cars = 2
train.car.unit = 50

test.number.of.tracks = 2
test.track.files = ../tracks/left4.txt ../tracks/right3.txt
test.number.of.cars = 2
test.car.unit = 50

# winner
winner.weights = 0.089314 0.299162 -0.390586 -0.232624 0.378983 -0.088119 0.212652 -0.114227 0.426631 -0.237076 0.328551 0.189527 0.060517 -0.685028 0.026598 0.312745 -0.017571 0.959967 0.349555 -0.276500 -0.316640 -0.021730 -0.263537 0.024410 -0.036083 -0.334912 -0.143832 0.649903 -0.135532 -0.118187 0.447035 -0.477927 0.910054 0.580828 0.284837 -0.102853 -0.037554 -0.317154 -0.120143 -0.078063 0.238688 -0.463606 -0.345978 -0.051030 -0.572100 -0.233016 -0.589187 0.243385 0.105762 -0.468717 0.036107 -0.243615 0.029072 -0.139858 0.195402 0.332907 0.014029 -0.246448 -0.273442 0.056428 0.090333 -0.192829 0.490035 -0.095172 -0.172783 -0.179910 -0.522134 -0.016794 0.848384 -0.951625 0.106694 -0.246951 -0.211994 0.315651 0.528476 -0.119651 0.200645 -0.035565 -0.272628 -0.192887 -0.152244 -0.180619 0.136139 -0.182646 0.562164 0.333975 -0.080269 -0.319816 0.736565 -0.421980 -0.263495 -0.435457 0.033405 0.489248 0.491541 -0.039830 -0.305664 -0.653331 0.124702 0.206444 0.232032 0.384397 0.133586 -0.086142 -0.043640 -0.254580 0.362874 -0.375108 -0.437748 0.355448 -0.524207 -0.178843 -0.169115 0.139162 0.552648 -0.917151 0.239080 0.128422 -0.041386 -0.112984 0.016962 -0.120567 -0.631284 -0.004285 -0.475931 -0.245431 -0.062124 -0.352836 0.080453 -0.088183 -0.231942 0.308431 -0.053306 0.298462 -0.224426 0.090874 -0.093888 -0.321622 0.316608 0.129116 -0.119489 0.021869 -0.183310 -0.347101 -0.100329 -0.318863 0.064069 0.032418 -0.373862 0.250982 -0.126347 -0.259746 -0.011827 0.397347 0.053882 0.507748 0.200772 -0.416135 -0.293030 -0.535240 0.420157 -0.168060 -0.396577 -0.070572 -0.005318 0.212840 0.486030 -0.734671 0.412930 0.204362 0.446602 0.673362 0.171598 -0.188782 -0.345820 -0.052926 -0.161707 0.070499 0.053743 0.178487 0.128687 0.074634 0.386908 0.240070 -0.505307 0.207066 0.416336 0.159708 -0.260418 -0.345100 0.403394 -0.443619 0.125294 0.124469 -0.039801 -0.294647 -0.206245 -0.271588 -0.340869 -0.373277 0.694524 -0.308298 0.051424 0.450997 -0.342259 0.758090 -0.141801 0.034873 -0.341822 -0.483492 -0.013297 -0.031425 -0.223777 -0.265383 0.222379 -0.075829 0.021589 -0.083736 0.657270 0.026194 -0.215147 0.239970 -0.154035 0.122976 0.041695 -0.369623 0.216188 -0.251445 0.238179 0.192947 -0.039472 -0.721074 -0.401730 0.245597 0.238610 -0.275983 0.411618 0.110747 0.080332 -0.574852 0.293773 -0.100356 0.010636 0.031705 -0.229027 -0.297458 0.251479 -0.430674 0.384888 0.105375 0.347753 0.190560 0.126572 -0.025489 -0.000951 0.563296 0.088890 -0.440571 -0.184130 0.176785 0.406893 -0.346014 0.018521 -0.159745 0.193793 -0.229528 -0.053322 -0.431240 -0.063537 -0.162695 -0.556012 -0.645547 0.444553 -0.002985 -0.441962 0.104284 0.629608 0.613902 -0.287949 0.080455 -0.350068 0.182077 0.156508 -0.098217 -0.325740 0.034535 0.004881 0.620842 -0.009939 -0.180899 -0.167855 0.260177 -0.212806 -0.001323 0.181422 -0.176314 0.222084 -0.110950 0.170901 -0.400913 -0.005954 -0.377489 0.238208 0.236743 0.098162 -0.295706 0.161976 0.199326 -0.044073 -0.209888 -0.112651 0.531543 0.336536 -0.171469 -0.193909 0.383399 -0.244186 0.319412 0.319227 0.081250 -0.100031 -0.481168 0.034405 0.065424 -0.180433 -0.063231 -0.143762 0.097632 -0.025950 0.398202 0.112851 0.205031 -0.083451 -0.051536 -0.004591 0.383591 -0.058071 -0.090401 0.048256 0.191910 0.153718 -0.102778 0.317151 -0.003078 0.365613 -0.469984 -0.547318 0.025351 0.294708 0.207943 0.268126 -0.539039 -0.265780 0.087231 -0.057272 -0.224725 -0.071305 -0.154931 0.343083 0.079617 0.075874 0.130466 -0.347608 -0.014320 0.142158 -0.200585 -0.346812 -0.071799 0.078283 0.176258 0.149056 0.005458 0.561145 0.124666 -0.306494 -0.397788 0.254993 0.262684 0.228252 0.357179 0.009676 0.194014 -0.309720 -0.417323 0.114949 -0.435211 -0.086252 -0.358534 -0.088970 -0.100021 0.128643 0.126095 0.327918 -0.123039 0.118208 0.057931 0.246722 -0.079478 -0.109103 -0.444567 -0.161084 -0.025762 -0.219500 -0.260610 -0.110264 -0.195347 0.025200 0.417259 0.214514 0.308537 -0.020597 0.042139 0.523982 0.302638 -0.037581 -0.304841 -0.024324 0.241904 -0.099760 0.368330 -0.135528 0.026749 0.187931 -0.241054 -0.308826 0.308270 0.133419 -0.206987 -0.050022 -0.127345 0.226978 0.492646 0.214557 0.356630 -0.103853 0.194328 0.194284 0.113123 -0.338763 0.161113 0.433583 -0.219641 0.067282 -0.193292 -0.317977 0.018350 -0.552489 -0.209326 -0.205933 -0.010190 -0.191727 -0.274765 0.155195 0.137545 0.000743 0.073806 -0.086286 0.220053 -0.123349 0.214091 0.444164 -0.486538 0.031702 -0.089278 0.249404 -0.448524 0.016242 0.017263 -0.061267 0.299354 0.826110 0.225517 0.269850 -0.353286 -0.472278 0.266878 0.344887 0.148715 -0.538976 -0.127872 -0.510239 0.062869 -0.007053 -0.432145 0.055937 -0.187443 -0.154784 0.202783 0.072276 0.069627 0.233586 -0.021060 -0.344341 -0.190942 0.009776 0.154494 0.131441 0.237576 -0.147895 0.064839 0.107281 0.537460 -0.247483 -0.756427 0.326947 0.096632 -0.089765 0.154103 -0.210717 0.553565 -0.282797 0.153928 -0.322121 -0.052845 0.304983 0.264853 -0.358956 -0.423144 0.455591 0.329509 -0.266277 0.111659 -0.085959 0.676198 -0.085686 0.271833 -0.035214 0.287564 -0.068895 0.151557 -0.326636 -0.056093 -0.087572 -0.177496 -0.093525 -0.427527 0.060766 -0.084789 -0.482285 0.347831 -0.194684 0.064505 0.199185 0.107073 -0.334062 -0.191717 0.303463 -0.156922 -0.160403 -0.196265 -0.371799 0.011987 -0.266743 0.119784 -0.627422 -0.191988 -0.606608 -0.199464 0.013310 -0.224319 0.162560 0.094239 -0.332310 0.018919 -0.199046 0.643660 0.492010 0.448757 0.148628 0.536963 -0.016936 0.277641 0.034453 0.129404 -0.036855 0.713431 0.077766 0.093342
winner.fitness = 0.039295
