gen: 0 best: 0.091512
gen: 500 best: 0.126186
gen: 1000 best: 0.128846
gen: 1500 best: 0.218405
gen: 2000 best: 0.257780
gen: 2500 best: 0.261737
gen: 3000 best: 0.282066
gen: 3500 best: 0.284368
gen: 4000 best: 0.284368
gen: 4500 best: 0.285069
gen: 5000 best: 0.285682
gen: 5500 best: 0.285724
gen: 6000 best: 0.285825
gen: 6500 best: 0.288647
gen: 7000 best: 0.288647
gen: 7500 best: 0.288647
gen: 8000 best: 0.288647
gen: 8500 best: 0.288922
gen: 9000 best: 0.289060
gen: 9500 best: 0.289060
gen: 10000 best: 0.289242
gen: 10500 best: 0.289242
gen: 11000 best: 0.289338
gen: 11500 best: 0.289338
gen: 12000 best: 0.289463
gen: 12500 best: 0.289730
gen: 13000 best: 0.289764
gen: 13500 best: 0.289846
gen: 14000 best: 0.290333
gen: 14500 best: 0.290333
gen: 15000 best: 0.290333
gen: 15500 best: 0.290333
gen: 16000 best: 0.290651
gen: 16500 best: 0.290805
gen: 17000 best: 0.290805
gen: 17500 best: 0.290805
gen: 18000 best: 0.290805
gen: 18500 best: 0.290856
gen: 19000 best: 0.291063
gen: 19500 best: 0.291063
gen: 20000 best: 0.291491
gen: 20500 best: 0.291491
gen: 21000 best: 0.291491
gen: 21500 best: 0.291491
gen: 22000 best: 0.291491
gen: 22500 best: 0.291491
gen: 23000 best: 0.291491
gen: 23500 best: 0.291491
gen: 24000 best: 0.291491
gen: 24500 best: 0.291854
gen: 25000 best: 0.292122
gen: 25500 best: 0.292342
gen: 26000 best: 0.292342
gen: 26500 best: 0.292342
gen: 27000 best: 0.292342
gen: 27500 best: 0.292342
gen: 28000 best: 0.292585
gen: 28500 best: 0.292585
gen: 29000 best: 0.292780
gen: 29500 best: 0.292863
gen: 30000 best: 0.293254
gen: 30500 best: 0.293811
gen: 31000 best: 0.306432
gen: 31500 best: 0.307268
gen: 32000 best: 0.309038
gen: 32500 best: 0.309344
gen: 33000 best: 0.309397
gen: 33500 best: 0.309820
gen: 34000 best: 0.310431
gen: 34500 best: 0.310431
gen: 35000 best: 0.311436
gen: 35500 best: 0.311436
gen: 36000 best: 0.311436
gen: 36500 best: 0.311436
gen: 37000 best: 0.311436
gen: 37500 best: 0.311436
gen: 38000 best: 0.311750
gen: 38500 best: 0.311750
gen: 39000 best: 0.311750
gen: 39500 best: 0.311750
gen: 40000 best: 0.311750
gen: 40500 best: 0.401832
gen: 41000 best: 0.403670
gen: 41500 best: 0.404093
gen: 42000 best: 0.405229
gen: 42500 best: 0.406099
gen: 43000 best: 0.406514
gen: 43500 best: 0.407312
gen: 44000 best: 0.407697
gen: 44500 best: 0.408790
gen: 45000 best: 0.409341
gen: 45500 best: 0.409341
gen: 46000 best: 0.409345
gen: 46500 best: 0.409345
gen: 47000 best: 0.409518
gen: 47500 best: 0.420486
gen: 48000 best: 0.420486
gen: 48500 best: 0.420752
gen: 49000 best: 0.420752
gen: 49500 best: 0.420752
gen: 50000 best: 0.420947
gen: 50500 best: 0.420947
gen: 51000 best: 0.421257
gen: 51500 best: 0.421257
gen: 52000 best: 0.421257
gen: 52500 best: 0.421257
gen: 53000 best: 0.422295
gen: 53500 best: 0.422295
gen: 54000 best: 0.423026
gen: 54500 best: 0.423026
gen: 55000 best: 0.423026
gen: 55500 best: 0.423026
gen: 56000 best: 0.423089
gen: 56500 best: 0.423089
gen: 57000 best: 0.423253
gen: 57500 best: 0.423416
gen: 58000 best: 0.423416
gen: 58500 best: 0.423820
gen: 59000 best: 0.423820
gen: 59500 best: 0.423820
gen: 60000 best: 0.424798
gen: 60500 best: 0.424798
gen: 61000 best: 0.425226
gen: 61500 best: 0.425226
gen: 62000 best: 0.425226
gen: 62500 best: 0.425226
gen: 63000 best: 0.425226
gen: 63500 best: 0.425226
gen: 64000 best: 0.425226
gen: 64500 best: 0.425226
gen: 65000 best: 0.425226
gen: 65500 best: 0.425687
gen: 66000 best: 0.425687
gen: 66500 best: 0.425687
gen: 67000 best: 0.425687
gen: 67500 best: 0.425687
gen: 68000 best: 0.425687
gen: 68500 best: 0.425687
gen: 69000 best: 0.425687
gen: 69500 best: 0.425687
gen: 70000 best: 0.425687
