# architectures
phase1.architecture.length = 4
phase1.architecture = 8 15 10 2
phase1.architecture.hidden.activation = sigmoid
phase1.architecture.output.activation = tanh
phase2.architecture.length = 4
phase2.architecture = 14 20 12 2
phase2.architecture.hidden.activation = sigmoid
phase2.architecture.output.activation = tanh
wall.sensors = 6
car.sensors = 6

# other params
mutation.deviation = 0.500000
mutation.probability = 0.100000
alpha = 0.300000
beta = 0.500000

# static params
k.tournament = 3
population.size = 50
population.mean = 0.000000
population.deviation = 1.000000
mutation.mean = 0.000000
phase1.generations = 70000
phase2.generations = 70000
phase3.generations = 70000
number.of.steps = 500

# tracks params
train.number.of.tracks = 6
train.track.files = ../tracks/left1.txt ../tracks/right1.txt ../tracks/left2.txt ../tracks/right2.txt ../tracks/left4.txt ../tracks/right3.txt
train.number.of.cars = 2
train.car.unit = 50

test.number.of.tracks = 2
test.track.files = ../tracks/left4.txt ../tracks/right3.txt
test.number.of.cars = 2
test.car.unit = 50

# winner
winner.weights = 0.653801 0.085881 0.275537 -1.253836 0.412727 0.655945 -0.949273 -0.125762 -0.205655 0.233487 0.495801 0.178721 0.774029 0.776580 0.073497 -0.469589 0.177453 -0.059829 -0.504130 -0.648912 0.779354 -0.329535 -1.074635 1.370939 -0.028630 0.387737 -0.039442 -0.901987 0.715834 0.236656 -0.262208 -0.577888 -0.389221 -0.296049 0.138992 -0.469428 0.327091 0.278051 0.349889 0.551662 -0.071586 -0.832528 0.257402 0.363851 0.503350 -0.080072 0.093195 -0.116796 0.329708 0.245562 0.074396 -0.262479 0.266360 -0.898630 -0.509126 -0.493491 -0.017058 0.038634 -0.253372 -0.103701 0.066444 0.006799 0.218718 -0.237502 -0.962084 -0.697719 0.019472 0.410933 -0.328209 -0.422613 -0.528063 -0.044235 0.384643 0.342214 -0.618734 -0.039863 -0.217983 0.670329 -0.001816 0.542853 0.874165 -0.632314 -0.254205 -0.495148 0.587455 0.372569 -0.081839 0.307422 -0.426238 0.763277 -0.194498 0.259354 0.539403 -0.733640 0.706041 1.725200 -1.804743 -0.389364 0.138941 -0.641462 0.611999 -0.017089 -0.894737 -0.201028 0.431361 0.518589 0.123153 1.211764 0.366562 0.342016 -1.441158 -0.020781 0.782355 -0.749265 0.535286 -0.266630 -0.192479 0.119751 -1.008174 0.049087 -0.289948 -1.196272 -0.582716 0.284702 -1.032625 -0.250940 0.447414 0.426180 0.098739 0.650875 -0.215827 -0.003698 0.171426 -0.662235 -0.191391 0.238361 0.499816 0.079181 -0.957097 -0.523059 -1.084706 -0.065684 0.239024 -0.143335 0.213970 -0.817892 -0.433457 0.325292 -0.227495 -0.100769 0.151729 -0.938827 -0.263345 0.233523 0.803923 -0.121300 -1.248125 0.243602 -0.254638 0.871458 -0.169594 0.516089 -0.139969 -0.050142 -0.224723 0.005625 0.013349 0.037668 0.773611 0.052369 0.749597 -0.339683 0.811977 -0.152112 0.162597 0.098085 0.130785 0.178510 0.454847 -0.042111 -0.571767 0.172421 -1.834861 -0.375327 -0.749453 0.560031 0.098421 0.231212 -0.417519 -0.160786 -0.283777 0.122412 0.330643 0.492116 -0.141195 -0.132102 0.021673 0.610232 0.388978 0.909608 -0.129859 0.139282 0.644416 -0.959934 0.193303 0.594782 -0.043184 0.245184 0.427783 -0.261285 -0.218913 -0.239520 -0.004303 0.501366 -0.008733 0.969121 0.473985 -0.615804 2.261406 0.660508 -0.070693 -0.121035 -0.533305 -0.066678 0.581131 0.490057 -0.475179 0.259742 -0.049355 -0.102598 0.167851 0.077304 -0.257361 0.089537 0.171524 -0.384868 -0.547533 0.726894 0.517279 -0.152808 -0.105386 0.221450 -0.567003 0.350064 0.025289 0.038980 -0.313585 0.197418 -0.566801 -0.542316 0.299337 -0.015999 0.111384 -0.030865 0.521454 0.391273 -0.458699 -0.026421 0.084702 -0.359227 0.061072 -0.183888 0.511520 0.086142 0.349035 -0.450176 -0.013963 -0.425107 0.840782 -0.023678 0.400125 0.186480 -0.211496 -0.246165 -0.088898 -0.176873 -0.077319 -1.066084 0.548858 -0.457340 -0.545258 0.040889 -0.408497 0.050772 0.429280 -0.258832 -0.094666 -0.064564 0.367267 -0.370816 -0.631538 0.204154 -0.226931 -0.195849 0.794413 -0.758637 0.257024 -0.155921 0.773782 -0.062519 -1.727450 -0.336201 -0.360912 -0.012008 0.643509 -0.681571 -0.045010 -0.345360 -0.267862 0.913699 -1.281773 0.262213 -0.644635 -1.108340 -0.249586 0.488404 -0.112036 -0.661655 -0.024471 0.153356 0.314060 -0.621039 -0.521318 1.059611 -0.289001 0.513645 -0.677606 -0.050320 1.098393 0.562879 1.143260 0.041326 -0.427155 -0.544416 -0.559928 0.769850 -0.041851 -0.478225 -0.246412 0.104975 -0.249940 0.242086 -0.142675 0.110509 0.633892 -0.356599 0.150600 -0.888500 -0.970748 0.540376 -0.713036 0.270984 -0.385053 0.355201 -0.158875 0.105765 -1.002990 0.378894 -0.126159 -0.033021 -0.155432 0.081061 -0.029802 0.045126 -0.502131 -0.837536 0.740842 0.868733 -0.132346 0.282867 -0.279082 -0.621074 0.779116 -0.241692 0.231944 -0.043708 0.095486 -0.478467 -0.334526 0.540413 -0.194326 -0.065780 -0.305207 -0.348355 -0.320740 0.050544 0.842514 0.451909 0.038588 0.313867 0.283310 0.132472 0.457212 0.842798 0.354377 0.052754 0.257338 0.447889 0.741221 0.086894 0.425568 0.298710 0.030452 0.298424 0.154101 0.762612 -0.088629 1.482137 -0.536292 0.139478 -0.257696 0.110662 -0.315837 -1.012466 0.253275 0.256802 0.158771 -0.350769 -0.353081 -0.644521 1.048202 -0.572608 0.524545 0.057134 0.636615 0.952127 -0.424143 -0.078319 -0.298979 -0.030707 0.263166 -0.574181 0.379958 -0.130374 0.336223 0.344812 0.528406 0.072969 -0.078111 -0.610762 -0.427896 0.429623 0.098452 0.341978 0.103333 -0.123525 0.421191 0.166746 0.490638 -0.459969 -0.232121 0.738211 0.132566 -0.856438 -0.431412 -0.972202 0.109267 -0.732913 -0.227219 0.004831 0.035525 0.803644 -0.113888 -0.652480 0.613797 -0.099809 -0.537958 -0.078646 0.503004 -0.386663 -0.167544 0.047150 0.105837 -0.784693 0.018585 -0.334039 0.454102 -0.186162 -0.538448 -0.144283 -0.086150 0.146364 0.781288 -0.383645 -0.013288 0.126367 0.057793 0.615889 -0.103804 -0.291370 -0.429089 -0.326989 0.738671 0.188964 0.203072 0.677300 -0.169922 0.091661 0.196758 0.111529 -0.177693 0.578303 0.818606 0.479531 -0.798092 -0.117062 0.713711 -0.160593 -0.287395 -0.261298 -1.016138 0.242596 0.596951 0.309108 -0.234227 -0.154973 -0.021244 0.575253 0.127588 -0.072894 0.001458 0.136873 0.250469 0.711584 0.161570 0.273634 -0.169535 0.572067 0.826268 1.054022 -0.243917 -0.017962 -0.104056 -0.350983 -0.161017 -0.456191 0.130440 -0.336943 0.064665 -0.648904 0.604292 -0.680622 0.623814 0.271023 -0.143723 -0.060436 0.538034 -0.168771 0.457440 -0.122146 -0.160448 0.003016 -1.238418 0.454716 0.589529 -0.850984 0.279164 0.220030 -0.768241 -0.629366 0.012365 0.053720 1.108702 -0.351805 -0.428065 0.929361 -0.445783 -0.588897 -0.646704 -0.134422 0.265226 -1.098268 -0.166573 0.190691 0.194809 -0.656130 -0.359004 -0.890895
winner.fitness = 0.073341
