gen: 0 best: 0.113120
gen: 500 best: 0.118271
gen: 1000 best: 0.118361
gen: 1500 best: 0.118394
gen: 2000 best: 0.118529
gen: 2500 best: 0.118557
gen: 3000 best: 0.118604
gen: 3500 best: 0.118621
gen: 4000 best: 0.118621
gen: 4500 best: 0.118621
gen: 5000 best: 0.118626
gen: 5500 best: 0.118626
gen: 6000 best: 0.118626
gen: 6500 best: 0.118628
gen: 7000 best: 0.118634
gen: 7500 best: 0.118634
gen: 8000 best: 0.118634
gen: 8500 best: 0.118639
gen: 9000 best: 0.118639
gen: 9500 best: 0.118640
gen: 10000 best: 0.118646
gen: 10500 best: 0.118650
gen: 11000 best: 0.118657
gen: 11500 best: 0.118657
gen: 12000 best: 0.118664
gen: 12500 best: 0.118664
gen: 13000 best: 0.118664
gen: 13500 best: 0.118664
gen: 14000 best: 0.118664
gen: 14500 best: 0.118666
gen: 15000 best: 0.118666
gen: 15500 best: 0.118673
gen: 16000 best: 0.118673
gen: 16500 best: 0.118683
gen: 17000 best: 0.118689
gen: 17500 best: 0.118689
gen: 18000 best: 0.118689
gen: 18500 best: 0.118692
gen: 19000 best: 0.118697
gen: 19500 best: 0.118697
gen: 20000 best: 0.118697
gen: 20500 best: 0.118697
gen: 21000 best: 0.118697
gen: 21500 best: 0.118697
gen: 22000 best: 0.118697
gen: 22500 best: 0.118697
gen: 23000 best: 0.118697
gen: 23500 best: 0.118700
gen: 24000 best: 0.118701
gen: 24500 best: 0.118701
gen: 25000 best: 0.118705
gen: 25500 best: 0.118705
gen: 26000 best: 0.118707
gen: 26500 best: 0.118707
gen: 27000 best: 0.118707
gen: 27500 best: 0.118720
gen: 28000 best: 0.118720
gen: 28500 best: 0.118727
gen: 29000 best: 0.118734
gen: 29500 best: 0.118734
gen: 30000 best: 0.118734
gen: 30500 best: 0.118734
gen: 31000 best: 0.118738
gen: 31500 best: 0.118738
gen: 32000 best: 0.118738
gen: 32500 best: 0.118738
gen: 33000 best: 0.118739
gen: 33500 best: 0.118739
gen: 34000 best: 0.118752
gen: 34500 best: 0.118752
gen: 35000 best: 0.118752
gen: 35500 best: 0.118763
gen: 36000 best: 0.118763
gen: 36500 best: 0.118763
gen: 37000 best: 0.118763
gen: 37500 best: 0.118763
gen: 38000 best: 0.118766
gen: 38500 best: 0.118766
gen: 39000 best: 0.118766
gen: 39500 best: 0.118773
gen: 40000 best: 0.118773
gen: 40500 best: 0.118773
gen: 41000 best: 0.118776
gen: 41500 best: 0.118777
gen: 42000 best: 0.118809
gen: 42500 best: 0.118809
gen: 43000 best: 0.118809
gen: 43500 best: 0.118809
gen: 44000 best: 0.118830
gen: 44500 best: 0.118830
gen: 45000 best: 0.118837
gen: 45500 best: 0.118868
gen: 46000 best: 0.118881
gen: 46500 best: 0.118881
gen: 47000 best: 0.118882
gen: 47500 best: 0.118896
gen: 48000 best: 0.118903
gen: 48500 best: 0.118903
gen: 49000 best: 0.118903
gen: 49500 best: 0.118903
gen: 50000 best: 0.118903
gen: 50500 best: 0.118904
gen: 51000 best: 0.118908
gen: 51500 best: 0.118908
gen: 52000 best: 0.118913
gen: 52500 best: 0.118914
gen: 53000 best: 0.118916
gen: 53500 best: 0.118916
gen: 54000 best: 0.118916
gen: 54500 best: 0.118916
gen: 55000 best: 0.118916
gen: 55500 best: 0.118918
gen: 56000 best: 0.118918
gen: 56500 best: 0.118918
gen: 57000 best: 0.118918
gen: 57500 best: 0.118918
gen: 58000 best: 0.118918
gen: 58500 best: 0.118918
gen: 59000 best: 0.118918
gen: 59500 best: 0.118918
gen: 60000 best: 0.118920
gen: 60500 best: 0.118920
gen: 61000 best: 0.118921
gen: 61500 best: 0.118921
gen: 62000 best: 0.118923
gen: 62500 best: 0.118923
gen: 63000 best: 0.118923
gen: 63500 best: 0.118923
gen: 64000 best: 0.118925
gen: 64500 best: 0.118925
gen: 65000 best: 0.118925
gen: 65500 best: 0.118925
gen: 66000 best: 0.118925
gen: 66500 best: 0.118925
gen: 67000 best: 0.118925
gen: 67500 best: 0.118925
gen: 68000 best: 0.118929
gen: 68500 best: 0.118929
gen: 69000 best: 0.118929
gen: 69500 best: 0.118929
gen: 70000 best: 0.118933
