# architectures
phase1.architecture.length = 4
phase1.architecture = 12 15 10 2
phase1.architecture.hidden.activation = tanh
phase1.architecture.output.activation = tanh
phase2.architecture.length = 4
phase2.architecture = 22 20 12 2
phase2.architecture.hidden.activation = tanh
phase2.architecture.output.activation = tanh
wall.sensors = 10
car.sensors = 10

# other params
mutation.deviation = 0.500000
mutation.probability = 0.100000
alpha = 0.500000
beta = 0.700000

# static params
k.tournament = 3
population.size = 50
population.mean = 0.000000
population.deviation = 1.000000
mutation.mean = 0.000000
phase1.generations = 70000
phase2.generations = 70000
phase3.generations = 70000
number.of.steps = 500

# tracks params
train.number.of.tracks = 6
train.track.files = ../tracks/left1.txt ../tracks/right1.txt ../tracks/left2.txt ../tracks/right2.txt ../tracks/left4.txt ../tracks/right3.txt
train.number.of.cars = 2
train.car.unit = 50

test.number.of.tracks = 2
test.track.files = ../tracks/left4.txt ../tracks/right3.txt
test.number.of.cars = 2
test.car.unit = 50

# winner
winner.weights = -0.165830 0.836999 -0.806803 0.450844 0.453204 0.104743 -0.275573 -0.156101 -0.068863 -1.263832 -0.245152 -0.505613 -0.594557 0.066614 0.411193 -0.036097 0.351523 0.194342 0.087238 0.302995 -0.371167 0.285679 -0.954438 -0.540001 0.704293 0.431793 0.284772 -0.556806 -0.436030 0.548371 0.056820 -0.371377 0.947237 0.265300 -0.018062 0.801400 -0.056521 -0.196154 -0.861316 -0.265810 -0.359241 -0.474581 -0.300729 0.943314 -0.418231 0.149373 0.588051 -0.989581 -0.421079 1.252504 1.429538 1.178665 0.439856 -0.951876 -0.465609 -0.205223 -0.649654 0.378468 -0.301676 0.334221 0.240233 -0.202748 0.236399 1.334359 0.194061 0.109791 0.137312 0.173988 0.548126 0.237058 -0.883563 0.002523 -0.601382 0.045094 -0.511997 1.161437 0.047272 -0.108496 -0.854901 -0.478146 -0.113968 0.066576 -0.064937 -0.342254 -0.488387 0.539701 0.571631 0.274578 0.436737 -0.391603 -0.519553 -0.673459 -0.901834 -1.130460 0.905195 -1.055222 -0.635849 -0.170476 0.504641 0.412025 -0.409204 -0.115909 -1.030416 -0.763446 -0.355649 -0.694100 -0.543555 0.403547 -1.354009 0.449892 -0.321277 0.085825 0.187407 0.488866 -0.109665 -0.621424 1.069013 0.810294 1.526445 -0.077917 0.210708 -0.492416 0.328179 0.709340 -0.335314 -0.361870 0.896411 0.416658 -0.602956 0.220305 1.324313 0.686243 -0.546660 0.377374 0.266252 -0.319381 -0.459912 -0.515950 -0.281878 -0.151601 0.446455 -0.071045 -0.338784 0.281169 -0.170492 -0.502201 0.718804 -0.679365 0.165410 1.099998 0.425577 -0.182000 -0.540378 0.204597 -0.406418 1.175074 -0.278294 -0.681706 -0.055902 0.328491 0.337507 -0.559955 -0.993733 -1.469621 0.737186 -0.941975 -0.998528 1.036631 0.261049 0.828795 0.624315 0.930573 0.773471 -1.473008 -0.325341 0.403107 0.471108 -0.382524 0.741218 0.003175 0.335313 0.285719 0.040354 0.109767 0.288694 -0.201678 0.432205 0.578863 0.404122 -1.256689 -0.076109 1.071695 -0.193003 0.218527 -0.479660 -0.068694 0.263994 0.213837 -0.028129 -0.182102 -0.771139 -0.868234 -0.122759 0.545216 -0.385661 -0.184469 0.822607 0.441095 0.443161 -0.458373 0.497651 -0.264028 -0.496961 -0.475601 0.874474 0.314279 -0.011216 0.388357 1.112168 -0.642134 0.264486 0.948859 -0.396716 0.591525 -0.756048 0.305199 -0.023719 -0.126540 -0.350243 0.542671 0.150938 0.496498 -0.656126 0.799973 -1.276662 -0.502464 0.193657 -0.278348 0.425662 -0.150956 0.600825 0.718212 -1.316372 -0.871612 -0.654939 0.594255 -0.796047 -0.419679 0.139125 0.480874 0.379260 -0.052013 0.452274 -0.039982 0.267599 -0.761262 -0.593334 -0.481100 0.341443 0.051376 -0.721786 0.312485 -0.992606 0.291163 0.398783 0.803571 -0.640676 0.404310 -0.039040 0.179417 -0.611440 0.434985 -0.323185 0.277564 -0.610307 0.084357 -0.625486 0.310819 -0.784095 0.647366 -0.845551 0.350535 -0.509535 0.116715 -0.264532 -0.037767 0.248567 0.634076 -0.517216 0.346827 -0.291557 0.196651 -0.648921 0.528659 0.209249 0.526777 0.036658 0.205647 -0.152093 -2.230777 1.282497 0.613866 -1.354886 -0.079174 -0.032372 0.189909 -0.295897 -0.122827 -1.164682 -0.706261 0.456052 -0.291315 -0.253308 -0.252169 -0.194642 0.386733 -0.576905 0.332944 -0.306268 0.318782 0.515032 -0.743615 -0.219623 0.004642 0.903220 0.663497 0.284841 0.849242 0.267654 -0.162970 0.902756 1.416636 -0.316610 -0.822258 -0.412463 -0.080753 0.337519 0.595646 -0.089009 0.626157 0.576750 0.777401 0.198969 -0.264614 -1.277448 -0.733874 -0.093967 -0.429690 -0.509203 0.123308 0.324126 -0.193794 -0.366785 -0.591915 0.161760 -0.291964 -0.510319 0.368773 -0.426020 0.446810 -0.004926 -1.013585 -1.033720 -0.334290 0.246126 0.178740 -0.034026 -0.280867 -0.334977 0.075297 -0.569627 -0.012858 -0.457979 0.568522 0.674302 0.209781 -0.125483 -0.654224 0.384078 -0.177836 0.774826 -0.339256 0.023521 0.385309 -0.579799 -0.358608 0.204482 -0.596161 0.641987 -0.287096 0.705363 -0.343601 -0.375493 0.105681 -0.517944 0.253350 0.195966 0.213026 -0.616529 0.620103 0.647275 0.104804 -0.011887 0.446620 -0.456909 0.183086 -0.509942 0.319278 -0.913603 0.271855 -0.214992 -0.406520 0.630849 -0.373088 -0.584228 -0.219947 -0.984750 -0.003680 -0.435830 -0.310137 -0.197202 -0.004259 -0.426152 0.139247 0.204838 -1.058942 -0.319692 -0.516384 0.303416 0.332849 -0.589259 -0.053682 -0.249236 0.276326 0.620891 -0.380725 0.124741 -0.421073 -0.315814 0.004790 0.460169 0.349287 1.188126 -0.021830 -0.218324 0.399128 -0.025980 -0.015340 0.697028 0.335118 -0.134663 0.170658 -0.291077 0.320842 -0.223450 0.288793 0.488576 0.372929 -0.141868 -0.417747 -0.092592 0.215386 0.530667 0.058656 -0.581902 -0.157105 0.805072 -0.084213 -0.615310 -0.054052 -0.196736 0.160197 -0.214652 -0.446218 0.158793 -0.708094 0.254716 0.208032 -0.404203 -0.543958 0.261722 -0.304272 0.189179 -0.529900 -0.567401 -0.001638 -0.336065 -0.909525 -0.266667 -0.247956 0.280872 -0.540212 -0.293698 0.870893 -0.036099 -0.012723 0.043790 -0.048807 -0.968145 -0.031746 0.214012 -0.108952 0.060547 0.575071 -0.421943 -0.418490 -0.429120 -0.069146 0.094774 -0.216334 -0.037173 -0.793762 -0.465271 -0.765126 -0.225105 0.450359 1.017096 0.496756 -0.222343 0.596589 -0.402792 0.278664 -0.195080 1.155041 -1.126598 0.651342 0.156528 0.059141 0.790037 0.328872 0.019243 0.173756 -0.179537 0.070072 -0.090707 -0.141898 0.056462 0.234887 -1.068683 -0.003918 0.427535 0.181690 -0.616604 -0.209816 0.709430 -0.217976 -0.140703 0.901386 -0.878533 -1.272405 0.158414 -0.508941 -0.013747 0.727315 -0.763050 0.755099 -0.419600 -1.103985 -0.626079 1.095451 -0.233914 -0.385226 0.275811 -0.264000 -1.426542 -0.079387 -0.388314 -0.800911 -0.319175 0.297326 -0.332713 -0.151565 -0.473202 0.778658 -0.435875 0.959020 -0.561755 0.288734 0.112399 0.399510 -2.440853 0.187245 0.504684 -1.003553 0.370929 0.693937 -0.327687 0.529579 -0.803746 0.653663 0.334717 -0.419727 -0.839680 0.758222 0.194850 -0.581785 -0.188767 -0.892801 0.277154 0.811793 0.733888 -0.381493 -0.278737 -0.075412 0.144841 0.731376 -0.376690 -0.444827 -0.593000 0.514731 -0.106180 -0.374685 0.112622 -0.194705 0.739939 -0.072009 -1.090076 -0.086380 0.100627 0.440248 0.039512 0.978875 -1.290538 -0.862397 -0.077013 0.054491 0.120504 0.041905 -0.462954 -0.937218 0.833862 -0.231666 -0.224634 1.000720 -0.289754 0.250442 -0.137570 -0.498780 -1.041004 -0.069122 0.668427 -0.548281 0.714657 -0.788714 0.026326 0.893363 -0.663359 -0.062127 0.164348 -0.009505 0.725952 -0.514187 0.364184 -0.839839 -0.058374 -0.504784 0.878756 -0.142521 -0.650996 0.210911 0.921211 -0.232488 -0.916170 0.626633 -1.123989 -0.562284 -0.148493 -1.258743 0.207636 0.251163 0.227830 -0.082809 -0.470721 0.009786 -1.232778 0.253408 -1.010460 0.317016 0.416791 0.942222 -0.202468 0.267083 -0.281372 -0.537373 -0.080677 -0.406027 -0.840131 0.261592 -0.118812 0.016397 0.114558 -0.177526 0.212485 0.082204 0.116265 -0.475711 0.235671 0.082964 -0.229551 -0.615401 -0.174520 -0.208389 0.370000 -0.958970 0.381299 -0.093045 0.784794 0.469353 0.397494 -0.780093 0.268360 -0.000002 -0.076015 0.222554 0.850276 -0.572293 0.021450 0.490964 -2.224535 -0.978394 -1.753077 -1.117034 -0.481299 -0.281566 0.284801 2.062425 0.058594 0.435562 -0.203322 0.954450 1.092203 0.450583 0.980530 1.399493 0.034870 -0.027741 0.195178 -0.112312
winner.fitness = 0.065609
