gen: 0 best: 0.097025
gen: 500 best: 0.127136
gen: 1000 best: 0.127377
gen: 1500 best: 0.127459
gen: 2000 best: 0.127527
gen: 2500 best: 0.127717
gen: 3000 best: 0.153707
gen: 3500 best: 0.155267
gen: 4000 best: 0.156215
gen: 4500 best: 0.159151
gen: 5000 best: 0.188288
gen: 5500 best: 0.207973
gen: 6000 best: 0.218499
gen: 6500 best: 0.223149
gen: 7000 best: 0.224836
gen: 7500 best: 0.225382
gen: 8000 best: 0.226948
gen: 8500 best: 0.227665
gen: 9000 best: 0.228138
gen: 9500 best: 0.228349
gen: 10000 best: 0.228638
gen: 10500 best: 0.229596
gen: 11000 best: 0.230541
gen: 11500 best: 0.231293
gen: 12000 best: 0.232527
gen: 12500 best: 0.232767
gen: 13000 best: 0.233549
gen: 13500 best: 0.248712
gen: 14000 best: 0.262949
gen: 14500 best: 0.264859
gen: 15000 best: 0.265199
gen: 15500 best: 0.265396
gen: 16000 best: 0.265396
gen: 16500 best: 0.265449
gen: 17000 best: 0.265449
gen: 17500 best: 0.265449
gen: 18000 best: 0.265449
gen: 18500 best: 0.265449
gen: 19000 best: 0.265449
gen: 19500 best: 0.265449
gen: 20000 best: 0.265449
gen: 20500 best: 0.265449
gen: 21000 best: 0.265449
gen: 21500 best: 0.265449
gen: 22000 best: 0.265449
gen: 22500 best: 0.265449
gen: 23000 best: 0.265455
gen: 23500 best: 0.265455
gen: 24000 best: 0.265455
gen: 24500 best: 0.265455
gen: 25000 best: 0.265455
gen: 25500 best: 0.265455
gen: 26000 best: 0.265455
gen: 26500 best: 0.265455
gen: 27000 best: 0.265520
gen: 27500 best: 0.265520
gen: 28000 best: 0.265520
gen: 28500 best: 0.265520
gen: 29000 best: 0.265520
gen: 29500 best: 0.265520
gen: 30000 best: 0.265520
gen: 30500 best: 0.265520
gen: 31000 best: 0.265520
gen: 31500 best: 0.265520
gen: 32000 best: 0.265723
gen: 32500 best: 0.265723
gen: 33000 best: 0.265723
gen: 33500 best: 0.265723
gen: 34000 best: 0.265723
gen: 34500 best: 0.265723
gen: 35000 best: 0.265723
gen: 35500 best: 0.265723
gen: 36000 best: 0.265723
gen: 36500 best: 0.265971
gen: 37000 best: 0.273773
gen: 37500 best: 0.273773
gen: 38000 best: 0.273773
gen: 38500 best: 0.274256
gen: 39000 best: 0.274658
gen: 39500 best: 0.285491
gen: 40000 best: 0.285491
gen: 40500 best: 0.285491
gen: 41000 best: 0.286269
gen: 41500 best: 0.286269
gen: 42000 best: 0.286902
gen: 42500 best: 0.287109
gen: 43000 best: 0.287549
gen: 43500 best: 0.287549
gen: 44000 best: 0.288043
gen: 44500 best: 0.288043
gen: 45000 best: 0.288386
gen: 45500 best: 0.288386
gen: 46000 best: 0.288716
gen: 46500 best: 0.288716
gen: 47000 best: 0.289160
gen: 47500 best: 0.289160
gen: 48000 best: 0.289160
gen: 48500 best: 0.289160
gen: 49000 best: 0.289160
gen: 49500 best: 0.289473
gen: 50000 best: 0.289626
gen: 50500 best: 0.289626
gen: 51000 best: 0.289626
gen: 51500 best: 0.289626
gen: 52000 best: 0.289656
gen: 52500 best: 0.290122
gen: 53000 best: 0.290122
gen: 53500 best: 0.290122
gen: 54000 best: 0.290226
gen: 54500 best: 0.290226
gen: 55000 best: 0.290327
gen: 55500 best: 0.290377
gen: 56000 best: 0.290377
gen: 56500 best: 0.290701
gen: 57000 best: 0.290701
gen: 57500 best: 0.290701
gen: 58000 best: 0.290701
gen: 58500 best: 0.290701
gen: 59000 best: 0.290701
gen: 59500 best: 0.290701
gen: 60000 best: 0.290701
gen: 60500 best: 0.290874
gen: 61000 best: 0.290963
gen: 61500 best: 0.290963
gen: 62000 best: 0.290963
gen: 62500 best: 0.290963
gen: 63000 best: 0.290963
gen: 63500 best: 0.290963
gen: 64000 best: 0.290963
gen: 64500 best: 0.290963
gen: 65000 best: 0.290963
gen: 65500 best: 0.290963
gen: 66000 best: 0.290963
gen: 66500 best: 0.290985
gen: 67000 best: 0.290985
gen: 67500 best: 0.291094
gen: 68000 best: 0.291094
gen: 68500 best: 0.291094
gen: 69000 best: 0.291094
gen: 69500 best: 0.291094
gen: 70000 best: 0.291094
