gen: 0 best: 0.097153
gen: 500 best: 0.126996
gen: 1000 best: 0.127022
gen: 1500 best: 0.127023
gen: 2000 best: 0.127044
gen: 2500 best: 0.127050
gen: 3000 best: 0.127050
gen: 3500 best: 0.127050
gen: 4000 best: 0.127050
gen: 4500 best: 0.127054
gen: 5000 best: 0.127054
gen: 5500 best: 0.127054
gen: 6000 best: 0.127054
gen: 6500 best: 0.127055
gen: 7000 best: 0.127055
gen: 7500 best: 0.127055
gen: 8000 best: 0.127055
gen: 8500 best: 0.127056
gen: 9000 best: 0.127060
gen: 9500 best: 0.127060
gen: 10000 best: 0.127060
gen: 10500 best: 0.127069
gen: 11000 best: 0.127130
gen: 11500 best: 0.127130
gen: 12000 best: 0.127146
gen: 12500 best: 0.127148
gen: 13000 best: 0.127168
gen: 13500 best: 0.127202
gen: 14000 best: 0.127217
gen: 14500 best: 0.127218
gen: 15000 best: 0.127219
gen: 15500 best: 0.127222
gen: 16000 best: 0.127223
gen: 16500 best: 0.127223
gen: 17000 best: 0.127225
gen: 17500 best: 0.127236
gen: 18000 best: 0.127236
gen: 18500 best: 0.127238
gen: 19000 best: 0.127238
gen: 19500 best: 0.127239
gen: 20000 best: 0.127241
gen: 20500 best: 0.127242
gen: 21000 best: 0.127242
gen: 21500 best: 0.127247
gen: 22000 best: 0.127247
gen: 22500 best: 0.127254
gen: 23000 best: 0.127255
gen: 23500 best: 0.127255
gen: 24000 best: 0.127260
gen: 24500 best: 0.127276
gen: 25000 best: 0.127282
gen: 25500 best: 0.127291
gen: 26000 best: 0.127294
gen: 26500 best: 0.127296
gen: 27000 best: 0.127296
gen: 27500 best: 0.127296
gen: 28000 best: 0.127296
gen: 28500 best: 0.127296
gen: 29000 best: 0.127296
gen: 29500 best: 0.127296
gen: 30000 best: 0.127305
gen: 30500 best: 0.127309
gen: 31000 best: 0.127309
gen: 31500 best: 0.127311
gen: 32000 best: 0.127311
gen: 32500 best: 0.127311
gen: 33000 best: 0.127315
gen: 33500 best: 0.127315
gen: 34000 best: 0.127326
gen: 34500 best: 0.127326
gen: 35000 best: 0.127329
gen: 35500 best: 0.127329
gen: 36000 best: 0.127329
gen: 36500 best: 0.127329
gen: 37000 best: 0.127331
gen: 37500 best: 0.127367
gen: 38000 best: 0.127376
gen: 38500 best: 0.127381
gen: 39000 best: 0.127382
gen: 39500 best: 0.127389
gen: 40000 best: 0.127389
gen: 40500 best: 0.127389
gen: 41000 best: 0.127391
gen: 41500 best: 0.127392
gen: 42000 best: 0.127392
gen: 42500 best: 0.127392
gen: 43000 best: 0.127393
gen: 43500 best: 0.127393
gen: 44000 best: 0.127393
gen: 44500 best: 0.127393
gen: 45000 best: 0.127393
gen: 45500 best: 0.127393
gen: 46000 best: 0.127393
gen: 46500 best: 0.127393
gen: 47000 best: 0.127393
gen: 47500 best: 0.127393
gen: 48000 best: 0.127393
gen: 48500 best: 0.127395
gen: 49000 best: 0.127397
gen: 49500 best: 0.127397
gen: 50000 best: 0.127404
gen: 50500 best: 0.127404
gen: 51000 best: 0.127465
gen: 51500 best: 0.127465
gen: 52000 best: 0.127465
gen: 52500 best: 0.127465
gen: 53000 best: 0.127471
gen: 53500 best: 0.127471
gen: 54000 best: 0.127471
gen: 54500 best: 0.127473
gen: 55000 best: 0.127478
gen: 55500 best: 0.127495
gen: 56000 best: 0.127497
gen: 56500 best: 0.127499
gen: 57000 best: 0.127507
gen: 57500 best: 0.127507
gen: 58000 best: 0.127538
gen: 58500 best: 0.127542
gen: 59000 best: 0.127548
gen: 59500 best: 0.127571
gen: 60000 best: 0.127599
gen: 60500 best: 0.127605
gen: 61000 best: 0.127622
gen: 61500 best: 0.127629
gen: 62000 best: 0.127629
gen: 62500 best: 0.127638
gen: 63000 best: 0.127638
gen: 63500 best: 0.127640
gen: 64000 best: 0.127640
gen: 64500 best: 0.127640
gen: 65000 best: 0.127640
gen: 65500 best: 0.127640
gen: 66000 best: 0.127640
gen: 66500 best: 0.127640
gen: 67000 best: 0.127640
gen: 67500 best: 0.127640
gen: 68000 best: 0.127640
gen: 68500 best: 0.127642
gen: 69000 best: 0.127645
gen: 69500 best: 0.127646
gen: 70000 best: 0.127646
