gen: 0 best: 0.089850
gen: 500 best: 0.095251
gen: 1000 best: 0.105360
gen: 1500 best: 0.109088
gen: 2000 best: 0.111740
gen: 2500 best: 0.114034
gen: 3000 best: 0.115695
gen: 3500 best: 0.116910
gen: 4000 best: 0.117737
gen: 4500 best: 0.118565
gen: 5000 best: 0.119537
gen: 5500 best: 0.120823
gen: 6000 best: 0.121953
gen: 6500 best: 0.122326
gen: 7000 best: 0.123497
gen: 7500 best: 0.124589
gen: 8000 best: 0.125014
gen: 8500 best: 0.125040
gen: 9000 best: 0.125050
gen: 9500 best: 0.125050
gen: 10000 best: 0.125052
gen: 10500 best: 0.125052
gen: 11000 best: 0.125053
gen: 11500 best: 0.125207
gen: 12000 best: 0.125355
gen: 12500 best: 0.125360
gen: 13000 best: 0.125361
gen: 13500 best: 0.125363
gen: 14000 best: 0.125365
gen: 14500 best: 0.125366
gen: 15000 best: 0.125366
gen: 15500 best: 0.125366
gen: 16000 best: 0.125561
gen: 16500 best: 0.125870
gen: 17000 best: 0.125930
gen: 17500 best: 0.126210
gen: 18000 best: 0.126466
gen: 18500 best: 0.126593
gen: 19000 best: 0.126600
gen: 19500 best: 0.126600
gen: 20000 best: 0.126601
gen: 20500 best: 0.126603
gen: 21000 best: 0.126608
gen: 21500 best: 0.126610
gen: 22000 best: 0.126611
gen: 22500 best: 0.126611
gen: 23000 best: 0.126611
gen: 23500 best: 0.126611
gen: 24000 best: 0.126613
gen: 24500 best: 0.126613
gen: 25000 best: 0.126617
gen: 25500 best: 0.126622
gen: 26000 best: 0.126622
gen: 26500 best: 0.126622
gen: 27000 best: 0.126623
gen: 27500 best: 0.126623
gen: 28000 best: 0.126625
gen: 28500 best: 0.126625
gen: 29000 best: 0.126627
gen: 29500 best: 0.126875
gen: 30000 best: 0.126882
gen: 30500 best: 0.126882
gen: 31000 best: 0.126882
gen: 31500 best: 0.126883
gen: 32000 best: 0.126886
gen: 32500 best: 0.126886
gen: 33000 best: 0.126888
gen: 33500 best: 0.126889
gen: 34000 best: 0.126889
gen: 34500 best: 0.126900
gen: 35000 best: 0.126903
gen: 35500 best: 0.126906
gen: 36000 best: 0.126908
gen: 36500 best: 0.126908
gen: 37000 best: 0.126949
gen: 37500 best: 0.127216
gen: 38000 best: 0.127235
gen: 38500 best: 0.127235
gen: 39000 best: 0.127235
gen: 39500 best: 0.127235
gen: 40000 best: 0.127236
gen: 40500 best: 0.127237
gen: 41000 best: 0.127237
gen: 41500 best: 0.127242
gen: 42000 best: 0.127243
gen: 42500 best: 0.127243
gen: 43000 best: 0.127528
gen: 43500 best: 0.127544
gen: 44000 best: 0.127544
gen: 44500 best: 0.127544
gen: 45000 best: 0.127544
gen: 45500 best: 0.127544
gen: 46000 best: 0.127544
gen: 46500 best: 0.127545
gen: 47000 best: 0.127545
gen: 47500 best: 0.127550
gen: 48000 best: 0.127550
gen: 48500 best: 0.127550
gen: 49000 best: 0.127803
gen: 49500 best: 0.127852
gen: 50000 best: 0.127854
gen: 50500 best: 0.127854
gen: 51000 best: 0.127856
gen: 51500 best: 0.127856
gen: 52000 best: 0.127856
gen: 52500 best: 0.127856
gen: 53000 best: 0.127856
gen: 53500 best: 0.127857
gen: 54000 best: 0.127857
gen: 54500 best: 0.127857
gen: 55000 best: 0.127858
gen: 55500 best: 0.127858
gen: 56000 best: 0.127858
gen: 56500 best: 0.127859
gen: 57000 best: 0.127859
gen: 57500 best: 0.127859
gen: 58000 best: 0.127859
gen: 58500 best: 0.127860
gen: 59000 best: 0.127861
gen: 59500 best: 0.127861
gen: 60000 best: 0.127861
gen: 60500 best: 0.127861
gen: 61000 best: 0.127862
gen: 61500 best: 0.127862
gen: 62000 best: 0.127862
gen: 62500 best: 0.127862
gen: 63000 best: 0.127863
gen: 63500 best: 0.127864
gen: 64000 best: 0.127864
gen: 64500 best: 0.127864
gen: 65000 best: 0.127864
gen: 65500 best: 0.127865
gen: 66000 best: 0.127866
gen: 66500 best: 0.127866
gen: 67000 best: 0.127866
gen: 67500 best: 0.127867
gen: 68000 best: 0.127867
gen: 68500 best: 0.127868
gen: 69000 best: 0.127868
gen: 69500 best: 0.127869
gen: 70000 best: 0.127869
