gen: 0 best: 0.091556
gen: 500 best: 0.138179
gen: 1000 best: 0.152321
gen: 1500 best: 0.152554
gen: 2000 best: 0.152770
gen: 2500 best: 0.153938
gen: 3000 best: 0.155031
gen: 3500 best: 0.157108
gen: 4000 best: 0.160312
gen: 4500 best: 0.202827
gen: 5000 best: 0.209856
gen: 5500 best: 0.219700
gen: 6000 best: 0.222789
gen: 6500 best: 0.224773
gen: 7000 best: 0.226141
gen: 7500 best: 0.227228
gen: 8000 best: 0.227237
gen: 8500 best: 0.227806
gen: 9000 best: 0.228889
gen: 9500 best: 0.229303
gen: 10000 best: 0.229649
gen: 10500 best: 0.229852
gen: 11000 best: 0.230308
gen: 11500 best: 0.231126
gen: 12000 best: 0.231167
gen: 12500 best: 0.232377
gen: 13000 best: 0.233824
gen: 13500 best: 0.233824
gen: 14000 best: 0.235093
gen: 14500 best: 0.262200
gen: 15000 best: 0.264230
gen: 15500 best: 0.265518
gen: 16000 best: 0.265518
gen: 16500 best: 0.265518
gen: 17000 best: 0.265595
gen: 17500 best: 0.265595
gen: 18000 best: 0.265609
gen: 18500 best: 0.265715
gen: 19000 best: 0.265715
gen: 19500 best: 0.265715
gen: 20000 best: 0.265715
gen: 20500 best: 0.265919
gen: 21000 best: 0.265919
gen: 21500 best: 0.265919
gen: 22000 best: 0.265919
gen: 22500 best: 0.265919
gen: 23000 best: 0.265919
gen: 23500 best: 0.265919
gen: 24000 best: 0.265919
gen: 24500 best: 0.265942
gen: 25000 best: 0.266050
gen: 25500 best: 0.266050
gen: 26000 best: 0.266050
gen: 26500 best: 0.266050
gen: 27000 best: 0.266050
gen: 27500 best: 0.266050
gen: 28000 best: 0.266050
gen: 28500 best: 0.266050
gen: 29000 best: 0.266050
gen: 29500 best: 0.266121
gen: 30000 best: 0.266121
gen: 30500 best: 0.266154
gen: 31000 best: 0.266215
gen: 31500 best: 0.266288
gen: 32000 best: 0.266288
gen: 32500 best: 0.266288
gen: 33000 best: 0.266288
gen: 33500 best: 0.266303
gen: 34000 best: 0.274582
gen: 34500 best: 0.288250
gen: 35000 best: 0.288776
gen: 35500 best: 0.288776
gen: 36000 best: 0.289238
gen: 36500 best: 0.289270
gen: 37000 best: 0.289270
gen: 37500 best: 0.289270
gen: 38000 best: 0.289270
gen: 38500 best: 0.289270
gen: 39000 best: 0.289383
gen: 39500 best: 0.289616
gen: 40000 best: 0.289631
gen: 40500 best: 0.289661
gen: 41000 best: 0.289661
gen: 41500 best: 0.289661
gen: 42000 best: 0.289689
gen: 42500 best: 0.289705
gen: 43000 best: 0.290292
gen: 43500 best: 0.290292
gen: 44000 best: 0.290292
gen: 44500 best: 0.290360
gen: 45000 best: 0.290360
gen: 45500 best: 0.290397
gen: 46000 best: 0.290397
gen: 46500 best: 0.290519
gen: 47000 best: 0.290519
gen: 47500 best: 0.290519
gen: 48000 best: 0.290544
gen: 48500 best: 0.290544
gen: 49000 best: 0.290544
gen: 49500 best: 0.290683
gen: 50000 best: 0.290683
gen: 50500 best: 0.290683
gen: 51000 best: 0.290683
gen: 51500 best: 0.290723
gen: 52000 best: 0.290723
gen: 52500 best: 0.290723
gen: 53000 best: 0.290723
gen: 53500 best: 0.290723
gen: 54000 best: 0.290792
gen: 54500 best: 0.290792
gen: 55000 best: 0.290828
gen: 55500 best: 0.290828
gen: 56000 best: 0.290828
gen: 56500 best: 0.290980
gen: 57000 best: 0.290980
gen: 57500 best: 0.290980
gen: 58000 best: 0.290980
gen: 58500 best: 0.290980
gen: 59000 best: 0.290980
gen: 59500 best: 0.291048
gen: 60000 best: 0.291048
gen: 60500 best: 0.291048
gen: 61000 best: 0.291048
gen: 61500 best: 0.291118
gen: 62000 best: 0.291118
gen: 62500 best: 0.291118
gen: 63000 best: 0.291118
gen: 63500 best: 0.291118
gen: 64000 best: 0.291118
gen: 64500 best: 0.291118
gen: 65000 best: 0.291118
gen: 65500 best: 0.291118
gen: 66000 best: 0.291118
gen: 66500 best: 0.291118
gen: 67000 best: 0.291118
gen: 67500 best: 0.291154
gen: 68000 best: 0.291154
gen: 68500 best: 0.291154
gen: 69000 best: 0.291154
gen: 69500 best: 0.291154
gen: 70000 best: 0.291279
