# architectures
phase1.architecture.length = 4
phase1.architecture = 12 15 10 2
phase1.architecture.hidden.activation = sigmoid
phase1.architecture.output.activation = tanh
phase2.architecture.length = 4
phase2.architecture = 22 20 12 2
phase2.architecture.hidden.activation = sigmoid
phase2.architecture.output.activation = tanh
wall.sensors = 10
car.sensors = 10

# other params
mutation.deviation = 0.500000
mutation.probability = 0.010000
alpha = 0.700000
beta = 0.700000

# static params
k.tournament = 3
population.size = 50
population.mean = 0.000000
population.deviation = 1.000000
mutation.mean = 0.000000
phase1.generations = 70000
phase2.generations = 70000
phase3.generations = 70000
number.of.steps = 500

# tracks params
train.number.of.tracks = 6
train.track.files = ../tracks/left1.txt ../tracks/right1.txt ../tracks/left2.txt ../tracks/right2.txt ../tracks/left4.txt ../tracks/right3.txt
train.number.of.cars = 2
train.car.unit = 50

test.number.of.tracks = 2
test.track.files = ../tracks/left4.txt ../tracks/right3.txt
test.number.of.cars = 2
test.car.unit = 50

# winner
winner.weights = -0.082239 -0.508593 0.154590 -0.626065 0.006365 -0.413445 -0.077388 -0.660065 0.320318 0.213314 0.295519 -0.088316 0.398353 0.128968 -0.002113 -0.369693 -0.258844 -0.201285 -0.129001 0.527903 1.109803 -0.193138 0.140376 -0.370551 0.274513 0.423873 -0.191294 0.174233 0.118533 0.299495 0.067219 0.225851 -0.184003 -0.625085 0.221892 -0.097627 0.350760 -0.011528 0.060923 0.840701 0.432321 0.181873 0.401461 -0.004465 0.293257 -0.257192 -0.115660 -0.345051 0.080409 -0.382281 0.475330 0.078559 -0.450395 -0.295620 0.178080 1.005523 0.231409 -0.240928 0.208328 0.089657 0.449325 -0.157703 0.657153 -0.330309 0.274738 0.028548 0.246580 -0.186685 0.008402 0.533561 -0.547521 0.237704 0.204567 -0.168442 0.173609 0.810387 0.403868 0.730386 -0.110271 0.153197 -0.272937 -0.333392 -0.269406 0.369118 -0.509165 0.198400 0.325632 0.059751 0.090753 -0.605943 -0.125848 0.203846 0.117020 -0.441009 0.185155 0.196800 -0.202913 0.321575 -0.224282 0.148136 -0.198759 0.521856 0.188827 0.184847 -0.192589 0.198758 -0.041684 0.635548 0.143854 -0.094427 -0.437282 0.151140 -0.101905 0.898939 0.174842 -0.159661 0.014739 0.214761 0.015990 -0.574591 0.131848 -0.206941 0.140266 -0.003226 0.280968 0.334515 0.254210 0.742455 -0.120814 -0.472609 -0.035025 0.069889 0.115040 0.318280 -0.170927 -0.565062 -0.583849 -0.080390 0.296258 -0.254402 0.070460 0.498587 -0.341367 -0.236697 0.840751 -0.078169 0.228742 -0.366325 0.406574 0.172507 -0.413120 0.078849 -0.020286 -0.428467 0.308054 -0.130002 0.040649 -0.265568 -0.350131 0.044047 -0.399817 -0.314732 -0.332294 -0.189942 0.285584 0.067198 -0.225695 0.403491 -0.086143 0.201103 0.036375 0.049222 -0.033824 -0.865359 -0.007427 0.220861 0.057489 -0.089807 0.072368 -0.206085 -0.100964 -0.079191 -0.525535 -0.072974 0.284179 0.790989 -0.156907 0.059967 0.376385 0.322488 0.184210 0.035140 -0.871234 0.203409 -0.027527 0.117110 0.111306 0.659130 -0.663967 -0.335453 0.284014 -0.012168 -0.296316 0.201947 0.423948 -0.418956 0.456244 -0.164809 -0.694311 -0.528901 0.720028 0.251810 -0.255717 0.595603 0.143235 -0.199635 0.307521 -0.145059 0.273998 -0.105524 0.055413 0.183932 0.051353 0.174579 -0.012399 0.248326 -0.466214 -0.299565 0.105402 0.014104 0.112942 0.411782 -0.015517 0.510757 0.011296 -0.157927 -0.036380 -0.159556 -0.103423 0.474680 -0.581124 0.009272 0.097431 -0.582390 -0.021389 -0.001845 0.167069 0.130298 0.292542 0.513647 0.292420 -0.352204 -0.289279 0.772178 0.428461 0.216854 -0.213096 -0.258525 0.067089 0.290662 0.266215 0.026401 -0.109454 0.144256 0.692820 0.728515 -0.397196 -0.102145 -0.091267 -0.166555 0.002377 -0.198656 0.078323 0.520251 -0.349817 0.136212 -0.443100 -0.114460 0.304984 -0.509194 -0.130349 -0.033302 0.068700 0.197290 -0.240700 -0.235267 0.256989 -0.478378 -0.143940 -0.135469 -0.656766 -0.071190 -0.279035 0.102523 0.076760 0.321352 -0.069267 -0.389841 -0.292349 -0.240730 -0.279013 0.129788 -0.466372 -0.184035 0.554793 0.149175 -0.066391 -0.068655 -0.221659 0.364057 0.369485 0.294946 0.210888 -0.476773 0.872312 0.368224 0.004690 0.029846 -0.660688 0.174287 -0.321048 0.436059 -0.468405 0.299243 -0.339868 -0.089551 0.325660 -0.111958 0.341203 -0.077328 0.089406 -0.615194 0.078843 0.134574 0.021510 0.149836 -0.296554 -0.798069 0.529024 -0.152248 0.241255 -0.273937 0.618451 -0.196791 -0.141348 0.009914 0.100443 0.029089 -0.663890 0.076430 0.062179 -0.235085 -0.087844 0.055132 -0.154684 -0.343372 0.106395 0.466020 -0.495694 0.024588 -0.395848 0.369575 0.324192 -0.138599 0.132907 0.025378 0.368002 0.097431 0.048922 -0.040746 -0.182138 -0.337880 0.155788 0.122939 -0.436035 0.191799 0.339924 0.028239 -0.240249 -0.144321 0.420941 0.141203 -0.074462 -0.051323 -0.023461 -0.009305 0.359496 -0.238942 -0.370668 -0.407844 -0.115685 -0.309667 0.130238 0.075303 -0.173997 0.062969 0.064721 0.010744 0.454654 -0.061537 0.127951 -0.035092 -0.299244 0.204493 0.170885 0.439211 -0.441427 -0.633088 0.032688 -0.113584 0.314303 -0.003169 -0.600633 0.184804 0.410986 -0.124681 -0.028870 0.002983 -0.002236 -0.123738 0.057881 -0.291887 0.284873 0.050460 -0.957492 0.197379 -0.379446 -0.181136 0.239237 0.172412 0.538265 0.360432 0.095261 0.027541 -0.404447 -0.307791 0.360844 0.197155 0.470827 -0.124658 -0.407285 0.376150 -0.148969 -0.266605 -0.079603 0.097127 -0.014019 0.106069 0.141874 0.201548 0.101417 0.309226 0.318649 0.151575 -0.314972 0.328678 0.155055 0.164194 0.393977 -0.092975 0.059474 -0.067241 0.152386 0.164963 0.682864 -0.089284 -0.227743 0.024615 0.108323 0.166930 0.013671 0.228503 0.328520 0.026199 -0.142087 -0.631233 0.081427 -0.253555 0.827708 0.163450 0.327809 -0.147781 0.167426 -0.142960 0.056389 -0.079513 -0.330634 -0.222380 0.430249 -0.003688 0.361377 0.605192 0.566019 0.291475 -0.110916 0.280184 0.101117 -0.142361 0.513601 -0.133119 -0.625826 0.295326 0.031245 -0.062007 -0.305791 -0.292788 0.008956 -0.126566 -0.652650 0.185942 0.195653 0.001897 0.024788 -0.545247 -0.447058 -0.339362 0.076188 -0.377677 -0.049166 -0.192923 0.177294 0.479901 0.033144 0.232921 -0.247680 0.281035 -0.912993 -0.416356 -0.535956 0.086008 -0.309037 0.198529 0.053606 -0.155955 0.038005 0.483694 -0.110158 -0.019721 -0.049184 -0.058572 -0.167461 -0.413060 0.219424 -0.429325 -0.244280 0.300694 0.647066 -0.046769 0.302771 -0.013013 0.216794 -0.118918 0.009673 -0.232640 0.581221 -0.313133 -0.144529 0.069040 0.244212 -0.063269 0.221610 -0.081518 0.024402 0.287801 0.138430 -0.236983 -0.015918 -0.186723 0.602316 -0.345239 0.650657 -0.003218 0.127081 0.630625 -0.241146 0.471115 -0.395340 -0.547986 0.541165 -0.810545 0.375727 -0.317416 -0.162726 0.297672 -0.149315 0.018200 -0.248332 0.204839 -0.286733 -0.072066 -0.189675 0.857915 -0.304912 -0.062023 0.842739 0.067603 0.115976 0.316709 0.247077 0.336228 0.463533 -0.320617 -0.584481 -0.014863 -0.060635 0.233907 -0.287094 0.049735 -0.307928 -0.189925 0.051882 -0.221641 -0.171778 0.121518 -0.667496 -0.129340 0.163411 -0.131174 -0.294753 0.429526 0.112093 -0.094528 -0.002023 0.232913 -0.188537 -0.412874 -0.373510 -0.319042 -0.360878 0.081431 0.022094 0.172404 0.101249 0.370199 -0.009090 0.085899 -0.041862 -0.206209 -0.201364 0.261826 -0.046719 0.166103 0.160346 0.279943 0.224351 0.846281 0.159835 -0.035690 0.211463 0.099576 0.271551 -0.124739 -0.288191 -0.427695 -0.273434 -0.093137 -0.198721 0.446803 -0.358470 0.143329 -0.196754 -0.093191 -0.271105 0.230698 -0.076350 0.158436 0.020920 -0.046347 0.359216 0.153233 -0.071769 0.060809 -0.103336 0.126159 -0.056785 -0.187064 0.365403 -0.353525 -0.029505 -0.149575 0.134513 0.182434 -0.390596 -0.076000 0.290814 -0.452852 0.319631 -0.061177 0.483062 0.194764 -0.064092 -0.184905 0.324275 -0.297365 -0.528583 -0.440752 0.181582 0.053728 0.078533 0.031768 0.209618 -0.429189 0.288330 -0.373536 0.111971 -0.255660 0.259014 -0.160772 -0.024458 -0.271455 -0.729347 0.112423 -0.173003 0.123711 -0.608420 -0.091332 -0.680092 0.070135 -0.119111 0.208278 -0.115201 0.225869 -0.043481 0.309578 -0.082293 0.971192 1.186851 -0.355352 -0.289940 0.796724 0.613994 -0.437319 -0.552996 0.477247 -0.288689 -0.321846 -0.278999 -0.032099
winner.fitness = 0.053750
