gen: 0 best: 0.073988
gen: 500 best: 0.080072
gen: 1000 best: 0.080295
gen: 1500 best: 0.080703
gen: 2000 best: 0.080808
gen: 2500 best: 0.080931
gen: 3000 best: 0.080931
gen: 3500 best: 0.080963
gen: 4000 best: 0.081020
gen: 4500 best: 0.081020
gen: 5000 best: 0.081026
gen: 5500 best: 0.081071
gen: 6000 best: 0.081071
gen: 6500 best: 0.081071
gen: 7000 best: 0.081074
gen: 7500 best: 0.081074
gen: 8000 best: 0.081219
gen: 8500 best: 0.082549
gen: 9000 best: 0.082619
gen: 9500 best: 0.082678
gen: 10000 best: 0.082703
gen: 10500 best: 0.082742
gen: 11000 best: 0.082749
gen: 11500 best: 0.082806
gen: 12000 best: 0.082806
gen: 12500 best: 0.082815
gen: 13000 best: 0.082815
gen: 13500 best: 0.082815
gen: 14000 best: 0.082832
gen: 14500 best: 0.082861
gen: 15000 best: 0.082861
gen: 15500 best: 0.082861
gen: 16000 best: 0.082884
gen: 16500 best: 0.082887
gen: 17000 best: 0.082887
gen: 17500 best: 0.082887
gen: 18000 best: 0.082919
gen: 18500 best: 0.082919
gen: 19000 best: 0.082944
gen: 19500 best: 0.082944
gen: 20000 best: 0.082944
gen: 20500 best: 0.082946
gen: 21000 best: 0.082946
gen: 21500 best: 0.082946
gen: 22000 best: 0.082946
gen: 22500 best: 0.082958
gen: 23000 best: 0.082980
gen: 23500 best: 0.082987
gen: 24000 best: 0.082992
gen: 24500 best: 0.082992
gen: 25000 best: 0.082992
gen: 25500 best: 0.082992
gen: 26000 best: 0.082997
gen: 26500 best: 0.082997
gen: 27000 best: 0.082997
gen: 27500 best: 0.082997
gen: 28000 best: 0.082997
gen: 28500 best: 0.083013
gen: 29000 best: 0.083013
gen: 29500 best: 0.083013
gen: 30000 best: 0.083013
gen: 30500 best: 0.083013
gen: 31000 best: 0.083013
gen: 31500 best: 0.083013
gen: 32000 best: 0.083013
gen: 32500 best: 0.083013
gen: 33000 best: 0.083014
gen: 33500 best: 0.083014
gen: 34000 best: 0.083014
gen: 34500 best: 0.083014
gen: 35000 best: 0.083018
gen: 35500 best: 0.083020
gen: 36000 best: 0.083020
gen: 36500 best: 0.083020
gen: 37000 best: 0.083020
gen: 37500 best: 0.083129
gen: 38000 best: 0.083129
gen: 38500 best: 0.083163
gen: 39000 best: 0.083167
gen: 39500 best: 0.083180
gen: 40000 best: 0.083180
gen: 40500 best: 0.083184
gen: 41000 best: 0.083204
gen: 41500 best: 0.083204
gen: 42000 best: 0.083204
gen: 42500 best: 0.083204
gen: 43000 best: 0.083204
gen: 43500 best: 0.083204
gen: 44000 best: 0.083204
gen: 44500 best: 0.083204
gen: 45000 best: 0.083208
gen: 45500 best: 0.083208
gen: 46000 best: 0.083208
gen: 46500 best: 0.083208
gen: 47000 best: 0.083208
gen: 47500 best: 0.083287
gen: 48000 best: 0.083287
gen: 48500 best: 0.083287
gen: 49000 best: 0.083287
gen: 49500 best: 0.083287
gen: 50000 best: 0.083287
gen: 50500 best: 0.083287
gen: 51000 best: 0.083287
gen: 51500 best: 0.083287
gen: 52000 best: 0.083316
gen: 52500 best: 0.083339
gen: 53000 best: 0.083339
gen: 53500 best: 0.083357
gen: 54000 best: 0.083363
gen: 54500 best: 0.083363
gen: 55000 best: 0.083363
gen: 55500 best: 0.083363
gen: 56000 best: 0.083363
gen: 56500 best: 0.083365
gen: 57000 best: 0.083365
gen: 57500 best: 0.083365
gen: 58000 best: 0.083365
gen: 58500 best: 0.083365
gen: 59000 best: 0.083365
gen: 59500 best: 0.083365
gen: 60000 best: 0.083365
gen: 60500 best: 0.083366
gen: 61000 best: 0.083377
gen: 61500 best: 0.083377
gen: 62000 best: 0.083377
gen: 62500 best: 0.083377
gen: 63000 best: 0.083377
gen: 63500 best: 0.083388
gen: 64000 best: 0.083388
gen: 64500 best: 0.083388
gen: 65000 best: 0.083413
gen: 65500 best: 0.083414
gen: 66000 best: 0.083424
gen: 66500 best: 0.083424
gen: 67000 best: 0.083430
gen: 67500 best: 0.083430
gen: 68000 best: 0.083430
gen: 68500 best: 0.083430
gen: 69000 best: 0.083434
gen: 69500 best: 0.083434
gen: 70000 best: 0.083457
