gen: 0 best: 0.104945
gen: 500 best: 0.106207
gen: 1000 best: 0.106237
gen: 1500 best: 0.106508
gen: 2000 best: 0.106706
gen: 2500 best: 0.106900
gen: 3000 best: 0.106907
gen: 3500 best: 0.106964
gen: 4000 best: 0.106983
gen: 4500 best: 0.107068
gen: 5000 best: 0.107068
gen: 5500 best: 0.107127
gen: 6000 best: 0.107143
gen: 6500 best: 0.107143
gen: 7000 best: 0.107359
gen: 7500 best: 0.107378
gen: 8000 best: 0.107433
gen: 8500 best: 0.107452
gen: 9000 best: 0.107452
gen: 9500 best: 0.107452
gen: 10000 best: 0.107517
gen: 10500 best: 0.107517
gen: 11000 best: 0.107517
gen: 11500 best: 0.107629
gen: 12000 best: 0.107674
gen: 12500 best: 0.107677
gen: 13000 best: 0.107740
gen: 13500 best: 0.107740
gen: 14000 best: 0.107740
gen: 14500 best: 0.107789
gen: 15000 best: 0.107863
gen: 15500 best: 0.107906
gen: 16000 best: 0.108014
gen: 16500 best: 0.108014
gen: 17000 best: 0.108043
gen: 17500 best: 0.108143
gen: 18000 best: 0.108291
gen: 18500 best: 0.108366
gen: 19000 best: 0.108443
gen: 19500 best: 0.108561
gen: 20000 best: 0.108583
gen: 20500 best: 0.108603
gen: 21000 best: 0.108603
gen: 21500 best: 0.108640
gen: 22000 best: 0.108707
gen: 22500 best: 0.108764
gen: 23000 best: 0.108795
gen: 23500 best: 0.108815
gen: 24000 best: 0.108924
gen: 24500 best: 0.109047
gen: 25000 best: 0.109117
gen: 25500 best: 0.109117
gen: 26000 best: 0.109221
gen: 26500 best: 0.109221
gen: 27000 best: 0.109221
gen: 27500 best: 0.109221
gen: 28000 best: 0.109221
gen: 28500 best: 0.109286
gen: 29000 best: 0.109286
gen: 29500 best: 0.109361
gen: 30000 best: 0.109369
gen: 30500 best: 0.109438
gen: 31000 best: 0.109623
gen: 31500 best: 0.109972
gen: 32000 best: 0.109972
gen: 32500 best: 0.110026
gen: 33000 best: 0.110121
gen: 33500 best: 0.110121
gen: 34000 best: 0.110121
gen: 34500 best: 0.110294
gen: 35000 best: 0.110328
gen: 35500 best: 0.110552
gen: 36000 best: 0.110552
gen: 36500 best: 0.110586
gen: 37000 best: 0.110586
gen: 37500 best: 0.110586
gen: 38000 best: 0.110822
gen: 38500 best: 0.110833
gen: 39000 best: 0.110902
gen: 39500 best: 0.110965
gen: 40000 best: 0.111061
gen: 40500 best: 0.111263
gen: 41000 best: 0.111418
gen: 41500 best: 0.111493
gen: 42000 best: 0.111493
gen: 42500 best: 0.111515
gen: 43000 best: 0.111515
gen: 43500 best: 0.111655
gen: 44000 best: 0.111672
gen: 44500 best: 0.111720
gen: 45000 best: 0.111720
gen: 45500 best: 0.111827
gen: 46000 best: 0.111884
gen: 46500 best: 0.111935
gen: 47000 best: 0.111935
gen: 47500 best: 0.112017
gen: 48000 best: 0.112072
gen: 48500 best: 0.112091
gen: 49000 best: 0.112269
gen: 49500 best: 0.112269
gen: 50000 best: 0.112302
gen: 50500 best: 0.112356
gen: 51000 best: 0.112357
gen: 51500 best: 0.112361
gen: 52000 best: 0.112398
gen: 52500 best: 0.112439
gen: 53000 best: 0.112686
gen: 53500 best: 0.112686
gen: 54000 best: 0.126721
gen: 54500 best: 0.127006
gen: 55000 best: 0.127036
gen: 55500 best: 0.127040
gen: 56000 best: 0.127040
gen: 56500 best: 0.127040
gen: 57000 best: 0.127137
gen: 57500 best: 0.127137
gen: 58000 best: 0.127137
gen: 58500 best: 0.127137
gen: 59000 best: 0.127137
gen: 59500 best: 0.127137
gen: 60000 best: 0.127179
gen: 60500 best: 0.127192
gen: 61000 best: 0.127269
gen: 61500 best: 0.127333
gen: 62000 best: 0.127349
gen: 62500 best: 0.127395
gen: 63000 best: 0.127402
gen: 63500 best: 0.127414
gen: 64000 best: 0.127444
gen: 64500 best: 0.127444
gen: 65000 best: 0.127444
gen: 65500 best: 0.135103
gen: 66000 best: 0.155384
gen: 66500 best: 0.155459
gen: 67000 best: 0.155459
gen: 67500 best: 0.155543
gen: 68000 best: 0.155543
gen: 68500 best: 0.155543
gen: 69000 best: 0.155543
gen: 69500 best: 0.155543
gen: 70000 best: 0.155543
