# architectures
phase1.architecture.length = 4
phase1.architecture = 8 15 10 2
phase1.architecture.hidden.activation = sigmoid
phase1.architecture.output.activation = tanh
phase2.architecture.length = 4
phase2.architecture = 14 20 12 2
phase2.architecture.hidden.activation = sigmoid
phase2.architecture.output.activation = tanh
wall.sensors = 6
car.sensors = 6

# other params
mutation.deviation = 0.050000
mutation.probability = 0.100000
alpha = 0.300000
beta = 0.700000

# static params
k.tournament = 3
population.size = 50
population.mean = 0.000000
population.deviation = 1.000000
mutation.mean = 0.000000
phase1.generations = 70000
phase2.generations = 70000
phase3.generations = 70000
number.of.steps = 500

# tracks params
train.number.of.tracks = 6
train.track.files = ../tracks/left1.txt ../tracks/right1.txt ../tracks/left2.txt ../tracks/right2.txt ../tracks/left4.txt ../tracks/right3.txt
train.number.of.cars = 2
train.car.unit = 50

test.number.of.tracks = 2
test.track.files = ../tracks/left4.txt ../tracks/right3.txt
test.number.of.cars = 2
test.car.unit = 50

# winner
winner.weights = 0.021721 0.006830 -0.343818 0.331102 -0.035556 0.654303 0.137458 -0.464136 0.082509 0.049317 -0.317654 0.227972 -0.276929 0.380001 -0.355687 -0.566395 -0.396277 0.363302 -0.080512 -0.410702 0.092661 0.043057 -0.200580 0.187140 -0.083887 -0.242621 -0.359082 0.217442 -0.013464 0.284219 0.305974 0.633390 -0.162436 -0.479763 -0.192459 -0.110530 -0.024944 -0.314320 0.263782 0.218120 -0.092888 0.138602 -0.129115 0.335128 0.341125 0.132271 0.133803 -0.022014 0.091179 -0.062241 0.382986 -0.227246 0.023573 -0.068898 0.064891 0.539742 -0.334549 -0.119557 0.150519 0.080438 -0.141844 -0.023211 0.133020 -0.280498 0.084088 0.288867 0.054904 -0.121363 -0.218674 -0.104617 0.053871 0.204134 -0.563072 -0.418007 0.177223 -0.121783 -0.432927 0.157310 -0.789538 0.001394 0.075037 0.209090 -0.367111 -0.282677 0.181838 0.219772 -0.059478 0.156670 -0.053286 -0.624157 0.065799 -0.255727 0.256331 -0.043080 -0.079505 -0.107618 -0.093396 0.007166 -0.205694 -0.043261 0.046334 0.072144 0.181613 0.131421 -0.381406 0.618977 0.050397 -0.256989 0.155792 0.231473 -0.159738 0.195630 -0.660744 -0.376535 -0.206649 0.562169 0.309104 -0.061971 0.048571 -0.231209 -0.414572 -0.198766 -0.035073 -0.013688 0.152203 -0.457229 -0.376664 0.073624 0.136257 -0.134293 0.093282 -0.173035 -0.008382 0.106411 -0.276777 -0.087566 0.144946 -0.068114 -0.439614 0.123876 -0.287610 0.045660 -0.254890 0.018972 0.273048 0.308207 0.112890 -0.019430 -0.070493 -0.164085 0.231398 0.104721 0.331621 0.084095 0.315753 -0.206066 0.097099 -0.203184 0.298251 0.323700 -0.097319 -0.000587 -0.514480 -0.028222 0.004849 -0.214997 -0.100332 -0.757322 0.262480 -0.207138 0.174807 -0.365033 0.129753 -0.077030 -0.426036 0.107852 -0.247506 -0.030281 -0.093059 -0.342724 0.245011 -0.080677 0.321717 -0.300832 0.315433 -0.098984 -0.377283 0.043167 0.250738 -0.210372 -0.192424 -0.155932 0.025418 0.080672 0.295150 -0.360697 0.129954 0.386285 0.112769 0.137933 0.261107 -0.040583 0.268932 0.057275 -0.053765 0.158782 -0.126541 -0.002579 -0.028201 -0.437118 0.092126 0.030486 0.078966 -0.130807 -0.136286 0.248142 -0.230311 0.178132 -0.213867 0.127960 -0.133014 0.331071 -0.237988 0.371502 -0.150496 -0.315710 0.088079 -0.209777 0.224038 0.005393 0.097349 -0.208584 0.440386 0.101922 -0.039888 0.022788 -0.695313 -0.000639 -0.130973 -0.198888 -0.031986 -0.165201 0.193574 -0.004666 -0.279481 -0.093325 -0.122303 0.178226 -0.376522 -0.003600 0.074669 -0.109933 -0.047983 -0.314060 -0.434026 0.526655 -0.407149 -0.013936 0.189900 0.036631 0.387457 -0.206102 0.164085 -0.283758 0.236292 -0.025431 -0.301771 -0.091834 0.285886 0.187554 0.122526 -0.473332 -0.110886 0.114060 0.369219 -0.105003 0.172732 -0.318650 0.279877 0.175858 -0.001723 0.333525 -0.164540 0.425864 -0.444262 0.043269 -0.096714 0.120856 -0.042871 -0.193084 -0.210681 0.524594 -0.219501 -0.342821 0.077057 -0.342098 -0.148916 0.386887 0.204326 -0.131066 0.343560 0.552104 -0.139162 0.414558 0.103935 -0.137806 -0.367203 0.141600 0.058579 0.120657 -0.017266 -0.132963 -0.087485 -0.095592 -0.092368 0.318764 0.315691 -0.216522 -0.065223 -0.510906 0.014200 -0.322891 -0.339193 0.423368 -0.333747 -0.329688 0.081708 0.160525 0.054795 -0.046043 0.196575 -0.431638 0.224570 -0.014413 -0.031137 0.387020 0.395096 -0.108196 -0.188959 0.207117 -0.212308 -0.126672 -0.062162 0.360589 0.046302 -0.323389 0.211748 -0.335876 -0.063454 -0.324416 -0.234635 0.032722 0.538130 0.554302 0.120546 -0.238194 0.502184 0.058062 -0.223272 -0.284009 0.040919 -0.363780 0.053576 -0.474349 0.711316 0.188820 0.159251 -0.110928 -0.353304 0.326641 0.500029 -0.187542 -0.460974 0.248783 -0.267870 -0.093209 0.410075 0.163715 0.057040 0.213531 0.249169 0.210045 -0.103609 0.051796 0.053427 0.355302 -0.276311 0.069467 -0.180951 0.036225 -0.193730 -0.013323 -0.217479 0.087472 0.091815 0.149958 0.386221 0.037585 -0.187512 0.246516 0.086829 0.034124 0.005134 -0.178567 -0.070812 0.351140 -0.140159 0.316951 -0.120891 0.155928 0.112261 -0.126902 0.237429 0.100126 -0.171281 0.172218 0.334897 -0.103507 0.061253 0.244006 0.038228 -0.251510 0.065347 0.098381 0.309167 -0.061634 0.148660 -0.173268 -0.403501 0.020070 -0.349148 0.314365 -0.335622 0.188677 -0.035691 -0.112195 -0.083429 -0.018391 -0.295188 -0.538286 -0.464421 -0.069437 -0.411491 0.139725 -0.152813 0.166562 0.388503 -0.179158 -0.215646 0.064457 -0.331489 0.507225 0.036571 0.077622 -0.178696 0.166841 0.062688 0.280838 -0.271800 0.323605 0.200030 -0.009255 -0.268865 0.023537 -0.193209 0.044132 -0.311292 -0.132791 0.044989 -0.206412 -0.402320 -0.037436 -0.081057 0.126818 0.438366 0.512667 0.029179 0.292774 -0.191442 0.028912 -0.280290 0.702861 -0.008097 0.204661 -0.287306 0.054149 0.188009 -0.161377 0.009154 0.221749 -0.215875 -0.496161 0.574948 0.084101 0.064173 -0.336985 -0.256356 0.526033 0.020798 0.030432 -0.258371 0.299365 0.108272 0.181753 0.144155 -0.040045 0.038434 0.087578 0.199731 0.086046 0.151732 0.103283 0.207189 0.104711 -0.327331 -0.059640 0.109939 -0.094371 0.574441 0.022349 0.059847 0.387305 0.041091 0.159283 0.019814 -0.099990 0.264889 -0.203413 -0.004330 0.274380 0.078240 0.063661 0.406322 0.017468 -0.046078 0.345329 0.111021 0.248443 -0.416872 0.216976 0.347991 -0.221407 -0.068754 -0.202393 0.093939 0.539685 -0.168957 0.056645 -0.271760 0.424835 -0.121700 0.238268 -0.169738 -0.526546 0.520943 0.102676 0.567423 0.244177 0.552357 0.233383 -0.448201 -0.087942 -0.339807 0.137233 0.461500 0.894037 0.138303 -0.196589 -0.312509 -0.695714 -0.047937 0.329763 0.699746 0.541682 0.023588 0.286509 0.191017 -0.148201
winner.fitness = 0.076602
