# architectures
phase1.architecture.length = 4
phase1.architecture = 8 15 10 2
phase1.architecture.hidden.activation = tanh
phase1.architecture.output.activation = tanh
phase2.architecture.length = 4
phase2.architecture = 14 20 12 2
phase2.architecture.hidden.activation = tanh
phase2.architecture.output.activation = tanh
wall.sensors = 6
car.sensors = 6

# other params
mutation.deviation = 0.500000
mutation.probability = 0.100000
alpha = 0.700000
beta = 0.300000

# static params
k.tournament = 3
population.size = 50
population.mean = 0.000000
population.deviation = 1.000000
mutation.mean = 0.000000
phase1.generations = 70000
phase2.generations = 70000
phase3.generations = 70000
number.of.steps = 500

# tracks params
train.number.of.tracks = 6
train.track.files = ../tracks/left1.txt ../tracks/right1.txt ../tracks/left2.txt ../tracks/right2.txt ../tracks/left4.txt ../tracks/right3.txt
train.number.of.cars = 2
train.car.unit = 50

test.number.of.tracks = 2
test.track.files = ../tracks/left4.txt ../tracks/right3.txt
test.number.of.cars = 2
test.car.unit = 50

# winner
winner.weights = -0.214576 1.169867 -0.355611 0.555557 -1.169941 0.397025 0.379936 0.148107 0.544137 0.412939 -0.584121 -0.025866 -1.381858 -0.144177 0.095120 -0.249970 1.299571 -0.007335 -0.075030 0.061712 -0.456358 0.376565 -0.841692 1.016262 0.354163 -0.645135 -0.345673 0.294040 0.165229 -0.202207 0.252401 -0.151389 0.810902 1.621065 -0.358046 -0.824373 0.219633 0.616652 0.439589 -0.305556 -0.571330 0.459234 -0.158713 -0.732603 -0.251522 0.578685 0.347586 0.789770 -1.040120 0.376155 0.155865 -0.964244 1.083913 0.114081 -0.153020 1.385225 0.466691 0.067097 -0.438890 0.042867 -1.979232 -1.128021 -1.020292 -0.518276 1.268448 -0.417818 0.532966 -0.344810 0.313012 0.068275 0.113506 -0.225498 -0.166896 0.104546 0.196013 -0.318251 -0.768529 0.231156 0.671566 -0.636009 -0.135200 0.964682 0.460629 0.347826 -0.391305 -0.745296 0.101129 0.509786 0.090693 -0.187476 0.867626 -0.980296 0.703347 -0.250398 -0.017146 0.565727 0.488676 0.484392 -1.034826 0.696487 0.019401 0.257405 0.529433 -0.845898 -0.191303 -1.410407 1.211951 -1.034968 0.556947 2.208168 -0.378895 -0.254789 0.654957 -0.569966 0.061041 0.116417 0.426879 -1.208148 -0.038219 0.921113 -0.459002 -0.011551 -0.287390 -0.950661 0.619819 0.188848 0.669228 1.168321 -0.188698 0.301567 -1.604421 -0.230063 0.197930 0.921295 0.455650 -1.000580 -0.419448 -1.347590 -0.462724 -0.149504 -0.146697 -0.026148 0.178701 1.462829 -0.478814 0.236778 0.169515 0.286174 0.304372 1.366414 0.677893 0.468308 -0.209219 -0.086499 -0.314177 -0.504829 0.812778 -0.243595 0.478428 0.006627 -0.518333 -0.130159 -0.344431 -0.443982 0.090017 0.711219 0.212973 0.492494 -0.688598 0.541330 -0.663827 -1.103683 0.147058 -0.825153 0.375295 -0.304883 -0.070154 -0.362709 0.648490 0.705311 -0.768593 0.710611 -0.514708 -0.358031 0.269853 0.478022 1.011352 -0.829990 -0.123717 0.003542 0.808512 0.701425 1.025385 -0.509765 -0.063030 -0.588389 -0.176144 0.599357 0.375076 1.065183 0.327747 0.735877 0.258106 -0.069742 -0.012014 0.007470 0.295532 0.139065 0.356465 -0.380633 0.569153 1.630789 -0.321284 -0.931780 -0.533245 -1.735724 -0.731816 -0.132749 -0.479838 -0.942126 0.105555 0.449559 0.668245 0.834465 0.316523 -0.069661 -0.337947 -0.433207 -0.218437 0.215761 0.110390 -0.358467 -0.246424 -0.467549 0.812122 -0.039485 0.030879 0.010703 0.616156 -0.658359 0.399196 -0.153733 -0.381166 -0.960187 -0.752530 -1.042517 -0.362833 0.184117 0.733516 -0.645838 0.163052 -0.002887 0.037022 0.932722 0.090845 -1.173307 0.392523 -0.637723 -0.643662 0.544050 -0.209726 0.238617 0.260374 0.106699 -1.062529 -1.110568 -0.055453 -0.948369 -0.235719 0.320628 0.888737 0.360907 0.211310 0.275564 0.505331 0.169528 0.513961 0.516164 -0.816066 -0.194302 -1.333608 0.049249 -0.340896 0.809951 -0.539218 0.155691 -0.600188 0.014626 0.193380 0.090001 -0.553336 -0.437915 -0.779248 0.924910 0.730699 -0.647978 -0.225410 0.256035 0.076271 0.888469 -0.028568 0.439701 -0.391824 0.399225 -0.704150 -0.152155 -0.254289 -0.111562 0.089160 0.306322 0.764591 -1.605481 -0.337208 -0.230174 0.646008 -0.833006 0.451671 -0.133311 0.071980 -0.108053 -0.282780 0.100366 -0.469093 -0.587943 -1.023491 1.199328 0.192544 -0.678942 1.249477 -0.222860 -0.916360 -0.808797 -0.841337 -0.180644 -0.132095 -0.098165 0.077240 0.220769 -1.016156 -0.501564 0.512358 0.101319 -0.266296 0.315526 0.423874 0.120332 0.217745 0.201203 -0.142554 -0.122084 0.555490 0.360003 -0.488494 -0.332080 0.379182 -0.979235 0.626500 -0.004633 0.136588 -0.477544 -0.097370 -0.052028 0.122985 -0.477287 -0.133502 0.597073 0.499133 0.516313 -0.467915 0.696793 -0.242537 0.595029 -0.378242 0.658631 -0.066384 -0.546810 -0.662742 1.189310 0.308920 0.608040 -0.054008 -0.844697 -0.142843 0.110820 0.727386 -0.106765 -0.254024 0.537711 -0.078153 -0.690850 0.141574 -0.031111 0.010719 0.037911 1.149062 -0.686888 0.119283 -0.818939 -0.097218 -0.285955 -0.041508 -0.124925 0.272098 0.547563 0.598168 -1.013688 -0.439505 -0.277989 1.211856 0.366616 -1.413074 0.750822 -0.385727 -0.221004 -0.596516 1.525762 0.566032 -0.355920 0.956478 0.126380 -0.263812 1.046838 -1.130945 0.444232 -0.563481 -0.229106 1.409773 -0.422190 -1.010900 0.240087 0.250238 0.677614 -0.817001 0.288006 1.022810 -1.000811 0.473429 0.913464 0.095188 0.043321 0.686025 -0.379966 0.622633 0.114225 -0.555235 0.293165 0.042411 -0.448318 0.086632 -0.346348 -1.675520 0.581451 0.925637 -0.567162 -0.758493 -0.455505 0.072143 0.505589 -0.263567 -0.615268 0.146929 -0.085255 -0.099468 -0.114006 -0.023690 -0.727207 -0.246170 -0.005512 0.804286 -0.488286 -0.868437 -1.160181 0.436791 1.038197 0.551777 1.563424 0.357392 -0.595285 0.132480 0.030783 0.570150 -0.422597 0.440525 0.130700 -0.454297 -0.848067 0.087600 0.738443 -0.202770 -0.492456 0.270870 -0.062763 -0.852060 1.311180 -1.539273 -0.007441 -1.453964 -0.189447 0.123521 0.632280 0.152493 -0.302373 -0.672559 0.257053 1.743261 -0.579664 -0.174106 -0.025539 -0.960426 -0.251657 0.034530 0.238736 -0.467354 0.068402 0.598003 -0.063029 0.610159 -0.277288 -0.714773 0.039170 -0.734721 -0.503719 0.558764 -0.654083 0.243367 0.327172 -0.701207 0.459005 0.262476 0.501445 -0.045836 -1.153244 0.049593 -0.164564 -0.298495 -0.781450 -0.210162 -0.694905 -0.378955 -0.403974 -0.012126 -0.418944 -0.460907 0.344398 0.482758 0.267847 -0.046757 1.429081 -0.527650 0.286464 0.253577 -0.869493 -0.236878 -1.306174 -1.557668 0.302435 -0.208042 0.608284 -1.482820 -0.586224 -0.679005 -0.402525 -0.002521 0.525654 -0.478384 1.520385 -0.653035 -0.152610 0.776089 0.057510 -0.056474 0.953701 1.336089 -1.035540 1.046923 0.453460 -0.357773 -0.287155
winner.fitness = 0.032018
