gen: 0 best: 0.131152
gen: 500 best: 0.137139
gen: 1000 best: 0.137855
gen: 1500 best: 0.137880
gen: 2000 best: 0.137908
gen: 2500 best: 0.138023
gen: 3000 best: 0.138023
gen: 3500 best: 0.138304
gen: 4000 best: 0.138304
gen: 4500 best: 0.138410
gen: 5000 best: 0.138513
gen: 5500 best: 0.138525
gen: 6000 best: 0.138720
gen: 6500 best: 0.138720
gen: 7000 best: 0.138721
gen: 7500 best: 0.138783
gen: 8000 best: 0.138929
gen: 8500 best: 0.138944
gen: 9000 best: 0.138944
gen: 9500 best: 0.138976
gen: 10000 best: 0.139137
gen: 10500 best: 0.139142
gen: 11000 best: 0.139142
gen: 11500 best: 0.139206
gen: 12000 best: 0.139220
gen: 12500 best: 0.139287
gen: 13000 best: 0.139332
gen: 13500 best: 0.139405
gen: 14000 best: 0.139454
gen: 14500 best: 0.139454
gen: 15000 best: 0.139454
gen: 15500 best: 0.139552
gen: 16000 best: 0.139555
gen: 16500 best: 0.139677
gen: 17000 best: 0.139677
gen: 17500 best: 0.139677
gen: 18000 best: 0.139677
gen: 18500 best: 0.139720
gen: 19000 best: 0.139720
gen: 19500 best: 0.139747
gen: 20000 best: 0.139747
gen: 20500 best: 0.139747
gen: 21000 best: 0.139747
gen: 21500 best: 0.139747
gen: 22000 best: 0.139747
gen: 22500 best: 0.139747
gen: 23000 best: 0.139747
gen: 23500 best: 0.139756
gen: 24000 best: 0.139756
gen: 24500 best: 0.139756
gen: 25000 best: 0.139777
gen: 25500 best: 0.139777
gen: 26000 best: 0.139781
gen: 26500 best: 0.139781
gen: 27000 best: 0.139781
gen: 27500 best: 0.139781
gen: 28000 best: 0.139781
gen: 28500 best: 0.139781
gen: 29000 best: 0.139839
gen: 29500 best: 0.139839
gen: 30000 best: 0.139879
gen: 30500 best: 0.139934
gen: 31000 best: 0.139934
gen: 31500 best: 0.139934
gen: 32000 best: 0.139934
gen: 32500 best: 0.139934
gen: 33000 best: 0.139934
gen: 33500 best: 0.139934
gen: 34000 best: 0.139934
gen: 34500 best: 0.139934
gen: 35000 best: 0.139934
gen: 35500 best: 0.139934
gen: 36000 best: 0.139992
gen: 36500 best: 0.140085
gen: 37000 best: 0.140085
gen: 37500 best: 0.140085
gen: 38000 best: 0.140085
gen: 38500 best: 0.140113
gen: 39000 best: 0.140132
gen: 39500 best: 0.140132
gen: 40000 best: 0.140278
gen: 40500 best: 0.140289
gen: 41000 best: 0.140289
gen: 41500 best: 0.140289
gen: 42000 best: 0.140289
gen: 42500 best: 0.140378
gen: 43000 best: 0.140391
gen: 43500 best: 0.140395
gen: 44000 best: 0.140438
gen: 44500 best: 0.140439
gen: 45000 best: 0.140451
gen: 45500 best: 0.140451
gen: 46000 best: 0.140451
gen: 46500 best: 0.140480
gen: 47000 best: 0.140480
gen: 47500 best: 0.140480
gen: 48000 best: 0.140480
gen: 48500 best: 0.140480
gen: 49000 best: 0.140480
gen: 49500 best: 0.140480
gen: 50000 best: 0.140480
gen: 50500 best: 0.140480
gen: 51000 best: 0.140485
gen: 51500 best: 0.140485
gen: 52000 best: 0.140515
gen: 52500 best: 0.140526
gen: 53000 best: 0.140526
gen: 53500 best: 0.140541
gen: 54000 best: 0.140541
gen: 54500 best: 0.140541
gen: 55000 best: 0.140541
gen: 55500 best: 0.140541
gen: 56000 best: 0.140541
gen: 56500 best: 0.140541
gen: 57000 best: 0.140591
gen: 57500 best: 0.140591
gen: 58000 best: 0.140591
gen: 58500 best: 0.140601
gen: 59000 best: 0.140601
gen: 59500 best: 0.140625
gen: 60000 best: 0.140625
gen: 60500 best: 0.140663
gen: 61000 best: 0.140663
gen: 61500 best: 0.140668
gen: 62000 best: 0.140668
gen: 62500 best: 0.140668
gen: 63000 best: 0.140717
gen: 63500 best: 0.140717
gen: 64000 best: 0.140728
gen: 64500 best: 0.140728
gen: 65000 best: 0.140728
gen: 65500 best: 0.140728
gen: 66000 best: 0.140728
gen: 66500 best: 0.140766
gen: 67000 best: 0.140766
gen: 67500 best: 0.140766
gen: 68000 best: 0.140766
gen: 68500 best: 0.140766
gen: 69000 best: 0.140766
gen: 69500 best: 0.140766
gen: 70000 best: 0.140775
