# architectures
phase1.architecture.length = 4
phase1.architecture = 10 15 10 2
phase1.architecture.hidden.activation = sigmoid
phase1.architecture.output.activation = tanh
phase2.architecture.length = 4
phase2.architecture = 18 20 12 2
phase2.architecture.hidden.activation = sigmoid
phase2.architecture.output.activation = tanh
wall.sensors = 8
car.sensors = 8

# other params
mutation.deviation = 0.050000
mutation.probability = 0.010000
alpha = 0.700000
beta = 0.300000

# static params
k.tournament = 3
population.size = 50
population.mean = 0.000000
population.deviation = 1.000000
mutation.mean = 0.000000
phase1.generations = 70000
phase2.generations = 70000
phase3.generations = 70000
number.of.steps = 500

# tracks params
train.number.of.tracks = 6
train.track.files = ../tracks/left1.txt ../tracks/right1.txt ../tracks/left2.txt ../tracks/right2.txt ../tracks/left4.txt ../tracks/right3.txt
train.number.of.cars = 2
train.car.unit = 50

test.number.of.tracks = 2
test.track.files = ../tracks/left4.txt ../tracks/right3.txt
test.number.of.cars = 2
test.car.unit = 50

# winner
winner.weights = -0.338125 -0.529929 0.450758 -0.214240 -0.165424 -0.092688 0.148602 -0.157265 0.325897 0.161512 0.217041 -0.249146 0.193687 0.000385 0.084840 -0.392159 0.208961 -0.005309 0.129154 0.193377 0.447112 0.068754 -0.320946 -0.042950 -0.256981 0.071345 -0.011767 -0.001063 -0.038352 -0.094297 -0.202956 0.153644 -0.073680 -0.236645 0.144660 0.042775 0.082789 -0.129170 0.054729 -0.169865 -0.046151 0.204541 0.317159 -0.165706 0.054957 -0.335318 0.731527 -0.260113 0.039444 -0.082398 -0.049541 0.067411 -0.182384 0.119311 -0.033934 0.038786 -0.026693 0.252833 -0.146216 -0.217915 -0.389114 -0.063197 0.361600 0.373884 -0.051420 -0.390067 -0.110908 -0.348895 -0.289942 0.391791 0.021089 0.351420 -0.162256 0.047575 0.148568 0.381450 -0.046460 0.105323 -0.042667 0.193014 0.154604 0.165143 0.510436 -0.068131 0.453232 0.092280 -0.014832 -0.385377 0.095607 -0.005776 -0.283007 0.327385 -0.093215 0.345008 0.123752 0.233117 -0.105160 -0.157334 -0.067226 -0.060906 -0.146653 0.001229 0.051490 -0.082004 -0.303094 -0.159009 -0.020627 -0.088202 0.065366 -0.096404 0.450297 -0.088743 -0.276038 0.142941 0.057048 0.059012 0.077230 0.090240 0.229620 0.298904 0.384925 0.195973 -0.207631 -0.457263 -0.299384 0.024034 -0.274559 -0.030879 0.068802 -0.303874 0.239534 -0.266912 -0.218508 0.123051 -0.051810 -0.497934 0.063503 -0.045955 -0.253665 0.299623 0.122449 0.270823 -0.000035 -0.011949 0.280965 -0.239678 0.829048 -0.316151 -0.092761 -0.202570 0.096988 0.401503 -0.157041 0.071332 -0.088979 -0.051949 0.625686 0.022522 0.368707 0.016311 0.069673 -0.227047 -0.231264 -0.257366 -0.058015 -0.189221 0.467952 0.570099 0.370734 -0.009513 -0.244136 0.405608 -0.123256 -0.029258 -0.250448 0.004073 -0.471393 -0.067350 0.109837 0.502641 0.029149 -0.455240 0.048048 0.039428 -0.108613 0.144371 -0.316873 0.026230 -0.173070 0.054775 0.133691 -0.341596 0.014731 -0.086906 0.039055 0.062206 0.142234 0.212302 0.065774 -0.229141 0.427185 0.015173 -0.403568 -0.128112 0.286497 0.478315 -0.044272 0.252191 0.116437 0.204648 -0.033921 0.305444 -0.295715 -0.097818 0.151756 0.395631 -0.409393 0.440197 0.093030 -0.286120 -0.448865 -0.293343 -0.007027 -0.187177 0.160574 -0.344227 0.023367 0.316095 0.087908 -0.469057 -0.311558 -0.054350 0.223476 -0.467718 -0.002656 -0.001808 0.154315 0.418845 -0.492987 0.183787 -0.180961 0.006490 -0.197934 0.285652 -0.184648 -0.559053 0.216781 0.038102 -0.173693 -0.212673 0.311566 0.101768 -0.093062 -0.163935 0.040059 0.041275 0.217413 -0.371277 0.504029 0.064840 -0.145097 -0.176081 -0.021717 -0.138357 -0.125278 0.054966 0.044078 -0.024347 -0.072394 -0.073884 -0.087711 0.020903 0.026844 0.159308 -0.097948 -0.315708 0.298467 -0.157046 -0.519308 -0.128726 0.050942 -0.379275 0.143793 0.244566 -0.053047 0.246384 0.046309 0.706477 0.428588 -0.229827 0.173153 -0.135931 -0.058526 -0.521385 -0.075312 -0.081272 0.051751 0.111837 -0.088987 -0.134811 -0.174348 0.028430 0.126514 -0.214420 -0.179214 0.264643 -0.022119 0.101750 -0.073722 -0.022417 0.081059 0.216350 -0.051916 0.162779 -0.234378 0.286585 -0.107110 0.033244 -0.022662 -0.070626 0.337041 0.063652 0.062729 -0.170389 0.258318 -0.082972 0.218944 -0.697200 0.201776 -0.220106 -0.304914 -0.587889 -0.223500 0.162520 0.062872 -0.045005 -0.386158 -0.088649 0.278029 0.100046 0.095768 0.185258 0.567096 0.084579 -0.141399 -0.053222 -0.546011 0.116229 0.048960 -0.188220 -0.265088 0.305850 -0.079360 0.295547 0.066341 -0.393702 -0.120305 0.232983 0.085585 0.094432 0.216075 0.211691 0.274938 0.237993 -0.225793 0.375533 0.077421 0.123410 -0.138664 0.021420 -0.375264 0.224748 -0.387567 0.101417 0.053661 0.046823 -0.167427 -0.029870 -0.073913 0.139831 0.574642 -0.122846 0.208388 -0.107892 0.141242 0.260718 -0.277087 -0.036416 0.075600 0.100132 -0.035680 -0.060165 0.039892 0.071613 0.001080 -0.233623 -0.196106 0.232805 0.190200 0.418528 0.238881 -0.133857 0.415976 0.086645 -0.096344 -0.233644 -0.191144 -0.244527 -0.331355 -0.025094 0.061920 0.286135 -0.303571 -0.014644 0.242886 0.106187 0.346005 0.075299 -0.045058 0.217855 0.477602 0.043374 -0.179640 0.107163 -0.284713 0.016117 -0.047993 0.092366 -0.133146 0.014304 -0.252202 -0.027346 0.268093 -0.028438 0.288196 -0.399384 -0.343538 0.102104 -0.136090 -0.057724 -0.152028 -0.178442 0.104909 -0.496585 0.131284 -0.365450 -0.178375 -0.176957 0.280930 0.117687 0.427839 0.054641 -0.020586 0.265542 -0.007727 -0.164725 -0.415255 0.291556 0.427918 0.229689 0.083516 0.023155 0.240787 0.149507 0.031082 -0.128271 -0.054175 -0.486318 -0.154866 0.081778 0.201775 -0.012695 -0.056583 -0.442997 -0.111184 0.087585 -0.201193 -0.329725 0.049556 -0.093692 -0.037706 -0.449950 0.189089 0.304339 -0.673543 -0.130756 -0.104957 -0.072006 -0.160053 0.089673 -0.594748 0.130419 0.080255 0.059300 -0.053458 -0.067455 -0.324523 -0.187602 0.166304 0.093350 -0.373422 -0.542271 -0.351373 0.047457 0.270136 -0.109258 -0.168568 -0.011102 -0.381832 0.234813 -0.225927 -0.217208 0.291266 -0.219639 0.360647 -0.093982 0.206720 -0.211607 -0.241194 0.286658 0.192157 0.190604 -0.455182 0.187434 0.383968 0.172344 0.199168 0.045984 0.017165 0.003468 -0.070921 -0.468513 -0.396440 0.198458 -0.096463 -0.195961 -0.173001 -0.376175 0.193481 -0.166731 -0.060789 0.368492 0.189268 -0.069161 0.097072 -0.171534 0.162163 -0.212531 -0.178360 0.767080 -0.405604 -0.050792 -0.060639 -0.324667 -0.144659 -0.167994 0.186010 -0.002863 0.133029 -0.438134 -0.478581 0.013449 0.156060 0.285028 0.014316 0.479476 -0.240073 0.380074 0.011488 -0.388391 0.104545 -0.093350 -0.008261 -0.077488 0.219498 0.126616 -0.013107 -0.272232 0.236882 0.169175 0.215490 -0.166986 -0.130406 -0.232844 0.212340 -0.283383 -0.137483 0.139626 -0.257128 0.138698 0.070293 -0.371254 0.149427 0.031105 0.145929 -0.324457 0.002175 -0.008397 -0.003037 0.265109 -0.088533 0.331117 -0.007643 -0.234130 -0.569574 -0.097454 0.082907 0.086635 0.203978 0.156902 0.099558 0.163829 -0.123373 0.467561 -0.444268 -0.035187 0.226522 0.108219 -0.318804 0.093664 -0.074554 -0.072724 0.165158 0.035816 0.239488 0.183285 -0.053631 -0.043563 0.109085 0.097184 0.180932 0.109798 -0.244605 -0.536297 0.187167 0.008679 0.223615 -0.093374 -0.255154 -0.103719 0.157168 0.127057 0.570918 -0.040605 -0.326482 0.591706 0.094799 -0.070475 0.141376 -0.182461 -0.140414 -0.127823 -0.239346 0.051355 0.162496 -0.327775 -0.078162 0.102336
winner.fitness = 0.032375
