gen: 0 best: 0.069905
gen: 500 best: 0.096926
gen: 1000 best: 0.100786
gen: 1500 best: 0.103393
gen: 2000 best: 0.105686
gen: 2500 best: 0.108158
gen: 3000 best: 0.109493
gen: 3500 best: 0.109902
gen: 4000 best: 0.110391
gen: 4500 best: 0.110458
gen: 5000 best: 0.110926
gen: 5500 best: 0.111312
gen: 6000 best: 0.111760
gen: 6500 best: 0.111894
gen: 7000 best: 0.112083
gen: 7500 best: 0.112443
gen: 8000 best: 0.112780
gen: 8500 best: 0.112979
gen: 9000 best: 0.113091
gen: 9500 best: 0.113142
gen: 10000 best: 0.113181
gen: 10500 best: 0.113194
gen: 11000 best: 0.113238
gen: 11500 best: 0.113255
gen: 12000 best: 0.113272
gen: 12500 best: 0.113339
gen: 13000 best: 0.113463
gen: 13500 best: 0.113573
gen: 14000 best: 0.113633
gen: 14500 best: 0.113712
gen: 15000 best: 0.113724
gen: 15500 best: 0.113740
gen: 16000 best: 0.113778
gen: 16500 best: 0.113813
gen: 17000 best: 0.113828
gen: 17500 best: 0.113830
gen: 18000 best: 0.113842
gen: 18500 best: 0.113860
gen: 19000 best: 0.113875
gen: 19500 best: 0.113916
gen: 20000 best: 0.113926
gen: 20500 best: 0.113927
gen: 21000 best: 0.113964
gen: 21500 best: 0.113964
gen: 22000 best: 0.113979
gen: 22500 best: 0.113979
gen: 23000 best: 0.113982
gen: 23500 best: 0.113993
gen: 24000 best: 0.113994
gen: 24500 best: 0.114002
gen: 25000 best: 0.114002
gen: 25500 best: 0.114002
gen: 26000 best: 0.114002
gen: 26500 best: 0.114002
gen: 27000 best: 0.114004
gen: 27500 best: 0.114004
gen: 28000 best: 0.114019
gen: 28500 best: 0.114019
gen: 29000 best: 0.114019
gen: 29500 best: 0.114019
gen: 30000 best: 0.114040
gen: 30500 best: 0.114040
gen: 31000 best: 0.114040
gen: 31500 best: 0.114040
gen: 32000 best: 0.114040
gen: 32500 best: 0.114043
gen: 33000 best: 0.114043
gen: 33500 best: 0.114043
gen: 34000 best: 0.114043
gen: 34500 best: 0.114043
gen: 35000 best: 0.114043
gen: 35500 best: 0.114043
gen: 36000 best: 0.114043
gen: 36500 best: 0.114043
gen: 37000 best: 0.114043
gen: 37500 best: 0.114043
gen: 38000 best: 0.114043
gen: 38500 best: 0.114043
gen: 39000 best: 0.114043
gen: 39500 best: 0.114043
gen: 40000 best: 0.114043
gen: 40500 best: 0.114043
gen: 41000 best: 0.114043
gen: 41500 best: 0.114043
gen: 42000 best: 0.114043
gen: 42500 best: 0.114050
gen: 43000 best: 0.114050
gen: 43500 best: 0.114050
gen: 44000 best: 0.114050
gen: 44500 best: 0.114050
gen: 45000 best: 0.114050
gen: 45500 best: 0.114050
gen: 46000 best: 0.114050
gen: 46500 best: 0.114050
gen: 47000 best: 0.114050
gen: 47500 best: 0.114050
gen: 48000 best: 0.114050
gen: 48500 best: 0.114050
gen: 49000 best: 0.114050
gen: 49500 best: 0.114050
gen: 50000 best: 0.114050
gen: 50500 best: 0.114050
gen: 51000 best: 0.114050
gen: 51500 best: 0.114050
gen: 52000 best: 0.114050
gen: 52500 best: 0.114050
gen: 53000 best: 0.114050
gen: 53500 best: 0.114050
gen: 54000 best: 0.114072
gen: 54500 best: 0.114072
gen: 55000 best: 0.114072
gen: 55500 best: 0.114072
gen: 56000 best: 0.114072
gen: 56500 best: 0.114072
gen: 57000 best: 0.114072
gen: 57500 best: 0.114072
gen: 58000 best: 0.114072
gen: 58500 best: 0.114076
gen: 59000 best: 0.114076
gen: 59500 best: 0.114076
gen: 60000 best: 0.114076
gen: 60500 best: 0.114076
gen: 61000 best: 0.114076
gen: 61500 best: 0.114079
gen: 62000 best: 0.114088
gen: 62500 best: 0.114088
gen: 63000 best: 0.114088
gen: 63500 best: 0.114088
gen: 64000 best: 0.114088
gen: 64500 best: 0.114088
gen: 65000 best: 0.114088
gen: 65500 best: 0.114088
gen: 66000 best: 0.114088
gen: 66500 best: 0.114088
gen: 67000 best: 0.114088
gen: 67500 best: 0.114088
gen: 68000 best: 0.114088
gen: 68500 best: 0.114088
gen: 69000 best: 0.114088
gen: 69500 best: 0.114088
gen: 70000 best: 0.114088
