# architectures
phase1.architecture.length = 4
phase1.architecture = 8 15 10 2
phase1.architecture.hidden.activation = sigmoid
phase1.architecture.output.activation = tanh
phase2.architecture.length = 4
phase2.architecture = 14 20 12 2
phase2.architecture.hidden.activation = sigmoid
phase2.architecture.output.activation = tanh
wall.sensors = 6
car.sensors = 6

# other params
mutation.deviation = 0.500000
mutation.probability = 0.010000
alpha = 0.300000
beta = 0.500000

# static params
k.tournament = 3
population.size = 50
population.mean = 0.000000
population.deviation = 1.000000
mutation.mean = 0.000000
phase1.generations = 70000
phase2.generations = 70000
phase3.generations = 70000
number.of.steps = 500

# tracks params
train.number.of.tracks = 6
train.track.files = ../tracks/left1.txt ../tracks/right1.txt ../tracks/left2.txt ../tracks/right2.txt ../tracks/left4.txt ../tracks/right3.txt
train.number.of.cars = 2
train.car.unit = 50

test.number.of.tracks = 2
test.track.files = ../tracks/left4.txt ../tracks/right3.txt
test.number.of.cars = 2
test.car.unit = 50

# winner
winner.weights = 0.050949 -0.231964 -0.064721 -0.391839 0.095140 -0.376720 -0.422496 0.323230 -0.684146 0.408805 -0.187784 0.141909 0.199483 -0.170302 0.043417 0.293363 0.196075 -0.555364 -0.220263 -0.665922 0.419871 0.429676 0.134814 -0.024733 -0.276369 0.001719 0.078161 0.104619 -0.331772 -0.313257 -0.281466 -0.492455 0.027080 0.326197 -0.382910 0.060211 -0.210084 -0.328364 -0.122270 0.173064 0.030240 -0.017136 -0.182686 -0.338332 0.177809 0.264353 -0.021942 -0.186485 -0.006809 0.106679 0.293381 -0.428247 0.145221 -0.199076 0.004644 0.353429 -0.236464 -0.124170 0.088864 0.008442 0.308969 0.150987 0.128627 -0.154042 0.122899 -0.120545 -0.232104 0.516446 -0.056776 -0.206003 0.024815 -0.215844 0.019859 -0.252539 0.181831 -0.241546 -0.264754 -0.539903 0.436056 0.032259 -0.462964 0.502486 0.261195 -0.438527 0.290262 -0.110092 -0.008419 -0.017808 0.240577 0.221828 0.109279 -0.577003 -0.277489 -0.309029 -0.012223 0.041911 0.311536 -0.084946 -0.016484 -0.107802 -0.097829 -0.255268 0.063610 0.192132 0.406417 -0.194634 -0.031789 0.588401 0.213670 0.058467 -0.311211 -0.039326 0.364975 -0.501779 -0.319388 -0.555006 0.123128 -0.024447 0.397329 0.310500 0.187471 0.552478 0.137382 -0.142061 0.070610 -0.228239 -0.121600 0.372528 -0.130625 0.370497 0.068400 0.043539 -0.027533 0.202498 -0.397384 -0.028628 -0.189959 -0.128637 0.076455 0.169178 0.512699 0.109234 0.116490 -0.030464 0.002468 -0.125132 0.205471 0.043545 -0.069480 -0.018033 0.140749 -0.473111 -0.269686 0.127883 -0.110801 0.139943 0.056647 0.213984 0.192392 -0.021005 -0.222278 0.254570 0.417179 -0.273369 0.097128 -0.176495 -0.079877 0.089186 0.314614 0.121990 0.417570 -0.377742 0.655153 -0.318865 -0.002858 -0.128451 -0.112296 -0.094180 0.600230 -0.186232 0.268950 0.122824 0.278400 0.107075 -0.102242 -0.167098 -0.132995 0.287152 -1.099916 -0.341907 0.162108 -0.150621 -0.016810 0.288780 -0.478544 0.429239 0.155738 -0.052048 0.329593 -0.068758 -0.493336 0.241166 0.081697 0.387197 0.141893 0.620873 -0.576098 -0.127803 -0.005723 0.333605 -0.088823 0.168479 -0.314731 0.014837 0.053093 -0.085180 -0.334688 0.254116 0.291888 0.411474 -0.013029 0.106981 0.015152 -0.316960 -0.320804 0.191130 -0.355883 -0.038145 0.386054 -0.401503 0.134363 0.208958 -0.181471 0.188915 -0.049497 0.117570 0.072231 -0.028959 -0.305692 0.433634 0.031782 0.517043 -0.062054 -0.381072 -0.108603 0.160004 0.015187 0.281863 -0.587407 -0.017481 -0.364338 0.144537 0.016235 -0.153643 0.050162 0.283075 0.183638 0.144442 -0.657587 -0.286637 -0.082399 -0.098769 -0.045936 0.345304 0.150492 0.192887 -0.035276 0.134363 0.205886 0.131665 0.023593 0.275278 -0.121590 0.247450 -0.376713 -0.296686 0.284947 0.137071 -0.051790 -0.040547 0.048449 0.123798 -0.635761 -0.021254 -0.186865 -0.076651 0.127567 0.168544 0.568424 -0.211277 -0.002800 -0.319126 0.431944 -0.060700 0.111943 -0.248723 -0.110052 0.029634 -0.387632 0.077505 0.210001 0.226671 -0.356778 -0.440053 -0.106329 0.736937 0.135005 0.129913 0.052989 0.275682 -0.162680 -0.236400 0.229013 0.035702 -0.149594 0.130026 -0.005736 0.170605 0.201204 0.303322 0.385367 -0.057679 -0.412507 0.145005 -0.332868 0.249183 0.364823 -0.200877 -0.053300 -0.084987 0.029385 -0.344963 0.052409 -0.259886 0.080248 -0.389172 0.131181 0.444001 -0.062224 0.168913 -0.300767 -0.134577 0.454322 -0.442354 -0.061307 -0.359905 -0.234441 0.257659 -0.306954 -0.093314 -0.196101 0.461506 -0.117534 0.199565 -0.041513 0.107800 -0.052332 0.136761 0.132333 0.326969 -0.432098 -0.450603 -0.216634 0.516997 0.196822 0.198823 -0.318487 -0.020035 -0.185288 -0.264832 -0.268378 -0.264934 -0.034745 0.082954 0.039885 0.170999 -0.123328 -0.156153 -0.427028 0.194879 0.216258 -0.499626 -0.010906 -0.043667 0.381940 -0.288927 0.249529 0.031644 -0.198132 0.037688 -0.183314 0.053874 0.194485 0.303115 0.132554 0.060351 0.196587 -0.388803 -0.015314 -0.411652 0.420631 0.432235 0.187483 0.261929 0.072760 -0.360270 -0.077065 -0.135769 -0.185608 -0.688446 0.407584 0.343337 0.142421 0.460828 0.149611 0.089861 -0.417152 0.060323 0.325117 0.279939 0.033817 0.086316 0.076891 0.427035 -0.346450 0.577372 0.215183 0.256223 0.099041 -0.041916 0.014582 0.017765 0.130820 0.066409 -0.106231 0.499016 0.504681 -0.130171 -0.004971 0.123006 0.281980 0.009351 0.196526 -0.504576 -0.047250 0.368026 -0.297298 0.126306 0.296054 -0.026935 -0.190701 -0.202417 0.050632 0.278567 0.220169 0.045226 -0.285167 -0.433703 0.057779 0.245051 -0.313318 -0.038571 0.087304 0.048162 -0.260203 0.030926 -0.299671 -0.035657 0.044609 -0.169708 -0.131063 0.435814 -0.258645 0.302799 0.210123 0.150051 -0.246540 0.071718 -0.190727 -0.522937 0.311246 0.549157 -0.134984 0.018769 -0.075094 -0.165028 0.009627 -0.212656 -0.361641 -0.314031 -0.319236 -0.253829 -0.047600 0.131873 -0.075707 0.529831 -0.282578 0.879923 0.288929 0.461359 -0.308274 -0.418946 0.068748 -0.290069 0.015575 -0.054397 -0.003589 0.145315 -0.225386 -0.118711 0.346326 0.028573 -0.124041 0.399945 0.105520 0.258522 -0.266666 -0.199827 -0.146515 -0.063057 -0.178224 -0.222082 0.089063 -0.211809 0.218945 0.157431 -0.098327 0.127882 -0.135169 -0.214936 -0.053224 -0.397912 -0.190358 0.282224 0.067682 0.133585 0.482145 0.189874 -0.083545 0.148904 0.341178 -0.467604 -0.268901 0.115113 -0.089352 0.023428 0.046816 -0.329711 0.064925 0.051311 0.337458 0.129869 -0.221143 -0.182852 -0.094029 -0.322860 -0.724158 -0.273548 0.343093 0.097993 0.160397 -0.317232 0.310932 0.239822 -0.259407 1.242717 0.498301 0.181500 0.294269 0.277697 0.839874 -0.148573 0.104171 0.066660 0.021025 -0.341498 -0.172408 0.017978
winner.fitness = 0.040044
