gen: 0 best: 0.087101
gen: 500 best: 0.097083
gen: 1000 best: 0.118013
gen: 1500 best: 0.167568
gen: 2000 best: 0.213785
gen: 2500 best: 0.222528
gen: 3000 best: 0.226416
gen: 3500 best: 0.230071
gen: 4000 best: 0.231316
gen: 4500 best: 0.232678
gen: 5000 best: 0.234024
gen: 5500 best: 0.259753
gen: 6000 best: 0.264468
gen: 6500 best: 0.264838
gen: 7000 best: 0.265011
gen: 7500 best: 0.265085
gen: 8000 best: 0.265495
gen: 8500 best: 0.265548
gen: 9000 best: 0.265578
gen: 9500 best: 0.265588
gen: 10000 best: 0.265656
gen: 10500 best: 0.265690
gen: 11000 best: 0.265690
gen: 11500 best: 0.265690
gen: 12000 best: 0.265698
gen: 12500 best: 0.265698
gen: 13000 best: 0.265698
gen: 13500 best: 0.265698
gen: 14000 best: 0.265698
gen: 14500 best: 0.265698
gen: 15000 best: 0.265698
gen: 15500 best: 0.265698
gen: 16000 best: 0.265698
gen: 16500 best: 0.265698
gen: 17000 best: 0.265700
gen: 17500 best: 0.265700
gen: 18000 best: 0.265703
gen: 18500 best: 0.265703
gen: 19000 best: 0.265812
gen: 19500 best: 0.265812
gen: 20000 best: 0.265869
gen: 20500 best: 0.265869
gen: 21000 best: 0.265882
gen: 21500 best: 0.265888
gen: 22000 best: 0.265888
gen: 22500 best: 0.265888
gen: 23000 best: 0.265892
gen: 23500 best: 0.265899
gen: 24000 best: 0.265899
gen: 24500 best: 0.265899
gen: 25000 best: 0.265900
gen: 25500 best: 0.265900
gen: 26000 best: 0.265900
gen: 26500 best: 0.265900
gen: 27000 best: 0.265913
gen: 27500 best: 0.265916
gen: 28000 best: 0.265916
gen: 28500 best: 0.265916
gen: 29000 best: 0.265919
gen: 29500 best: 0.265919
gen: 30000 best: 0.265919
gen: 30500 best: 0.265919
gen: 31000 best: 0.265920
gen: 31500 best: 0.265920
gen: 32000 best: 0.265920
gen: 32500 best: 0.265921
gen: 33000 best: 0.265921
gen: 33500 best: 0.265921
gen: 34000 best: 0.265921
gen: 34500 best: 0.265921
gen: 35000 best: 0.265921
gen: 35500 best: 0.265921
gen: 36000 best: 0.265921
gen: 36500 best: 0.265921
gen: 37000 best: 0.265921
gen: 37500 best: 0.265924
gen: 38000 best: 0.265924
gen: 38500 best: 0.265924
gen: 39000 best: 0.265927
gen: 39500 best: 0.265927
gen: 40000 best: 0.265927
gen: 40500 best: 0.265927
gen: 41000 best: 0.265927
gen: 41500 best: 0.265927
gen: 42000 best: 0.265927
gen: 42500 best: 0.265928
gen: 43000 best: 0.265928
gen: 43500 best: 0.265928
gen: 44000 best: 0.265928
gen: 44500 best: 0.265928
gen: 45000 best: 0.265928
gen: 45500 best: 0.265928
gen: 46000 best: 0.265928
gen: 46500 best: 0.265928
gen: 47000 best: 0.265928
gen: 47500 best: 0.265930
gen: 48000 best: 0.265930
gen: 48500 best: 0.265930
gen: 49000 best: 0.265930
gen: 49500 best: 0.265930
gen: 50000 best: 0.265930
gen: 50500 best: 0.265930
gen: 51000 best: 0.265930
gen: 51500 best: 0.265930
gen: 52000 best: 0.265930
gen: 52500 best: 0.265930
gen: 53000 best: 0.265930
gen: 53500 best: 0.265930
gen: 54000 best: 0.265930
gen: 54500 best: 0.265930
gen: 55000 best: 0.265930
gen: 55500 best: 0.265930
gen: 56000 best: 0.265930
gen: 56500 best: 0.265930
gen: 57000 best: 0.265933
gen: 57500 best: 0.265933
gen: 58000 best: 0.265933
gen: 58500 best: 0.265933
gen: 59000 best: 0.265933
gen: 59500 best: 0.265933
gen: 60000 best: 0.265933
gen: 60500 best: 0.265934
gen: 61000 best: 0.265934
gen: 61500 best: 0.265934
gen: 62000 best: 0.265934
gen: 62500 best: 0.265934
gen: 63000 best: 0.265934
gen: 63500 best: 0.265934
gen: 64000 best: 0.265935
gen: 64500 best: 0.265936
gen: 65000 best: 0.265936
gen: 65500 best: 0.265936
gen: 66000 best: 0.265936
gen: 66500 best: 0.265936
gen: 67000 best: 0.265936
gen: 67500 best: 0.265936
gen: 68000 best: 0.265936
gen: 68500 best: 0.265936
gen: 69000 best: 0.265936
gen: 69500 best: 0.265936
gen: 70000 best: 0.265936
