gen: 0 best: 0.126662
gen: 500 best: 0.137688
gen: 1000 best: 0.140093
gen: 1500 best: 0.143285
gen: 2000 best: 0.144871
gen: 2500 best: 0.152505
gen: 3000 best: 0.152960
gen: 3500 best: 0.155171
gen: 4000 best: 0.155964
gen: 4500 best: 0.156472
gen: 5000 best: 0.157234
gen: 5500 best: 0.157509
gen: 6000 best: 0.158430
gen: 6500 best: 0.158822
gen: 7000 best: 0.159165
gen: 7500 best: 0.159435
gen: 8000 best: 0.159467
gen: 8500 best: 0.159856
gen: 9000 best: 0.161872
gen: 9500 best: 0.178500
gen: 10000 best: 0.178987
gen: 10500 best: 0.180019
gen: 11000 best: 0.180482
gen: 11500 best: 0.180709
gen: 12000 best: 0.181198
gen: 12500 best: 0.181198
gen: 13000 best: 0.181239
gen: 13500 best: 0.181338
gen: 14000 best: 0.181549
gen: 14500 best: 0.181931
gen: 15000 best: 0.181931
gen: 15500 best: 0.181931
gen: 16000 best: 0.182225
gen: 16500 best: 0.182225
gen: 17000 best: 0.182266
gen: 17500 best: 0.182392
gen: 18000 best: 0.182609
gen: 18500 best: 0.182609
gen: 19000 best: 0.182788
gen: 19500 best: 0.182879
gen: 20000 best: 0.182887
gen: 20500 best: 0.182887
gen: 21000 best: 0.182973
gen: 21500 best: 0.183040
gen: 22000 best: 0.183176
gen: 22500 best: 0.183176
gen: 23000 best: 0.183176
gen: 23500 best: 0.183181
gen: 24000 best: 0.183199
gen: 24500 best: 0.183362
gen: 25000 best: 0.183362
gen: 25500 best: 0.183449
gen: 26000 best: 0.183464
gen: 26500 best: 0.183464
gen: 27000 best: 0.183464
gen: 27500 best: 0.183483
gen: 28000 best: 0.183601
gen: 28500 best: 0.183601
gen: 29000 best: 0.183642
gen: 29500 best: 0.183642
gen: 30000 best: 0.183726
gen: 30500 best: 0.183824
gen: 31000 best: 0.183824
gen: 31500 best: 0.183824
gen: 32000 best: 0.183824
gen: 32500 best: 0.183824
gen: 33000 best: 0.183863
gen: 33500 best: 0.183863
gen: 34000 best: 0.183863
gen: 34500 best: 0.183974
gen: 35000 best: 0.183974
gen: 35500 best: 0.183975
gen: 36000 best: 0.184077
gen: 36500 best: 0.184077
gen: 37000 best: 0.184157
gen: 37500 best: 0.184249
gen: 38000 best: 0.184249
gen: 38500 best: 0.184331
gen: 39000 best: 0.184349
gen: 39500 best: 0.184349
gen: 40000 best: 0.184458
gen: 40500 best: 0.184645
gen: 41000 best: 0.184701
gen: 41500 best: 0.184701
gen: 42000 best: 0.184701
gen: 42500 best: 0.184704
gen: 43000 best: 0.184855
gen: 43500 best: 0.184855
gen: 44000 best: 0.184855
gen: 44500 best: 0.184855
gen: 45000 best: 0.184855
gen: 45500 best: 0.184855
gen: 46000 best: 0.184855
gen: 46500 best: 0.184855
gen: 47000 best: 0.184855
gen: 47500 best: 0.184855
gen: 48000 best: 0.184855
gen: 48500 best: 0.184855
gen: 49000 best: 0.184892
gen: 49500 best: 0.184982
gen: 50000 best: 0.185095
gen: 50500 best: 0.185098
gen: 51000 best: 0.185098
gen: 51500 best: 0.185207
gen: 52000 best: 0.185207
gen: 52500 best: 0.185241
gen: 53000 best: 0.185241
gen: 53500 best: 0.185249
gen: 54000 best: 0.185249
gen: 54500 best: 0.185362
gen: 55000 best: 0.185362
gen: 55500 best: 0.185362
gen: 56000 best: 0.185362
gen: 56500 best: 0.185362
gen: 57000 best: 0.185362
gen: 57500 best: 0.185362
gen: 58000 best: 0.185362
gen: 58500 best: 0.185457
gen: 59000 best: 0.185521
gen: 59500 best: 0.185521
gen: 60000 best: 0.185521
gen: 60500 best: 0.185521
gen: 61000 best: 0.185540
gen: 61500 best: 0.185578
gen: 62000 best: 0.185578
gen: 62500 best: 0.185578
gen: 63000 best: 0.185578
gen: 63500 best: 0.185578
gen: 64000 best: 0.185578
gen: 64500 best: 0.185578
gen: 65000 best: 0.185578
gen: 65500 best: 0.185578
gen: 66000 best: 0.185607
gen: 66500 best: 0.185607
gen: 67000 best: 0.185607
gen: 67500 best: 0.185607
gen: 68000 best: 0.185607
gen: 68500 best: 0.185608
gen: 69000 best: 0.185608
gen: 69500 best: 0.185608
gen: 70000 best: 0.185608
