# architectures
phase1.architecture.length = 4
phase1.architecture = 10 15 10 2
phase1.architecture.hidden.activation = sigmoid
phase1.architecture.output.activation = tanh
phase2.architecture.length = 4
phase2.architecture = 18 20 12 2
phase2.architecture.hidden.activation = sigmoid
phase2.architecture.output.activation = tanh
wall.sensors = 8
car.sensors = 8

# other params
mutation.deviation = 0.500000
mutation.probability = 0.010000
alpha = 0.500000
beta = 0.700000

# static params
k.tournament = 3
population.size = 50
population.mean = 0.000000
population.deviation = 1.000000
mutation.mean = 0.000000
phase1.generations = 70000
phase2.generations = 70000
phase3.generations = 70000
number.of.steps = 500

# tracks params
train.number.of.tracks = 6
train.track.files = ../tracks/left1.txt ../tracks/right1.txt ../tracks/left2.txt ../tracks/right2.txt ../tracks/left4.txt ../tracks/right3.txt
train.number.of.cars = 2
train.car.unit = 50

test.number.of.tracks = 2
test.track.files = ../tracks/left4.txt ../tracks/right3.txt
test.number.of.cars = 2
test.car.unit = 50

# winner
winner.weights = 0.004130 -0.067037 0.186497 0.146360 -0.205228 -0.301209 -0.102668 0.392034 0.365210 0.045914 -0.050814 -0.087770 -0.046838 0.394599 0.100870 0.282730 -0.138425 -0.309405 -0.345828 0.115191 -0.554521 0.096131 0.398513 -0.474292 0.225678 -0.201501 -0.121961 0.519884 -0.383506 0.107060 -0.211576 0.183806 0.391066 -0.021752 0.222477 0.654263 0.079973 -0.065873 -0.447887 -0.063614 -0.059038 -0.423179 -0.318443 -0.104207 0.076657 0.086554 0.280952 0.160443 -0.182112 0.379166 -0.064768 0.165972 -0.230877 0.170975 0.154931 0.055160 -0.091841 -0.032868 -0.000292 0.164783 0.008587 -0.151095 -0.407923 -0.270525 0.320445 0.336793 -0.118301 -0.007075 0.326196 0.059156 -0.105960 0.094269 -0.172053 0.114538 -0.359370 -0.395175 -0.036033 -0.160111 -0.295295 -0.298542 -0.066024 -0.254441 -0.348497 -0.001555 0.066385 0.355520 0.067598 0.370495 0.009411 0.234883 0.676333 -0.348403 0.049111 -0.327725 -0.465399 -0.030708 0.307022 -0.148952 0.432696 0.298430 -0.150414 -0.320855 0.036241 -0.246084 -0.592113 0.009123 0.032932 0.337063 0.150449 0.377828 -0.328117 -0.211878 0.009336 -0.159270 -0.489280 -0.244972 -0.327814 -0.243965 -0.116785 0.207157 -0.367207 -0.194757 -0.416650 0.603846 0.053991 0.081465 0.168835 0.172979 -0.399076 0.260514 0.020981 -0.002290 -0.060308 0.123308 0.025129 0.015926 -0.051812 0.166372 -0.102792 0.251790 -0.492138 -0.123304 -0.060526 -0.177357 0.117604 -0.130017 0.142545 0.073903 0.281721 -0.131976 0.228694 0.001734 -0.103342 -0.006851 0.256366 -0.140944 0.191911 0.133787 -0.004647 -0.180630 -0.306854 -0.129711 -0.223173 0.499721 0.084121 -0.498162 -0.170531 -0.203320 -0.129216 -0.058162 -0.013202 0.258938 -0.056301 -0.093816 -0.331388 0.123963 -0.255104 -0.554283 0.200744 0.510289 -0.161972 0.075298 0.184699 0.152139 -0.508001 -0.103650 0.014214 0.286811 -0.145167 -0.119801 -0.190624 0.270031 0.090222 0.005897 0.079107 0.557868 -0.204548 0.016164 0.158112 0.349706 0.058772 -0.009531 -0.180444 -0.023962 0.367789 -0.314742 -0.064008 -0.266985 0.048229 0.158377 -0.107036 0.244168 0.253988 -0.104760 -0.016341 0.094967 -0.154665 -0.397514 -0.169005 -0.148430 0.052232 -0.397167 0.184984 0.136626 0.181092 -0.090485 0.097243 0.131183 0.164522 0.053704 0.178819 0.038321 -0.314520 -0.114461 0.387265 -0.154520 0.070087 0.123741 0.103578 -0.158057 0.226281 -0.189419 -0.681920 0.070184 0.245410 0.486170 -0.320159 0.013671 -0.017444 0.500972 0.276851 -0.419599 0.903357 -0.146690 0.131902 0.467501 -0.308313 -0.350049 -0.033128 0.039048 0.098928 -0.172650 -0.134869 0.013785 -0.091530 0.537723 -0.443866 0.132158 -0.406398 0.204313 0.226351 0.306110 -0.094767 0.207122 -0.150559 0.401077 -0.054812 0.218377 -0.041716 0.251209 -0.110398 -0.139643 0.073363 0.142315 -0.132431 -0.040845 0.090326 0.022899 -0.093053 -0.192283 0.180314 0.352913 -0.565516 0.120000 -0.053694 -0.164544 0.213031 -0.161880 -0.371354 0.043991 -0.445910 0.105180 0.036160 0.102345 0.358975 -0.064083 -0.246222 0.375730 0.437973 0.274468 0.357367 -0.021587 0.059565 -0.012803 -0.057179 -0.160582 0.016650 -0.212872 0.147538 0.346092 0.135612 -0.128146 -0.390120 0.162624 -0.206369 0.298267 0.211968 -0.373279 -0.089334 0.412927 0.206348 0.039382 -0.072562 -0.013231 -0.181895 0.042084 -0.036536 0.256882 -0.011257 -0.012591 -0.123723 0.059938 0.125183 0.296551 -0.174896 -0.248868 0.040938 0.264387 0.393791 0.027704 0.104755 0.013997 -0.206325 0.198517 0.084068 0.090040 0.136178 -0.066744 -0.154571 -0.140070 0.086412 0.159037 -0.005604 0.008797 -0.421481 0.304439 0.046823 -0.810456 0.062428 -0.040578 -0.414340 -0.175871 -0.051882 -0.024395 0.162981 -0.116309 -0.173956 -0.035706 -0.303737 -0.227963 -0.137710 0.128410 0.037082 -0.112906 -0.038325 0.102728 0.211570 -0.266544 0.200377 0.318595 0.186483 -0.029426 0.126479 0.092928 -0.057564 -0.095017 -0.142113 0.228016 -0.177333 0.248142 -0.035229 0.015334 -0.230633 -0.222139 0.090111 0.096313 0.199490 -0.151771 -0.026815 0.043836 -0.137410 0.016484 -0.288253 -0.162476 -0.190394 -0.073626 -0.423365 0.036166 0.114969 -0.314402 -0.170172 -0.106553 -0.126727 -0.151524 0.087427 -0.100686 0.451261 -0.320994 -0.555540 -0.269682 -0.644449 0.008459 0.567965 -0.189088 0.025009 0.132448 0.216528 -0.661892 0.387212 0.102556 -0.094998 0.137074 -0.108427 -0.595728 0.208809 0.054739 -0.216617 -0.230628 0.026875 0.049568 -0.174032 -0.329637 0.296854 0.101428 -0.373252 0.357377 0.033823 0.301763 -0.295830 -0.196789 -0.423652 0.464680 -0.363780 -0.180444 0.117556 0.051410 0.070330 0.024290 -0.531661 -0.094690 0.101155 -0.040714 0.416552 0.207759 -0.350044 -0.103713 -0.123686 -0.199339 0.059375 0.612970 -0.014186 0.072073 -0.455444 -0.280989 -0.071752 0.225442 -0.064440 0.087508 -0.177915 0.427563 -0.220052 -0.142137 -0.090079 0.245731 0.083649 0.002775 -0.030795 0.063411 -0.177587 -0.655949 0.346340 -0.172649 0.340596 0.077155 0.200547 -0.308792 0.664768 -0.163468 -0.088674 -0.137371 -0.036609 -0.115811 -0.220575 0.050525 0.449135 -0.146742 -0.124512 0.088476 0.042028 0.189712 0.203677 0.080563 0.047890 0.121496 -0.128058 0.176099 0.142876 -0.478008 0.218860 -0.009541 0.375132 0.075448 -0.245813 -0.073596 -0.280479 0.244647 0.075206 -0.396636 -0.420496 0.077660 0.213392 -0.024595 0.155962 0.435250 -0.162905 0.313602 -0.241211 0.220691 0.009793 -0.229715 0.045578 0.150115 -0.273229 -0.162332 -0.005232 -0.143151 0.021633 0.114469 0.088573 -0.062284 -0.119062 0.247255 0.150915 0.068558 0.654798 -0.417461 0.173813 -0.142213 0.252223 0.249447 0.145782 -0.236306 -0.435091 0.128893 0.126454 0.085842 0.010902 -0.019009 -0.119373 -0.005990 -0.096206 -0.213141 -0.102264 0.140284 -0.185523 0.432093 0.003152 0.035938 -0.549510 -0.332442 -0.159533 -0.211389 -0.075138 0.095018 0.141398 -0.019875 0.104588 -0.038631 -0.590429 0.172481 -0.093311 -0.034588 0.234673 0.011531 0.194350 -0.117622 0.087017 -0.226256 0.159461 -0.033795 0.275448 0.027746 -0.331321 0.032425 -0.198230 -0.497177 0.081359 -0.019940 -0.464853 0.340505 -0.407940 -0.162617 -0.333066 0.002561 0.207400 0.140513 -0.052207 0.208510 0.427209 -0.047100 -0.570699 0.168960 -0.679101 -0.274725 -0.066880 0.978212 0.104094 -0.134134 -0.042020 -0.427512 0.125947 0.077430 -0.073252 0.248401 0.014756 1.077450 0.372383 -0.130915 -0.313451 -0.037610 0.409516 0.549713 0.560697 -1.530666 0.081348 0.153320 -0.251522 -0.316346
winner.fitness = 0.065273
