gen: 0 best: 0.093790
gen: 500 best: 0.094079
gen: 1000 best: 0.094374
gen: 1500 best: 0.095408
gen: 2000 best: 0.095970
gen: 2500 best: 0.096335
gen: 3000 best: 0.096933
gen: 3500 best: 0.097475
gen: 4000 best: 0.098426
gen: 4500 best: 0.098919
gen: 5000 best: 0.099139
gen: 5500 best: 0.100650
gen: 6000 best: 0.101843
gen: 6500 best: 0.103503
gen: 7000 best: 0.104504
gen: 7500 best: 0.106205
gen: 8000 best: 0.107849
gen: 8500 best: 0.110752
gen: 9000 best: 0.114114
gen: 9500 best: 0.116097
gen: 10000 best: 0.122467
gen: 10500 best: 0.126894
gen: 11000 best: 0.126990
gen: 11500 best: 0.127015
gen: 12000 best: 0.127021
gen: 12500 best: 0.127024
gen: 13000 best: 0.127025
gen: 13500 best: 0.127036
gen: 14000 best: 0.127047
gen: 14500 best: 0.127057
gen: 15000 best: 0.127064
gen: 15500 best: 0.127064
gen: 16000 best: 0.127067
gen: 16500 best: 0.127067
gen: 17000 best: 0.127082
gen: 17500 best: 0.127088
gen: 18000 best: 0.127091
gen: 18500 best: 0.127098
gen: 19000 best: 0.127107
gen: 19500 best: 0.127119
gen: 20000 best: 0.127125
gen: 20500 best: 0.127125
gen: 21000 best: 0.127125
gen: 21500 best: 0.127126
gen: 22000 best: 0.127127
gen: 22500 best: 0.127132
gen: 23000 best: 0.127132
gen: 23500 best: 0.127143
gen: 24000 best: 0.127151
gen: 24500 best: 0.127151
gen: 25000 best: 0.127153
gen: 25500 best: 0.127153
gen: 26000 best: 0.127153
gen: 26500 best: 0.127156
gen: 27000 best: 0.127156
gen: 27500 best: 0.127156
gen: 28000 best: 0.127157
gen: 28500 best: 0.127163
gen: 29000 best: 0.127166
gen: 29500 best: 0.127174
gen: 30000 best: 0.127176
gen: 30500 best: 0.127179
gen: 31000 best: 0.127194
gen: 31500 best: 0.127201
gen: 32000 best: 0.127204
gen: 32500 best: 0.127207
gen: 33000 best: 0.127214
gen: 33500 best: 0.127220
gen: 34000 best: 0.127244
gen: 34500 best: 0.127279
gen: 35000 best: 0.127307
gen: 35500 best: 0.127317
gen: 36000 best: 0.127329
gen: 36500 best: 0.127340
gen: 37000 best: 0.127345
gen: 37500 best: 0.127350
gen: 38000 best: 0.127362
gen: 38500 best: 0.127382
gen: 39000 best: 0.127383
gen: 39500 best: 0.127390
gen: 40000 best: 0.127390
gen: 40500 best: 0.127390
gen: 41000 best: 0.127394
gen: 41500 best: 0.127394
gen: 42000 best: 0.127396
gen: 42500 best: 0.127413
gen: 43000 best: 0.127415
gen: 43500 best: 0.127426
gen: 44000 best: 0.127426
gen: 44500 best: 0.127427
gen: 45000 best: 0.127427
gen: 45500 best: 0.127427
gen: 46000 best: 0.127427
gen: 46500 best: 0.127429
gen: 47000 best: 0.127438
gen: 47500 best: 0.127442
gen: 48000 best: 0.127458
gen: 48500 best: 0.127464
gen: 49000 best: 0.127468
gen: 49500 best: 0.127468
gen: 50000 best: 0.127488
gen: 50500 best: 0.127489
gen: 51000 best: 0.127524
gen: 51500 best: 0.127530
gen: 52000 best: 0.127533
gen: 52500 best: 0.127551
gen: 53000 best: 0.127562
gen: 53500 best: 0.127566
gen: 54000 best: 0.127569
gen: 54500 best: 0.127573
gen: 55000 best: 0.127578
gen: 55500 best: 0.127606
gen: 56000 best: 0.127658
gen: 56500 best: 0.127674
gen: 57000 best: 0.127681
gen: 57500 best: 0.127682
gen: 58000 best: 0.127684
gen: 58500 best: 0.127695
gen: 59000 best: 0.127714
gen: 59500 best: 0.127731
gen: 60000 best: 0.127767
gen: 60500 best: 0.127789
gen: 61000 best: 0.127795
gen: 61500 best: 0.127797
gen: 62000 best: 0.127809
gen: 62500 best: 0.127822
gen: 63000 best: 0.127831
gen: 63500 best: 0.127848
gen: 64000 best: 0.127871
gen: 64500 best: 0.127873
gen: 65000 best: 0.127878
gen: 65500 best: 0.127885
gen: 66000 best: 0.127908
gen: 66500 best: 0.127979
gen: 67000 best: 0.128002
gen: 67500 best: 0.128008
gen: 68000 best: 0.128039
gen: 68500 best: 0.128052
gen: 69000 best: 0.128070
gen: 69500 best: 0.128082
gen: 70000 best: 0.128093
