gen: 0 best: 0.135404
gen: 500 best: 0.144053
gen: 1000 best: 0.144450
gen: 1500 best: 0.144661
gen: 2000 best: 0.144739
gen: 2500 best: 0.144774
gen: 3000 best: 0.144915
gen: 3500 best: 0.144959
gen: 4000 best: 0.144979
gen: 4500 best: 0.144996
gen: 5000 best: 0.145018
gen: 5500 best: 0.145107
gen: 6000 best: 0.145216
gen: 6500 best: 0.145290
gen: 7000 best: 0.145306
gen: 7500 best: 0.145551
gen: 8000 best: 0.145650
gen: 8500 best: 0.145692
gen: 9000 best: 0.145732
gen: 9500 best: 0.145782
gen: 10000 best: 0.145826
gen: 10500 best: 0.145838
gen: 11000 best: 0.145864
gen: 11500 best: 0.146003
gen: 12000 best: 0.146043
gen: 12500 best: 0.146055
gen: 13000 best: 0.146073
gen: 13500 best: 0.146095
gen: 14000 best: 0.146107
gen: 14500 best: 0.146107
gen: 15000 best: 0.146107
gen: 15500 best: 0.146107
gen: 16000 best: 0.146115
gen: 16500 best: 0.146230
gen: 17000 best: 0.146240
gen: 17500 best: 0.146240
gen: 18000 best: 0.146254
gen: 18500 best: 0.146260
gen: 19000 best: 0.146260
gen: 19500 best: 0.146260
gen: 20000 best: 0.146260
gen: 20500 best: 0.146260
gen: 21000 best: 0.146265
gen: 21500 best: 0.146271
gen: 22000 best: 0.146276
gen: 22500 best: 0.146284
gen: 23000 best: 0.146284
gen: 23500 best: 0.146287
gen: 24000 best: 0.146287
gen: 24500 best: 0.146293
gen: 25000 best: 0.146294
gen: 25500 best: 0.146296
gen: 26000 best: 0.146296
gen: 26500 best: 0.146298
gen: 27000 best: 0.146298
gen: 27500 best: 0.146298
gen: 28000 best: 0.146309
gen: 28500 best: 0.146309
gen: 29000 best: 0.146309
gen: 29500 best: 0.146309
gen: 30000 best: 0.146309
gen: 30500 best: 0.146309
gen: 31000 best: 0.146370
gen: 31500 best: 0.146397
gen: 32000 best: 0.146397
gen: 32500 best: 0.146397
gen: 33000 best: 0.146410
gen: 33500 best: 0.146417
gen: 34000 best: 0.146419
gen: 34500 best: 0.146430
gen: 35000 best: 0.146438
gen: 35500 best: 0.146438
gen: 36000 best: 0.146438
gen: 36500 best: 0.146442
gen: 37000 best: 0.146442
gen: 37500 best: 0.146447
gen: 38000 best: 0.146460
gen: 38500 best: 0.146472
gen: 39000 best: 0.146472
gen: 39500 best: 0.146472
gen: 40000 best: 0.146475
gen: 40500 best: 0.146483
gen: 41000 best: 0.146483
gen: 41500 best: 0.146483
gen: 42000 best: 0.146483
gen: 42500 best: 0.146485
gen: 43000 best: 0.146489
gen: 43500 best: 0.146489
gen: 44000 best: 0.146494
gen: 44500 best: 0.146494
gen: 45000 best: 0.146494
gen: 45500 best: 0.146494
gen: 46000 best: 0.146494
gen: 46500 best: 0.146494
gen: 47000 best: 0.146494
gen: 47500 best: 0.146507
gen: 48000 best: 0.146507
gen: 48500 best: 0.146507
gen: 49000 best: 0.146509
gen: 49500 best: 0.146511
gen: 50000 best: 0.146515
gen: 50500 best: 0.146515
gen: 51000 best: 0.146515
gen: 51500 best: 0.146515
gen: 52000 best: 0.146515
gen: 52500 best: 0.146515
gen: 53000 best: 0.146515
gen: 53500 best: 0.146515
gen: 54000 best: 0.146515
gen: 54500 best: 0.146515
gen: 55000 best: 0.146516
gen: 55500 best: 0.146516
gen: 56000 best: 0.146516
gen: 56500 best: 0.146516
gen: 57000 best: 0.146516
gen: 57500 best: 0.146516
gen: 58000 best: 0.146516
gen: 58500 best: 0.146516
gen: 59000 best: 0.146517
gen: 59500 best: 0.146517
gen: 60000 best: 0.146517
gen: 60500 best: 0.146517
gen: 61000 best: 0.146517
gen: 61500 best: 0.146517
gen: 62000 best: 0.146517
gen: 62500 best: 0.146518
gen: 63000 best: 0.146528
gen: 63500 best: 0.146547
gen: 64000 best: 0.146570
gen: 64500 best: 0.146612
gen: 65000 best: 0.146640
gen: 65500 best: 0.146652
gen: 66000 best: 0.146666
gen: 66500 best: 0.146668
gen: 67000 best: 0.146682
gen: 67500 best: 0.146685
gen: 68000 best: 0.146685
gen: 68500 best: 0.146690
gen: 69000 best: 0.146695
gen: 69500 best: 0.146722
gen: 70000 best: 0.146735
