gen: 0 best: 0.098578
gen: 500 best: 0.139128
gen: 1000 best: 0.153557
gen: 1500 best: 0.154963
gen: 2000 best: 0.156547
gen: 2500 best: 0.158968
gen: 3000 best: 0.162819
gen: 3500 best: 0.217090
gen: 4000 best: 0.224449
gen: 4500 best: 0.226387
gen: 5000 best: 0.227514
gen: 5500 best: 0.228605
gen: 6000 best: 0.228858
gen: 6500 best: 0.230132
gen: 7000 best: 0.230292
gen: 7500 best: 0.230853
gen: 8000 best: 0.231173
gen: 8500 best: 0.231550
gen: 9000 best: 0.231732
gen: 9500 best: 0.232022
gen: 10000 best: 0.232167
gen: 10500 best: 0.232880
gen: 11000 best: 0.252835
gen: 11500 best: 0.258144
gen: 12000 best: 0.263276
gen: 12500 best: 0.264306
gen: 13000 best: 0.265714
gen: 13500 best: 0.265928
gen: 14000 best: 0.265928
gen: 14500 best: 0.266023
gen: 15000 best: 0.266023
gen: 15500 best: 0.266028
gen: 16000 best: 0.266177
gen: 16500 best: 0.266272
gen: 17000 best: 0.266386
gen: 17500 best: 0.266386
gen: 18000 best: 0.266521
gen: 18500 best: 0.266521
gen: 19000 best: 0.266521
gen: 19500 best: 0.266521
gen: 20000 best: 0.266521
gen: 20500 best: 0.266552
gen: 21000 best: 0.266552
gen: 21500 best: 0.266552
gen: 22000 best: 0.266552
gen: 22500 best: 0.266552
gen: 23000 best: 0.266552
gen: 23500 best: 0.266552
gen: 24000 best: 0.266568
gen: 24500 best: 0.266568
gen: 25000 best: 0.266568
gen: 25500 best: 0.266629
gen: 26000 best: 0.266629
gen: 26500 best: 0.266683
gen: 27000 best: 0.266683
gen: 27500 best: 0.266683
gen: 28000 best: 0.266683
gen: 28500 best: 0.266683
gen: 29000 best: 0.275194
gen: 29500 best: 0.288350
gen: 30000 best: 0.288579
gen: 30500 best: 0.288818
gen: 31000 best: 0.288818
gen: 31500 best: 0.288937
gen: 32000 best: 0.289314
gen: 32500 best: 0.289542
gen: 33000 best: 0.289547
gen: 33500 best: 0.289612
gen: 34000 best: 0.289612
gen: 34500 best: 0.289638
gen: 35000 best: 0.289714
gen: 35500 best: 0.289714
gen: 36000 best: 0.289714
gen: 36500 best: 0.289714
gen: 37000 best: 0.289714
gen: 37500 best: 0.289804
gen: 38000 best: 0.289804
gen: 38500 best: 0.289804
gen: 39000 best: 0.289977
gen: 39500 best: 0.290388
gen: 40000 best: 0.290388
gen: 40500 best: 0.290388
gen: 41000 best: 0.290506
gen: 41500 best: 0.290704
gen: 42000 best: 0.290888
gen: 42500 best: 0.290888
gen: 43000 best: 0.290888
gen: 43500 best: 0.291026
gen: 44000 best: 0.291026
gen: 44500 best: 0.291026
gen: 45000 best: 0.291261
gen: 45500 best: 0.291261
gen: 46000 best: 0.291261
gen: 46500 best: 0.291319
gen: 47000 best: 0.291319
gen: 47500 best: 0.291319
gen: 48000 best: 0.291319
gen: 48500 best: 0.291319
gen: 49000 best: 0.291319
gen: 49500 best: 0.291319
gen: 50000 best: 0.291462
gen: 50500 best: 0.291496
gen: 51000 best: 0.291621
gen: 51500 best: 0.291644
gen: 52000 best: 0.291644
gen: 52500 best: 0.291900
gen: 53000 best: 0.291900
gen: 53500 best: 0.291971
gen: 54000 best: 0.291971
gen: 54500 best: 0.291971
gen: 55000 best: 0.292042
gen: 55500 best: 0.292252
gen: 56000 best: 0.292295
gen: 56500 best: 0.292295
gen: 57000 best: 0.292295
gen: 57500 best: 0.292295
gen: 58000 best: 0.292387
gen: 58500 best: 0.292387
gen: 59000 best: 0.292387
gen: 59500 best: 0.292548
gen: 60000 best: 0.292548
gen: 60500 best: 0.292548
gen: 61000 best: 0.292548
gen: 61500 best: 0.292548
gen: 62000 best: 0.292827
gen: 62500 best: 0.292827
gen: 63000 best: 0.292827
gen: 63500 best: 0.292827
gen: 64000 best: 0.292827
gen: 64500 best: 0.292827
gen: 65000 best: 0.292827
gen: 65500 best: 0.292827
gen: 66000 best: 0.292827
gen: 66500 best: 0.292827
gen: 67000 best: 0.292827
gen: 67500 best: 0.293190
gen: 68000 best: 0.293190
gen: 68500 best: 0.293190
gen: 69000 best: 0.293303
gen: 69500 best: 0.293311
gen: 70000 best: 0.293311
