gen: 0 best: 0.083362
gen: 500 best: 0.091035
gen: 1000 best: 0.092933
gen: 1500 best: 0.096703
gen: 2000 best: 0.098553
gen: 2500 best: 0.098627
gen: 3000 best: 0.098632
gen: 3500 best: 0.098636
gen: 4000 best: 0.098772
gen: 4500 best: 0.099613
gen: 5000 best: 0.099693
gen: 5500 best: 0.100040
gen: 6000 best: 0.100202
gen: 6500 best: 0.100300
gen: 7000 best: 0.100434
gen: 7500 best: 0.100586
gen: 8000 best: 0.101083
gen: 8500 best: 0.101093
gen: 9000 best: 0.101275
gen: 9500 best: 0.101655
gen: 10000 best: 0.101699
gen: 10500 best: 0.101703
gen: 11000 best: 0.101705
gen: 11500 best: 0.101801
gen: 12000 best: 0.102124
gen: 12500 best: 0.102141
gen: 13000 best: 0.102268
gen: 13500 best: 0.102295
gen: 14000 best: 0.102474
gen: 14500 best: 0.102759
gen: 15000 best: 0.102764
gen: 15500 best: 0.102767
gen: 16000 best: 0.102767
gen: 16500 best: 0.102768
gen: 17000 best: 0.102775
gen: 17500 best: 0.102776
gen: 18000 best: 0.102780
gen: 18500 best: 0.102780
gen: 19000 best: 0.102781
gen: 19500 best: 0.102782
gen: 20000 best: 0.102782
gen: 20500 best: 0.102782
gen: 21000 best: 0.102783
gen: 21500 best: 0.102783
gen: 22000 best: 0.102789
gen: 22500 best: 0.102789
gen: 23000 best: 0.102790
gen: 23500 best: 0.102791
gen: 24000 best: 0.102793
gen: 24500 best: 0.102854
gen: 25000 best: 0.103240
gen: 25500 best: 0.103302
gen: 26000 best: 0.103302
gen: 26500 best: 0.104339
gen: 27000 best: 0.104360
gen: 27500 best: 0.104375
gen: 28000 best: 0.104375
gen: 28500 best: 0.104487
gen: 29000 best: 0.104504
gen: 29500 best: 0.104514
gen: 30000 best: 0.104515
gen: 30500 best: 0.104572
gen: 31000 best: 0.104579
gen: 31500 best: 0.104596
gen: 32000 best: 0.104598
gen: 32500 best: 0.104604
gen: 33000 best: 0.104604
gen: 33500 best: 0.104614
gen: 34000 best: 0.104637
gen: 34500 best: 0.104660
gen: 35000 best: 0.104689
gen: 35500 best: 0.104700
gen: 36000 best: 0.104705
gen: 36500 best: 0.104721
gen: 37000 best: 0.104733
gen: 37500 best: 0.104733
gen: 38000 best: 0.104743
gen: 38500 best: 0.104745
gen: 39000 best: 0.104748
gen: 39500 best: 0.104761
gen: 40000 best: 0.104761
gen: 40500 best: 0.104763
gen: 41000 best: 0.104766
gen: 41500 best: 0.104782
gen: 42000 best: 0.104784
gen: 42500 best: 0.104786
gen: 43000 best: 0.104787
gen: 43500 best: 0.104792
gen: 44000 best: 0.104792
gen: 44500 best: 0.104794
gen: 45000 best: 0.104794
gen: 45500 best: 0.104798
gen: 46000 best: 0.104798
gen: 46500 best: 0.104802
gen: 47000 best: 0.104806
gen: 47500 best: 0.104807
gen: 48000 best: 0.104807
gen: 48500 best: 0.104808
gen: 49000 best: 0.104972
gen: 49500 best: 0.105034
gen: 50000 best: 0.105054
gen: 50500 best: 0.105073
gen: 51000 best: 0.105077
gen: 51500 best: 0.105081
gen: 52000 best: 0.105082
gen: 52500 best: 0.105086
gen: 53000 best: 0.105087
gen: 53500 best: 0.105088
gen: 54000 best: 0.105090
gen: 54500 best: 0.105091
gen: 55000 best: 0.105093
gen: 55500 best: 0.105094
gen: 56000 best: 0.105096
gen: 56500 best: 0.105098
gen: 57000 best: 0.105099
gen: 57500 best: 0.105103
gen: 58000 best: 0.105108
gen: 58500 best: 0.105110
gen: 59000 best: 0.105110
gen: 59500 best: 0.105113
gen: 60000 best: 0.105113
gen: 60500 best: 0.113034
gen: 61000 best: 0.113299
gen: 61500 best: 0.113602
gen: 62000 best: 0.113614
gen: 62500 best: 0.122081
gen: 63000 best: 0.127848
gen: 63500 best: 0.127904
gen: 64000 best: 0.127905
gen: 64500 best: 0.127906
gen: 65000 best: 0.127912
gen: 65500 best: 0.127912
gen: 66000 best: 0.127913
gen: 66500 best: 0.127916
gen: 67000 best: 0.127920
gen: 67500 best: 0.127920
gen: 68000 best: 0.127921
gen: 68500 best: 0.127921
gen: 69000 best: 0.127921
gen: 69500 best: 0.127921
gen: 70000 best: 0.127921
