gen: 0 best: 0.104812
gen: 500 best: 0.108057
gen: 1000 best: 0.115705
gen: 1500 best: 0.119556
gen: 2000 best: 0.120702
gen: 2500 best: 0.122652
gen: 3000 best: 0.123689
gen: 3500 best: 0.124867
gen: 4000 best: 0.125466
gen: 4500 best: 0.126149
gen: 5000 best: 0.126792
gen: 5500 best: 0.127548
gen: 6000 best: 0.127906
gen: 6500 best: 0.128995
gen: 7000 best: 0.129268
gen: 7500 best: 0.129306
gen: 8000 best: 0.129315
gen: 8500 best: 0.129329
gen: 9000 best: 0.129334
gen: 9500 best: 0.129355
gen: 10000 best: 0.129362
gen: 10500 best: 0.129376
gen: 11000 best: 0.129376
gen: 11500 best: 0.129827
gen: 12000 best: 0.130117
gen: 12500 best: 0.130146
gen: 13000 best: 0.130160
gen: 13500 best: 0.130174
gen: 14000 best: 0.130232
gen: 14500 best: 0.130509
gen: 15000 best: 0.130754
gen: 15500 best: 0.130782
gen: 16000 best: 0.130784
gen: 16500 best: 0.130786
gen: 17000 best: 0.131018
gen: 17500 best: 0.131030
gen: 18000 best: 0.131030
gen: 18500 best: 0.131031
gen: 19000 best: 0.131031
gen: 19500 best: 0.131031
gen: 20000 best: 0.131277
gen: 20500 best: 0.131282
gen: 21000 best: 0.131285
gen: 21500 best: 0.131302
gen: 22000 best: 0.131308
gen: 22500 best: 0.131313
gen: 23000 best: 0.131326
gen: 23500 best: 0.131330
gen: 24000 best: 0.131335
gen: 24500 best: 0.131342
gen: 25000 best: 0.131347
gen: 25500 best: 0.131353
gen: 26000 best: 0.131357
gen: 26500 best: 0.131357
gen: 27000 best: 0.131358
gen: 27500 best: 0.131360
gen: 28000 best: 0.131361
gen: 28500 best: 0.131364
gen: 29000 best: 0.131364
gen: 29500 best: 0.131366
gen: 30000 best: 0.131366
gen: 30500 best: 0.131368
gen: 31000 best: 0.131368
gen: 31500 best: 0.131370
gen: 32000 best: 0.131370
gen: 32500 best: 0.131370
gen: 33000 best: 0.131370
gen: 33500 best: 0.131371
gen: 34000 best: 0.131371
gen: 34500 best: 0.131372
gen: 35000 best: 0.131372
gen: 35500 best: 0.131372
gen: 36000 best: 0.131372
gen: 36500 best: 0.131372
gen: 37000 best: 0.131372
gen: 37500 best: 0.131372
gen: 38000 best: 0.131372
gen: 38500 best: 0.131372
gen: 39000 best: 0.131372
gen: 39500 best: 0.131373
gen: 40000 best: 0.131373
gen: 40500 best: 0.131373
gen: 41000 best: 0.131373
gen: 41500 best: 0.131373
gen: 42000 best: 0.131373
gen: 42500 best: 0.131373
gen: 43000 best: 0.131373
gen: 43500 best: 0.131373
gen: 44000 best: 0.131373
gen: 44500 best: 0.131373
gen: 45000 best: 0.131373
gen: 45500 best: 0.131373
gen: 46000 best: 0.131373
gen: 46500 best: 0.131373
gen: 47000 best: 0.131374
gen: 47500 best: 0.131374
gen: 48000 best: 0.131374
gen: 48500 best: 0.131374
gen: 49000 best: 0.131374
gen: 49500 best: 0.131374
gen: 50000 best: 0.131374
gen: 50500 best: 0.131374
gen: 51000 best: 0.131374
gen: 51500 best: 0.131374
gen: 52000 best: 0.131374
gen: 52500 best: 0.131374
gen: 53000 best: 0.131374
gen: 53500 best: 0.131666
gen: 54000 best: 0.131856
gen: 54500 best: 0.131873
gen: 55000 best: 0.131886
gen: 55500 best: 0.131889
gen: 56000 best: 0.131892
gen: 56500 best: 0.131899
gen: 57000 best: 0.131901
gen: 57500 best: 0.131904
gen: 58000 best: 0.131909
gen: 58500 best: 0.131914
gen: 59000 best: 0.131915
gen: 59500 best: 0.131919
gen: 60000 best: 0.131923
gen: 60500 best: 0.131933
gen: 61000 best: 0.131935
gen: 61500 best: 0.131938
gen: 62000 best: 0.131940
gen: 62500 best: 0.131944
gen: 63000 best: 0.131946
gen: 63500 best: 0.131948
gen: 64000 best: 0.131950
gen: 64500 best: 0.131952
gen: 65000 best: 0.131955
gen: 65500 best: 0.131962
gen: 66000 best: 0.131976
gen: 66500 best: 0.131977
gen: 67000 best: 0.131984
gen: 67500 best: 0.131986
gen: 68000 best: 0.131992
gen: 68500 best: 0.131994
gen: 69000 best: 0.131998
gen: 69500 best: 0.132001
gen: 70000 best: 0.132001
