gen: 0 best: 0.147173
gen: 500 best: 0.147224
gen: 1000 best: 0.147250
gen: 1500 best: 0.147260
gen: 2000 best: 0.147272
gen: 2500 best: 0.147280
gen: 3000 best: 0.147282
gen: 3500 best: 0.147285
gen: 4000 best: 0.147285
gen: 4500 best: 0.147286
gen: 5000 best: 0.147294
gen: 5500 best: 0.147296
gen: 6000 best: 0.147299
gen: 6500 best: 0.147299
gen: 7000 best: 0.147304
gen: 7500 best: 0.147305
gen: 8000 best: 0.147309
gen: 8500 best: 0.147318
gen: 9000 best: 0.147318
gen: 9500 best: 0.147319
gen: 10000 best: 0.147322
gen: 10500 best: 0.147322
gen: 11000 best: 0.147323
gen: 11500 best: 0.147323
gen: 12000 best: 0.147323
gen: 12500 best: 0.147324
gen: 13000 best: 0.147324
gen: 13500 best: 0.147328
gen: 14000 best: 0.147333
gen: 14500 best: 0.147333
gen: 15000 best: 0.147333
gen: 15500 best: 0.147333
gen: 16000 best: 0.147335
gen: 16500 best: 0.147337
gen: 17000 best: 0.147337
gen: 17500 best: 0.147341
gen: 18000 best: 0.147342
gen: 18500 best: 0.147343
gen: 19000 best: 0.147347
gen: 19500 best: 0.147347
gen: 20000 best: 0.147348
gen: 20500 best: 0.147348
gen: 21000 best: 0.147348
gen: 21500 best: 0.147349
gen: 22000 best: 0.147350
gen: 22500 best: 0.147350
gen: 23000 best: 0.147350
gen: 23500 best: 0.147350
gen: 24000 best: 0.147350
gen: 24500 best: 0.147350
gen: 25000 best: 0.147350
gen: 25500 best: 0.147350
gen: 26000 best: 0.147350
gen: 26500 best: 0.147351
gen: 27000 best: 0.147352
gen: 27500 best: 0.147353
gen: 28000 best: 0.147353
gen: 28500 best: 0.147353
gen: 29000 best: 0.147355
gen: 29500 best: 0.147355
gen: 30000 best: 0.147356
gen: 30500 best: 0.147357
gen: 31000 best: 0.147357
gen: 31500 best: 0.147357
gen: 32000 best: 0.147360
gen: 32500 best: 0.147360
gen: 33000 best: 0.147361
gen: 33500 best: 0.147362
gen: 34000 best: 0.147363
gen: 34500 best: 0.147365
gen: 35000 best: 0.147366
gen: 35500 best: 0.147366
gen: 36000 best: 0.147366
gen: 36500 best: 0.147367
gen: 37000 best: 0.147367
gen: 37500 best: 0.147367
gen: 38000 best: 0.147367
gen: 38500 best: 0.147367
gen: 39000 best: 0.147368
gen: 39500 best: 0.147368
gen: 40000 best: 0.147368
gen: 40500 best: 0.147368
gen: 41000 best: 0.147368
gen: 41500 best: 0.147369
gen: 42000 best: 0.147370
gen: 42500 best: 0.147370
gen: 43000 best: 0.147374
gen: 43500 best: 0.147375
gen: 44000 best: 0.147375
gen: 44500 best: 0.147376
gen: 45000 best: 0.147376
gen: 45500 best: 0.147378
gen: 46000 best: 0.147381
gen: 46500 best: 0.147381
gen: 47000 best: 0.147381
gen: 47500 best: 0.147381
gen: 48000 best: 0.147381
gen: 48500 best: 0.147382
gen: 49000 best: 0.147382
gen: 49500 best: 0.147386
gen: 50000 best: 0.147386
gen: 50500 best: 0.147386
gen: 51000 best: 0.147387
gen: 51500 best: 0.147387
gen: 52000 best: 0.147388
gen: 52500 best: 0.147392
gen: 53000 best: 0.147393
gen: 53500 best: 0.147395
gen: 54000 best: 0.147397
gen: 54500 best: 0.147400
gen: 55000 best: 0.147400
gen: 55500 best: 0.147400
gen: 56000 best: 0.147400
gen: 56500 best: 0.147400
gen: 57000 best: 0.147401
gen: 57500 best: 0.147401
gen: 58000 best: 0.147401
gen: 58500 best: 0.147401
gen: 59000 best: 0.147401
gen: 59500 best: 0.147401
gen: 60000 best: 0.147404
gen: 60500 best: 0.147404
gen: 61000 best: 0.147404
gen: 61500 best: 0.147405
gen: 62000 best: 0.147405
gen: 62500 best: 0.147406
gen: 63000 best: 0.147407
gen: 63500 best: 0.147407
gen: 64000 best: 0.147407
gen: 64500 best: 0.147408
gen: 65000 best: 0.147408
gen: 65500 best: 0.147408
gen: 66000 best: 0.147414
gen: 66500 best: 0.147415
gen: 67000 best: 0.147419
gen: 67500 best: 0.147421
gen: 68000 best: 0.147422
gen: 68500 best: 0.147422
gen: 69000 best: 0.147422
gen: 69500 best: 0.147424
gen: 70000 best: 0.147424
