# architectures
phase1.architecture.length = 4
phase1.architecture = 12 15 10 2
phase1.architecture.hidden.activation = tanh
phase1.architecture.output.activation = tanh
phase2.architecture.length = 4
phase2.architecture = 22 20 12 2
phase2.architecture.hidden.activation = tanh
phase2.architecture.output.activation = tanh
wall.sensors = 10
car.sensors = 10

# other params
mutation.deviation = 0.050000
mutation.probability = 0.010000
alpha = 0.300000
beta = 0.700000

# static params
k.tournament = 3
population.size = 50
population.mean = 0.000000
population.deviation = 1.000000
mutation.mean = 0.000000
phase1.generations = 70000
phase2.generations = 70000
phase3.generations = 70000
number.of.steps = 500

# tracks params
train.number.of.tracks = 6
train.track.files = ../tracks/left1.txt ../tracks/right1.txt ../tracks/left2.txt ../tracks/right2.txt ../tracks/left4.txt ../tracks/right3.txt
train.number.of.cars = 2
train.car.unit = 50

test.number.of.tracks = 2
test.track.files = ../tracks/left4.txt ../tracks/right3.txt
test.number.of.cars = 2
test.car.unit = 50

# winner
winner.weights = -0.180949 -0.141883 0.028802 0.044508 -0.082111 -0.225725 0.181000 0.015517 0.140902 0.259013 -0.035500 0.154928 -0.351032 -0.416589 -0.076452 0.097543 -0.120146 -0.217068 0.394330 0.216707 0.268166 -0.045491 0.182728 -0.306630 0.116646 0.324898 0.211625 -0.003710 0.073801 0.117960 -0.148760 -0.388339 0.149775 0.332635 -0.096534 -0.076555 -0.146042 0.089521 -0.061484 -0.119341 -0.094478 0.061108 0.262234 0.159347 0.545384 -0.117903 0.001925 0.223200 -0.210142 -0.178213 0.243648 -0.016829 -0.038710 0.336451 0.116285 -0.111503 -0.363787 -0.109411 -0.291355 -0.016838 -0.387791 0.013744 0.093597 0.326612 0.393954 -0.026088 0.180780 -0.019213 0.456950 0.221948 -0.182940 -0.352237 -0.126938 -0.278301 -0.545415 -0.715955 0.333841 -0.135660 -0.283502 -0.275544 0.465492 0.304607 -0.185194 -0.353433 0.010489 0.178971 -0.041239 -0.053901 0.030988 0.106160 0.424303 0.152993 -0.118085 -0.029613 0.557393 0.170945 0.274236 -0.017092 0.369819 -0.403219 0.360979 -0.271268 -0.039890 0.126084 -0.064256 -0.547582 -0.465210 -0.146708 0.013066 0.134819 -0.008398 -0.385591 0.140722 -0.030257 -0.350273 -0.169932 -0.121365 0.291674 0.010142 0.222963 -0.300952 -0.307139 -0.121721 0.018581 -0.121034 -0.110223 -0.106093 -0.211617 -0.386306 0.128057 -0.137331 -0.191042 0.284265 0.096647 -0.136465 -0.235751 0.005425 0.553375 -0.005001 -0.019770 -0.075810 -0.056884 0.084902 -0.285616 0.082795 -0.153811 0.362146 0.574993 0.243135 -0.274894 0.013641 -0.090477 0.047512 0.024319 -0.123716 0.269453 -0.255001 -0.365774 -0.155770 0.286634 -0.055835 0.043248 0.265874 0.105771 0.264345 -0.203280 0.123593 0.221720 -0.190293 0.260674 -0.071114 -0.068688 -0.031727 0.086942 0.491166 -0.046106 -0.133708 0.460980 -0.030914 0.204345 0.001335 -0.282213 0.108604 -0.467500 0.088238 -0.414702 -0.047849 -0.205293 0.226748 0.145980 -0.037900 -0.033007 0.032681 -0.345568 0.008378 0.243804 0.246430 0.105569 -0.092409 0.198104 0.142436 0.048788 0.066203 -0.109131 0.108143 0.307639 -0.194025 0.082600 0.114407 0.236120 0.048146 -0.180345 0.142091 0.106931 0.107873 0.230821 0.116300 0.346794 0.017104 -0.046476 -0.200902 0.288925 -0.294416 -0.092984 0.730721 0.196168 -0.141785 -0.246591 -0.024362 -0.258638 -0.319036 -0.402194 -0.056248 -0.208651 -0.340081 0.204559 -0.037531 -0.001771 -0.333723 -0.035852 0.049496 -0.158825 -0.110351 0.051581 0.124873 -0.051794 0.459741 -0.040702 0.230298 0.545049 -0.587064 -0.489959 -0.245170 0.206880 0.139625 -0.031018 0.189625 -0.141905 -0.006114 0.122592 0.140814 0.526882 -0.047478 0.133141 -0.263443 -0.519406 0.060035 0.113489 0.378213 -0.363645 0.100457 0.483840 0.131356 0.161701 -0.209732 -0.145718 -0.264676 0.124504 0.004285 0.084361 0.017342 -0.208402 0.185791 0.019885 0.511157 -0.159132 0.373381 -0.215892 0.395705 0.399255 0.119414 0.194451 -0.072153 0.219621 -0.134373 0.120845 -0.277033 0.204305 -0.113738 0.344086 0.024772 0.226251 0.228361 -0.199213 0.156287 0.075557 0.387295 0.199293 0.224840 -0.571256 -0.072781 0.395281 -0.047251 -0.018681 -0.005639 0.073372 0.018619 -0.125307 -0.348756 -0.072197 -0.083937 0.014816 0.242612 -0.278879 0.049151 0.310078 0.262652 -0.181206 -0.007760 0.068761 -0.193773 -0.192801 -0.050516 -0.334932 -0.041967 0.311864 0.068056 -0.200937 -0.434317 0.224387 -0.009405 0.208587 0.131825 0.021177 0.166093 -0.317767 -0.523498 0.001691 0.091205 -0.074585 0.577516 0.042583 0.145948 0.183014 -0.122169 -0.222907 0.030448 0.018829 -0.363721 -0.013688 0.097535 0.412164 0.032426 0.056760 -0.029581 0.078322 0.417267 -0.039721 -0.197851 0.025679 -0.206367 0.204617 -0.077770 -0.362078 0.082049 0.045779 -0.448880 0.146959 0.293172 0.104686 -0.093947 -0.199652 0.254524 -0.010088 0.050517 0.120271 -0.327462 0.066726 -0.072967 -0.144765 -0.128677 -0.459845 -0.389155 0.080289 0.125921 -0.077734 0.002657 0.015419 -0.192970 0.342760 0.105181 -0.203097 0.301128 0.162693 -0.187033 0.318322 0.468322 -0.171710 -0.107205 -0.075670 0.024338 -0.026931 0.331033 0.243786 0.054621 0.055045 -0.453073 0.258571 -0.194536 0.045988 0.014758 -0.387283 0.200403 0.464193 0.206219 0.079389 0.093670 0.079866 -0.258520 0.487645 -0.320336 -0.521120 0.420721 0.267184 -0.271244 -0.188749 0.169627 -0.252874 -0.392106 -0.364101 0.097407 0.284873 0.064331 0.148886 0.249399 -0.213132 -0.323649 -0.171579 0.129944 0.288366 -0.038603 0.382955 -0.145819 -0.227766 0.255491 -0.442585 -0.151900 0.215605 0.292787 -0.263515 0.073473 -0.165892 -0.090273 -0.090253 -0.200642 -0.479517 -0.141435 -0.061766 0.082418 0.239003 -0.139356 0.235655 0.341973 -0.158953 -0.013408 -0.149351 -0.194901 -0.051318 -0.034865 -0.117270 -0.035557 -0.098279 -0.220961 0.117426 0.019888 0.032947 -0.144242 0.072516 -0.006056 -0.172604 -0.237536 0.305116 -0.098582 -0.370509 0.314445 -0.346176 -0.328860 -0.433997 -0.097187 -0.000474 0.063207 -0.364149 -0.133140 0.036316 -0.035049 0.056126 0.054971 0.107836 0.033462 0.028412 -0.164241 0.231368 0.116117 -0.068888 0.181695 -0.415801 0.048331 -0.369061 -0.059558 0.143563 -0.081560 0.127501 0.201153 0.276147 0.481178 0.221451 0.498603 -0.258197 -0.208263 0.163684 0.273653 -0.083598 0.022600 0.294590 0.120661 -0.011190 -0.192729 0.074843 -0.175747 0.046789 -0.025368 -0.461367 -0.025107 -0.171220 -0.067440 -0.425995 0.169834 0.145358 -0.185696 -0.276998 -0.023051 0.190754 0.249515 -0.099190 0.032106 -0.159889 -0.044363 -0.303450 0.152675 -0.196249 0.251221 -0.290351 0.293840 -0.257979 -0.197855 0.091036 0.212053 0.370929 0.166586 0.184408 0.279190 -0.083598 -0.578913 -0.087655 0.307567 0.270709 0.390808 -0.334827 0.416295 -0.013856 -0.064146 0.371108 0.098421 0.125076 -0.068884 0.042329 0.383597 -0.300542 -0.158094 0.263546 0.148118 -0.065951 -0.064174 0.093805 -0.100105 0.334023 0.040097 -0.092258 -0.477576 -0.085994 -0.246353 0.391786 0.017669 0.069141 0.388841 -0.090008 -0.300472 0.332178 0.165539 -0.244567 0.060507 -0.369748 -0.249827 0.222952 -0.095446 -0.110552 -0.086306 -0.003288 0.394939 -0.190516 -0.016781 -0.197010 0.254132 0.048386 0.164470 -0.072537 -0.144275 -0.281298 -0.188733 -0.251843 -0.418257 0.000629 0.130468 0.030383 0.017930 0.240511 -0.298271 0.220224 -0.433781 0.000686 -0.033559 0.142520 0.441238 0.064856 -0.267822 -0.185589 -0.374275 0.237039 -0.097453 0.235653 0.104519 0.011673 0.146610 0.303321 0.183809 0.015321 0.292404 0.131252 0.051132 -0.160544 -0.106566 -0.070831 -0.453336 -0.347178 0.228177 -0.425383 0.108524 -0.089436 0.681662 -0.400365 0.364704 0.139768 -0.030445 0.102530 -0.131463 0.052121 0.093806 0.062688 0.041580 0.193088 -0.149965 0.054210 0.000222 0.054631 0.080923 -0.190832 -0.075013 -0.385460 0.066476 -0.031126 0.075868 0.002514 -0.215650 0.001947 -0.088847 0.359836 -0.002436 -0.096734 0.296049 0.089050 -0.334521 0.378177 0.620284 -0.236993 0.060738 0.319400 0.005657 0.327513 -0.171601 -0.184746 0.047393 0.384332 -0.013098 -0.136265 -0.351114 -0.044270 -0.610252 0.066490 -0.405544 -0.141911 0.233431 -0.688582 -0.020641 -0.284706 -0.058859 0.570707 0.090761 0.460055 0.269806 0.297240 0.093204 0.612063 0.191454 -0.169851 0.047845 0.159975 0.434478 0.326463
winner.fitness = 0.037561
