9
100 100	900 100
900 100 900 600
900 600 100 600
100 600 100 100
250 350 750 350
250 100 250 250
250 350 250 500
500 600 500 450
750 500 750 200
500 100 500 350
11
500 250
300 250
150 350
250 550
500 425
700 425
750 550
850 450
850 250
750 150
650 250
2
500 250 -1 0
500 200 -1 0
