# architectures
phase1.architecture.length = 4
phase1.architecture = 10 15 10 2
phase1.architecture.hidden.activation = tanh
phase1.architecture.output.activation = tanh
phase2.architecture.length = 4
phase2.architecture = 18 20 12 2
phase2.architecture.hidden.activation = tanh
phase2.architecture.output.activation = tanh
wall.sensors = 8
car.sensors = 8

# other params
mutation.deviation = 0.500000
mutation.probability = 0.010000
alpha = 0.700000
beta = 0.300000

# static params
k.tournament = 3
population.size = 50
population.mean = 0.000000
population.deviation = 1.000000
mutation.mean = 0.000000
phase1.generations = 70000
phase2.generations = 70000
phase3.generations = 70000
number.of.steps = 500

# tracks params
train.number.of.tracks = 6
train.track.files = ../tracks/left1.txt ../tracks/right1.txt ../tracks/left2.txt ../tracks/right2.txt ../tracks/left4.txt ../tracks/right3.txt
train.number.of.cars = 2
train.car.unit = 50

test.number.of.tracks = 2
test.track.files = ../tracks/left4.txt ../tracks/right3.txt
test.number.of.cars = 2
test.car.unit = 50

# winner
winner.weights = -0.125651 0.461259 0.255954 0.231408 0.009327 0.199277 0.627989 0.258188 -0.002871 -0.204214 0.411191 0.494797 0.001888 0.397813 -0.253721 -0.033512 0.402960 -0.006454 -0.048639 -0.727205 0.131700 0.884228 -0.463735 -0.972078 0.367662 0.136726 -0.144495 0.164087 0.701361 -0.240072 0.755419 -0.168622 0.139761 0.224963 0.562882 0.208046 0.069422 0.053051 0.740786 0.199411 0.099856 -0.053792 0.191559 0.649780 0.042743 -0.364051 0.447825 0.294579 0.323228 0.078862 0.265665 0.248602 0.095870 -0.166057 -0.224283 0.125470 0.535995 0.546522 0.370746 0.023122 0.484892 -0.837801 -0.199796 0.053902 0.342976 0.350922 0.418579 0.387516 0.372899 -0.121292 0.339281 -0.518119 -0.212541 -0.424410 -0.096422 -0.078249 0.202592 0.677431 -0.172062 -0.267348 0.080328 0.078492 0.200248 -0.177177 0.390040 0.160412 0.117060 -0.775916 0.164548 -0.386344 0.131233 -0.508251 -0.202856 0.310575 0.069834 -0.214096 -0.163313 -0.195257 0.019695 0.333314 -0.757059 0.471626 -0.048330 -0.973729 -0.015644 -0.117162 -0.516605 0.785204 -0.397140 0.242286 -0.093931 0.336269 -0.231768 -0.310793 0.249038 -0.888012 0.420156 0.041003 -0.149607 0.370450 -0.065045 -0.318893 0.048337 0.127298 0.489679 -0.241287 -0.005926 0.051728 0.741478 0.320935 0.135104 -0.186824 0.481861 0.319773 -0.045382 1.129582 0.788351 -0.038882 0.128422 0.457759 0.515945 0.154718 0.104072 -0.750989 0.741582 0.333356 0.458250 -0.339258 0.080040 0.456828 -0.123096 -0.568411 -0.140588 0.083534 -0.075208 -0.278900 0.148749 -0.151291 0.167560 -0.262186 0.026884 -0.174819 -0.457361 0.215312 -0.259315 -0.239189 -0.024903 -0.363129 0.406615 0.648229 0.280854 -0.629815 0.216762 -0.427870 -0.081987 -0.207042 -0.512561 -0.376917 -0.087938 0.488799 0.760797 0.088728 -0.389423 -0.173833 -0.228005 0.154832 0.664136 0.481675 0.361095 0.097007 0.420052 -0.111730 0.699558 -0.437021 0.477546 -0.040016 -0.173709 -0.073587 -0.033029 0.090029 -0.829558 0.331072 0.129013 0.029758 0.483857 0.076384 0.270540 0.128326 -0.300268 0.337726 0.433598 -0.416062 -0.052066 -0.013768 -0.108966 0.199429 -0.166637 -0.427054 -0.114577 -0.253354 0.059118 -0.406694 -0.619170 -0.216572 0.016100 -0.262782 -0.016715 0.529674 0.137447 0.176329 0.063572 -0.215548 0.563058 -0.360180 -0.069510 -0.272081 -0.351469 -0.019843 -0.128787 -0.489250 -0.494600 -0.443995 -0.554813 -0.044948 -0.570637 0.729264 -0.030673 0.337675 -0.300743 0.101404 -0.216713 0.083443 -0.324818 0.156182 -0.002303 0.738375 0.347681 0.084290 0.069746 0.151269 0.161411 0.388819 0.168370 -0.266312 -0.462644 0.836318 -0.195856 -0.184460 0.502683 -0.068830 0.187963 -0.504959 0.309364 0.227418 0.679517 0.035011 -0.730878 -0.003231 -0.683715 0.004031 0.391478 0.410464 0.272380 0.468017 -0.069717 0.006939 0.284312 0.069797 -0.356332 -0.105809 -0.369601 -0.121800 0.218926 -0.005410 -0.147950 0.140101 0.453040 -0.500001 -0.125298 0.146029 0.182103 -0.033509 -0.111405 0.273537 0.022176 -0.065712 0.634977 0.342263 -0.434188 0.097220 0.019032 0.037180 -0.500140 0.322624 -0.387014 0.024831 -0.355256 -0.181407 0.016504 -0.138338 0.702529 -0.285100 0.333304 0.215374 -0.440701 0.564907 0.138375 0.221285 -0.407315 0.318305 -0.340131 0.039109 0.166456 0.145357 -0.298431 0.192920 0.034447 0.442667 0.536220 0.086170 -0.164458 0.168953 -0.222412 -0.283940 -0.471731 0.216354 -0.372974 0.009905 -0.064478 0.124292 0.213679 0.109020 0.021998 -0.366081 0.342727 0.320500 0.556334 0.357185 0.267051 -0.244718 -0.172835 -0.022621 0.300026 -0.138786 0.341522 -0.175011 0.281384 0.086652 -0.589347 0.650204 -0.463923 -0.226849 0.088336 0.265348 -0.060389 -0.424387 -0.641975 0.200811 -0.223908 0.257753 0.237785 -0.164240 0.194545 -0.430358 -0.166601 0.288008 -0.465892 0.308513 -0.331127 -0.178756 0.938525 -0.646263 0.037644 0.074294 0.078585 -0.018265 0.289779 -0.086664 -0.916265 -0.345608 0.244913 -0.187761 0.872245 0.190410 0.348252 -0.228304 -0.330109 0.070294 -0.035620 -0.424309 -0.217545 0.112204 -0.015646 -0.404262 0.411825 0.551641 -0.601748 -0.349707 0.033640 0.540425 -0.007818 -0.147279 -0.538806 0.423516 -0.477216 0.190217 0.314517 -0.504151 0.025728 -0.862682 -0.214470 0.184769 -0.320298 0.731091 0.190301 0.104757 0.375630 0.505316 -0.294616 -0.242039 0.519624 -0.445201 0.149141 -0.051861 0.371439 0.297623 -0.073644 0.006466 -0.010162 -0.068508 0.317532 0.017831 0.382374 -0.003337 -0.717347 0.098183 0.203924 0.207913 -0.339286 0.241520 -0.295581 -0.510165 0.014750 0.564466 0.263842 0.392682 0.283033 -0.131350 -0.099090 -0.629597 0.043415 0.495428 -0.183952 0.105804 -0.149287 -0.633713 0.314755 0.425662 -0.585002 0.555384 0.329703 0.300320 0.037650 0.319763 -0.070669 0.589966 0.283362 -0.181880 0.173111 0.255853 0.085717 0.215627 -0.220957 -0.542130 0.167654 -0.259120 0.124887 0.197265 0.510244 -0.014235 -0.255173 0.135442 -0.497782 -0.175802 0.346238 0.452276 -0.215107 -0.324483 0.315333 0.570249 -0.366265 0.384113 -0.395708 -0.473456 -0.615690 -0.265490 0.434213 -0.230772 0.597282 0.358794 -0.132237 -0.240804 0.189987 -0.346093 -0.089613 -0.287806 0.356741 0.039443 0.034174 -0.134155 -0.172704 0.522450 0.175286 0.199680 0.245518 0.023266 -0.085327 -0.129342 -0.020769 0.115489 -0.271526 -0.175504 0.347262 -0.034806 0.117923 0.076875 -0.100927 0.126327 -0.743749 0.031002 0.076954 0.559039 -0.003704 0.046838 0.118245 -0.410182 -0.549013 0.354320 -0.473635 -0.845983 -0.017087 0.023323 0.276549 0.136749 0.064813 -0.243009 0.358510 0.115526 0.228335 -0.044192 0.191484 -0.471563 0.072677 -0.289312 0.310766 0.247239 -0.242341 -0.614780 0.034944 -0.152900 -0.211484 -0.461424 -0.299218 -0.272231 -0.080586 -0.922640 -0.250618 0.120794 -0.110827 -0.020787 -0.118417 -0.113045 -0.202762 0.199166 0.233099 0.481920 0.727070 -0.028938 0.227781 0.144386 0.886077 -0.154134 -0.022035 0.140208 -0.339895 0.231263 -0.518872 -0.334324 -0.783285 0.159601 -0.036387 0.021250 -0.170678 0.088198 -0.457035 -0.518370 -0.185203 0.098272 -0.439027 0.606773 -0.092042 -0.228575 0.150494 -0.253760 0.295102 0.464731 0.093686 -0.092488 0.284086 0.114585 0.325350 0.283442 -0.579445 0.064260 -0.280880 0.235259 -0.376611 -0.043649 -0.679546 -0.178053 0.258426 -0.301170 0.232035 -0.011574 0.163805 0.367801 0.532852 0.333008 -0.217625 0.677071 1.061667 0.332398 -0.186936 0.742258 -0.174893 0.162517 -0.038002 -0.353571
winner.fitness = 0.039568
