gen: 0 best: 0.132299
gen: 500 best: 0.146937
gen: 1000 best: 0.171283
gen: 1500 best: 0.171409
gen: 2000 best: 0.171714
gen: 2500 best: 0.171720
gen: 3000 best: 0.172172
gen: 3500 best: 0.172188
gen: 4000 best: 0.172398
gen: 4500 best: 0.172883
gen: 5000 best: 0.173065
gen: 5500 best: 0.173233
gen: 6000 best: 0.173523
gen: 6500 best: 0.173625
gen: 7000 best: 0.174145
gen: 7500 best: 0.174258
gen: 8000 best: 0.174439
gen: 8500 best: 0.174544
gen: 9000 best: 0.174544
gen: 9500 best: 0.174948
gen: 10000 best: 0.174948
gen: 10500 best: 0.175235
gen: 11000 best: 0.175460
gen: 11500 best: 0.175868
gen: 12000 best: 0.176082
gen: 12500 best: 0.176409
gen: 13000 best: 0.176522
gen: 13500 best: 0.176522
gen: 14000 best: 0.176601
gen: 14500 best: 0.176601
gen: 15000 best: 0.176620
gen: 15500 best: 0.176620
gen: 16000 best: 0.176620
gen: 16500 best: 0.176967
gen: 17000 best: 0.177190
gen: 17500 best: 0.177190
gen: 18000 best: 0.243374
gen: 18500 best: 0.244228
gen: 19000 best: 0.244918
gen: 19500 best: 0.245113
gen: 20000 best: 0.245448
gen: 20500 best: 0.245798
gen: 21000 best: 0.245860
gen: 21500 best: 0.246063
gen: 22000 best: 0.246357
gen: 22500 best: 0.246431
gen: 23000 best: 0.247305
gen: 23500 best: 0.247563
gen: 24000 best: 0.248491
gen: 24500 best: 0.248491
gen: 25000 best: 0.248677
gen: 25500 best: 0.248738
gen: 26000 best: 0.249161
gen: 26500 best: 0.249886
gen: 27000 best: 0.250107
gen: 27500 best: 0.250381
gen: 28000 best: 0.250381
gen: 28500 best: 0.250381
gen: 29000 best: 0.250415
gen: 29500 best: 0.250415
gen: 30000 best: 0.250415
gen: 30500 best: 0.250642
gen: 31000 best: 0.250642
gen: 31500 best: 0.250655
gen: 32000 best: 0.250655
gen: 32500 best: 0.250655
gen: 33000 best: 0.250655
gen: 33500 best: 0.250655
gen: 34000 best: 0.250705
gen: 34500 best: 0.250723
gen: 35000 best: 0.250723
gen: 35500 best: 0.250723
gen: 36000 best: 0.250729
gen: 36500 best: 0.250729
gen: 37000 best: 0.250729
gen: 37500 best: 0.250729
gen: 38000 best: 0.250762
gen: 38500 best: 0.250762
gen: 39000 best: 0.250777
gen: 39500 best: 0.250777
gen: 40000 best: 0.250777
gen: 40500 best: 0.250777
gen: 41000 best: 0.250811
gen: 41500 best: 0.250826
gen: 42000 best: 0.250826
gen: 42500 best: 0.250890
gen: 43000 best: 0.250890
gen: 43500 best: 0.250890
gen: 44000 best: 0.250939
gen: 44500 best: 0.250939
gen: 45000 best: 0.250970
gen: 45500 best: 0.250970
gen: 46000 best: 0.251082
gen: 46500 best: 0.251082
gen: 47000 best: 0.251082
gen: 47500 best: 0.251082
gen: 48000 best: 0.251116
gen: 48500 best: 0.251155
gen: 49000 best: 0.251172
gen: 49500 best: 0.251172
gen: 50000 best: 0.251172
gen: 50500 best: 0.251172
gen: 51000 best: 0.251172
gen: 51500 best: 0.251172
gen: 52000 best: 0.251172
gen: 52500 best: 0.251172
gen: 53000 best: 0.251250
gen: 53500 best: 0.251250
gen: 54000 best: 0.251250
gen: 54500 best: 0.251253
gen: 55000 best: 0.251253
gen: 55500 best: 0.251253
gen: 56000 best: 0.251253
gen: 56500 best: 0.251253
gen: 57000 best: 0.251260
gen: 57500 best: 0.251260
gen: 58000 best: 0.251305
gen: 58500 best: 0.251346
gen: 59000 best: 0.251346
gen: 59500 best: 0.251346
gen: 60000 best: 0.251346
gen: 60500 best: 0.251346
gen: 61000 best: 0.251361
gen: 61500 best: 0.251373
gen: 62000 best: 0.251373
gen: 62500 best: 0.251373
gen: 63000 best: 0.251373
gen: 63500 best: 0.251373
gen: 64000 best: 0.251373
gen: 64500 best: 0.251373
gen: 65000 best: 0.251373
gen: 65500 best: 0.251373
gen: 66000 best: 0.251373
gen: 66500 best: 0.251373
gen: 67000 best: 0.251373
gen: 67500 best: 0.251373
gen: 68000 best: 0.251373
gen: 68500 best: 0.251373
gen: 69000 best: 0.251373
gen: 69500 best: 0.251373
gen: 70000 best: 0.251373
