gen: 0 best: 0.092768
gen: 500 best: 0.098429
gen: 1000 best: 0.126238
gen: 1500 best: 0.127019
gen: 2000 best: 0.154870
gen: 2500 best: 0.190714
gen: 3000 best: 0.219848
gen: 3500 best: 0.226221
gen: 4000 best: 0.231759
gen: 4500 best: 0.257520
gen: 5000 best: 0.284283
gen: 5500 best: 0.285611
gen: 6000 best: 0.286064
gen: 6500 best: 0.286558
gen: 7000 best: 0.286581
gen: 7500 best: 0.286599
gen: 8000 best: 0.286677
gen: 8500 best: 0.286706
gen: 9000 best: 0.286733
gen: 9500 best: 0.286978
gen: 10000 best: 0.287033
gen: 10500 best: 0.287078
gen: 11000 best: 0.287078
gen: 11500 best: 0.287098
gen: 12000 best: 0.287187
gen: 12500 best: 0.287187
gen: 13000 best: 0.287413
gen: 13500 best: 0.287436
gen: 14000 best: 0.287594
gen: 14500 best: 0.287594
gen: 15000 best: 0.287605
gen: 15500 best: 0.287607
gen: 16000 best: 0.287607
gen: 16500 best: 0.287607
gen: 17000 best: 0.287607
gen: 17500 best: 0.287607
gen: 18000 best: 0.287607
gen: 18500 best: 0.287607
gen: 19000 best: 0.287607
gen: 19500 best: 0.287607
gen: 20000 best: 0.287607
gen: 20500 best: 0.287607
gen: 21000 best: 0.287607
gen: 21500 best: 0.287608
gen: 22000 best: 0.287608
gen: 22500 best: 0.287608
gen: 23000 best: 0.287608
gen: 23500 best: 0.287608
gen: 24000 best: 0.287608
gen: 24500 best: 0.287608
gen: 25000 best: 0.287618
gen: 25500 best: 0.287618
gen: 26000 best: 0.287618
gen: 26500 best: 0.287618
gen: 27000 best: 0.287618
gen: 27500 best: 0.287619
gen: 28000 best: 0.287619
gen: 28500 best: 0.287619
gen: 29000 best: 0.287620
gen: 29500 best: 0.287623
gen: 30000 best: 0.287623
gen: 30500 best: 0.287623
gen: 31000 best: 0.287623
gen: 31500 best: 0.287641
gen: 32000 best: 0.287721
gen: 32500 best: 0.287910
gen: 33000 best: 0.287946
gen: 33500 best: 0.287983
gen: 34000 best: 0.287983
gen: 34500 best: 0.288158
gen: 35000 best: 0.288276
gen: 35500 best: 0.288341
gen: 36000 best: 0.288459
gen: 36500 best: 0.288459
gen: 37000 best: 0.288459
gen: 37500 best: 0.288469
gen: 38000 best: 0.288486
gen: 38500 best: 0.288487
gen: 39000 best: 0.288497
gen: 39500 best: 0.288504
gen: 40000 best: 0.288524
gen: 40500 best: 0.288527
gen: 41000 best: 0.288530
gen: 41500 best: 0.288530
gen: 42000 best: 0.288536
gen: 42500 best: 0.288553
gen: 43000 best: 0.288578
gen: 43500 best: 0.288578
gen: 44000 best: 0.288578
gen: 44500 best: 0.288588
gen: 45000 best: 0.288592
gen: 45500 best: 0.288594
gen: 46000 best: 0.288594
gen: 46500 best: 0.288602
gen: 47000 best: 0.288602
gen: 47500 best: 0.288602
gen: 48000 best: 0.288602
gen: 48500 best: 0.288602
gen: 49000 best: 0.288602
gen: 49500 best: 0.288603
gen: 50000 best: 0.288603
gen: 50500 best: 0.288603
gen: 51000 best: 0.288603
gen: 51500 best: 0.288603
gen: 52000 best: 0.288603
gen: 52500 best: 0.288603
gen: 53000 best: 0.288603
gen: 53500 best: 0.288603
gen: 54000 best: 0.288603
gen: 54500 best: 0.288603
gen: 55000 best: 0.288604
gen: 55500 best: 0.288604
gen: 56000 best: 0.288604
gen: 56500 best: 0.288604
gen: 57000 best: 0.288608
gen: 57500 best: 0.288608
gen: 58000 best: 0.288608
gen: 58500 best: 0.288608
gen: 59000 best: 0.288608
gen: 59500 best: 0.288608
gen: 60000 best: 0.288608
gen: 60500 best: 0.288610
gen: 61000 best: 0.288610
gen: 61500 best: 0.288610
gen: 62000 best: 0.288610
gen: 62500 best: 0.288610
gen: 63000 best: 0.288610
gen: 63500 best: 0.288610
gen: 64000 best: 0.288610
gen: 64500 best: 0.288610
gen: 65000 best: 0.288610
gen: 65500 best: 0.288610
gen: 66000 best: 0.288610
gen: 66500 best: 0.288610
gen: 67000 best: 0.288610
gen: 67500 best: 0.288610
gen: 68000 best: 0.288610
gen: 68500 best: 0.288610
gen: 69000 best: 0.288610
gen: 69500 best: 0.288610
gen: 70000 best: 0.288610
