# architectures
phase1.architecture.length = 4
phase1.architecture = 12 15 10 2
phase1.architecture.hidden.activation = sigmoid
phase1.architecture.output.activation = tanh
phase2.architecture.length = 4
phase2.architecture = 22 20 12 2
phase2.architecture.hidden.activation = sigmoid
phase2.architecture.output.activation = tanh
wall.sensors = 10
car.sensors = 10

# other params
mutation.deviation = 0.050000
mutation.probability = 0.010000
alpha = 0.300000
beta = 0.500000

# static params
k.tournament = 3
population.size = 50
population.mean = 0.000000
population.deviation = 1.000000
mutation.mean = 0.000000
phase1.generations = 70000
phase2.generations = 70000
phase3.generations = 70000
number.of.steps = 500

# tracks params
train.number.of.tracks = 6
train.track.files = ../tracks/left1.txt ../tracks/right1.txt ../tracks/left2.txt ../tracks/right2.txt ../tracks/left4.txt ../tracks/right3.txt
train.number.of.cars = 2
train.car.unit = 50

test.number.of.tracks = 2
test.track.files = ../tracks/left4.txt ../tracks/right3.txt
test.number.of.cars = 2
test.car.unit = 50

# winner
winner.weights = -0.026630 0.011114 0.353284 -0.032647 -0.158324 0.017788 0.028208 -0.552114 -0.154288 -0.235185 -0.273692 0.137532 0.179602 0.275995 -0.439520 0.190023 0.506416 -0.314025 -0.172996 0.060508 0.361944 -0.007023 -0.025292 -0.292535 -0.148154 -0.123085 0.257528 -0.180710 0.134269 0.326854 -0.063637 -0.078208 -0.250093 0.272150 -0.044955 0.037109 0.009490 -0.176847 0.072383 0.163342 0.159901 0.130935 -0.323573 -0.195610 0.224458 -0.036503 -0.196873 -0.321458 0.161357 -0.374498 0.144526 0.292347 -0.121650 -0.074803 0.139586 0.235182 -0.129949 0.048926 -0.039818 0.286632 0.197968 -0.134936 0.446391 0.045101 0.129615 -0.295074 -0.167922 0.253578 -0.250762 0.183792 0.069930 -0.089046 0.083266 0.219904 -0.149550 0.172750 0.189327 0.189390 -0.095542 0.078554 -0.008174 0.110417 0.364914 -0.190917 -0.228452 0.170538 -0.420780 0.313640 0.265770 0.253940 0.219778 -0.178262 -0.273407 0.286842 0.022278 -0.005278 0.097149 -0.071638 -0.150509 -0.189659 -0.083828 -0.201757 -0.069423 0.469212 -0.100508 0.413046 0.056289 0.409684 0.088526 -0.156841 0.180542 -0.131706 -0.159633 -0.471322 0.040494 0.093984 0.111231 0.103395 -0.221970 -0.275895 -0.214790 0.008418 -0.026936 -0.150813 0.181220 0.320742 -0.028110 -0.057284 -0.334950 -0.304921 -0.283781 0.070999 -0.171755 0.268248 0.219092 -0.102013 -0.045155 -0.165362 0.085240 0.268614 0.344940 0.258962 -0.143731 -0.000166 -0.271365 -0.340447 -0.161940 -0.292560 0.426608 0.057361 0.096777 -0.372335 -0.309161 0.020793 -0.381519 -0.041285 0.409675 -0.185222 0.074892 0.209494 0.007015 0.019384 0.187567 -0.006864 0.175600 0.170254 0.158383 0.015149 -0.278876 -0.206011 -0.051659 -0.040787 -0.292905 -0.468288 0.143169 -0.038830 0.163084 -0.139072 0.047569 0.315431 -0.254315 -0.138076 -0.248089 -0.237745 -0.417130 -0.067843 0.252973 -0.327503 -0.365753 -0.005471 -0.263401 0.397311 0.102781 0.084470 0.142218 -0.047279 0.392479 0.085696 -0.018471 -0.017774 -0.171381 0.139529 -0.200623 0.241492 -0.040600 -0.101387 0.074820 -0.428226 -0.010096 -0.067417 -0.498464 0.213850 0.467196 -0.412743 -0.262583 0.142451 0.563136 0.395950 -0.032123 0.285676 -0.098383 -0.326221 0.014007 -0.166792 0.277590 -0.061156 -0.485882 0.355221 0.311695 0.044415 -0.127557 0.302304 0.239048 -0.067450 0.108638 0.111348 0.231490 -0.068467 -0.004900 -0.014883 0.211099 -0.107963 -0.385395 0.080957 -0.118271 -0.037125 -0.370566 0.081306 -0.064256 -0.158056 -0.161234 0.046807 -0.142877 -0.163554 -0.133289 -0.112500 -0.277318 0.199313 0.301675 -0.457797 -0.234735 0.003525 0.079267 -0.008544 -0.280414 -0.142482 0.170569 0.224421 0.137051 -0.078135 0.146550 -0.169105 0.085612 0.301931 -0.345974 0.252469 0.397678 0.191796 0.109265 0.170863 0.265768 0.127118 -0.224721 0.036954 -0.869832 -0.313247 -0.158499 0.053589 -0.395587 -0.425518 0.011118 -0.521410 0.295583 -0.475831 0.274224 0.263789 -0.387801 -0.166257 0.012001 0.228706 0.191628 0.082444 0.310351 -0.095538 0.069948 0.009061 0.433850 -0.172798 0.110615 0.184209 -0.200238 -0.222232 0.213022 0.044443 0.182503 0.127458 0.270047 0.060190 0.196647 0.225783 -0.024042 -0.515712 -0.086175 -0.284556 0.218789 0.069454 0.024113 -0.029030 -0.189885 0.147019 0.114587 0.150004 -0.029306 0.143752 -0.001349 0.199994 -0.221250 -0.289308 0.279939 -0.062145 0.412907 0.316403 0.286011 0.435977 -0.211462 0.089045 0.056529 -0.530822 -0.026154 -0.064696 0.008989 -0.360936 0.178395 0.123748 -0.097550 -0.452912 0.168085 0.217124 0.465012 0.049039 0.074807 0.050654 -0.169858 0.050269 -0.260379 -0.199425 -0.028123 -0.366424 -0.310830 0.062513 0.185053 0.095217 0.100793 -0.224446 -0.180794 -0.483894 -0.821349 -0.344744 0.163125 0.267097 -0.016554 0.311747 0.185637 -0.052508 0.179098 0.392288 -0.230266 -0.138333 -0.211395 -0.196045 -0.030936 0.121456 0.180943 0.234235 0.216214 -0.315522 0.290071 0.419698 -0.285512 0.258542 0.039758 0.143669 0.020420 -0.399725 -0.129183 0.005793 0.221460 0.342399 0.391144 0.528449 -0.256680 -0.344821 0.255557 -0.084583 0.014329 -0.102595 0.127009 0.264648 0.348077 0.064623 -0.154139 0.100876 0.216867 0.229920 0.135635 0.174962 0.245587 -0.100222 0.090459 -0.160471 0.222090 -0.029418 -0.031406 -0.417366 -0.261896 0.108559 0.154972 0.168284 -0.004756 -0.052503 0.248889 0.112604 -0.172021 0.208395 0.001728 0.058429 0.437340 0.119657 -0.202897 -0.086213 0.091689 0.118330 0.344514 -0.241479 -0.152418 0.099131 -0.396730 0.163413 0.154680 0.201894 0.056670 0.076368 0.243327 0.467857 0.200695 -0.066908 0.266793 0.104012 0.439520 -0.304316 -0.030462 -0.380623 -0.594337 0.013477 0.182784 -0.164285 -0.005458 0.154454 -0.043508 0.043712 -0.314228 0.156526 -0.201826 -0.181821 0.422878 0.138199 0.294706 -0.059341 0.246469 -0.344598 0.122173 -0.147328 -0.109271 0.117198 0.041654 0.011082 0.097879 -0.136166 -0.454917 0.429541 0.086928 0.331339 0.156331 0.497192 0.416863 0.353079 0.083602 0.251185 -0.043759 0.267350 0.088973 0.266417 0.334202 -0.030015 -0.032193 -0.131028 -0.043729 0.274085 -0.017420 -0.226160 -0.252423 -0.226190 0.138282 0.032280 0.215529 -0.170829 -0.066082 0.109840 -0.101140 0.045161 -0.084297 0.260524 0.084364 0.253154 0.020864 -0.060231 0.054431 0.318664 0.353462 -0.418830 -0.468197 0.062759 -0.082636 0.270069 -0.453106 0.377076 -0.096490 0.435448 0.091863 0.124900 -0.394488 -0.477571 0.514874 -0.127487 -0.120116 -0.534479 0.186407 0.461285 -0.093546 0.222449 0.302253 -0.471441 -0.301800 -0.081321 -0.088753 -0.205343 0.212926 -0.512088 0.163195 0.020505 -0.330208 0.192818 0.041648 0.254471 -0.091314 0.156693 -0.246797 -0.202013 -0.216921 0.190439 0.299740 0.015792 -0.096593 -0.070578 0.314791 0.169302 -0.018248 0.006619 -0.010902 0.382949 0.342738 -0.307756 -0.161081 -0.063608 -0.140170 0.238737 0.017043 0.277754 -0.278015 -0.098572 -0.222524 0.182222 -0.115717 0.141833 0.126967 0.086422 0.138730 0.202982 0.424346 0.107428 0.018446 0.115692 -0.107354 0.308931 -0.544393 0.448978 0.088559 -0.339518 -0.101876 -0.033030 -0.338703 -0.089783 0.082495 -0.173253 0.283137 0.251291 -0.035657 0.282468 -0.107613 0.414769 0.280150 0.070294 -0.163233 -0.064905 -0.269909 0.145949 0.236879 0.066649 0.069678 -0.525180 -0.035538 -0.336944 -0.116766 0.068117 -0.289739 0.303429 0.055202 -0.146746 0.049942 0.424668 0.144374 0.466079 -0.064989 -0.294030 0.091904 -0.147754 0.374171 0.299060 -0.072610 0.040196 0.052528 -0.010709 -0.207472 0.197700 -0.277191 0.304217 0.310153 0.072006 0.044183 0.021803 -0.130473 -0.272789 0.079022 -0.395342 0.097507 -0.075561 0.025188 -0.242765 -0.287985 0.329761 -0.460438 -0.081362 0.144172 0.423662 -0.104705 0.049992 -0.209926 -0.035294 0.193370 0.247797 -0.059928 -0.346356 -0.199116 0.081681 0.060852 -0.147821 0.001867 -0.210097 -0.174719 0.142430 0.174209 0.130626 -0.151829 0.446096 -0.015860 0.053355 -0.030399 0.164603 -0.151537 0.013698 0.355904 -0.041059 -0.721321 0.110427 -0.245495 -0.124609 0.026373 0.500279 0.367074 -0.188636 0.093388 -0.016590 -0.248076 0.058445 0.127897 0.477982 0.156347 0.477388 0.047239 0.068754 -0.307137 0.023426 -0.299805 0.097806 -0.196171 -0.236034 -0.360874 -0.578578
winner.fitness = 0.054921
