gen: 0 best: 0.028825
gen: 500 best: 0.043928
gen: 1000 best: 0.044895
gen: 1500 best: 0.045045
gen: 2000 best: 0.045176
gen: 2500 best: 0.045256
gen: 3000 best: 0.045412
gen: 3500 best: 0.045455
gen: 4000 best: 0.045476
gen: 4500 best: 0.045677
gen: 5000 best: 0.045753
gen: 5500 best: 0.045810
gen: 6000 best: 0.045835
gen: 6500 best: 0.045845
gen: 7000 best: 0.045845
gen: 7500 best: 0.045870
gen: 8000 best: 0.046069
gen: 8500 best: 0.046074
gen: 9000 best: 0.046153
gen: 9500 best: 0.046241
gen: 10000 best: 0.046385
gen: 10500 best: 0.046434
gen: 11000 best: 0.046434
gen: 11500 best: 0.046434
gen: 12000 best: 0.046434
gen: 12500 best: 0.046434
gen: 13000 best: 0.046454
gen: 13500 best: 0.046793
gen: 14000 best: 0.046863
gen: 14500 best: 0.046988
gen: 15000 best: 0.047090
gen: 15500 best: 0.047266
gen: 16000 best: 0.047348
gen: 16500 best: 0.047515
gen: 17000 best: 0.047519
gen: 17500 best: 0.047730
gen: 18000 best: 0.047853
gen: 18500 best: 0.047894
gen: 19000 best: 0.047894
gen: 19500 best: 0.047947
gen: 20000 best: 0.048435
gen: 20500 best: 0.048435
gen: 21000 best: 0.048435
gen: 21500 best: 0.048435
gen: 22000 best: 0.048435
gen: 22500 best: 0.048435
gen: 23000 best: 0.048473
gen: 23500 best: 0.048490
gen: 24000 best: 0.048490
gen: 24500 best: 0.048490
gen: 25000 best: 0.048490
gen: 25500 best: 0.048490
gen: 26000 best: 0.048490
gen: 26500 best: 0.048490
gen: 27000 best: 0.048490
gen: 27500 best: 0.049003
gen: 28000 best: 0.049139
gen: 28500 best: 0.049139
gen: 29000 best: 0.049139
gen: 29500 best: 0.049139
gen: 30000 best: 0.049139
gen: 30500 best: 0.049139
gen: 31000 best: 0.049243
gen: 31500 best: 0.049393
gen: 32000 best: 0.049473
gen: 32500 best: 0.049513
gen: 33000 best: 0.049590
gen: 33500 best: 0.049660
gen: 34000 best: 0.049879
gen: 34500 best: 0.049905
gen: 35000 best: 0.049923
gen: 35500 best: 0.050030
gen: 36000 best: 0.050030
gen: 36500 best: 0.050033
gen: 37000 best: 0.050033
gen: 37500 best: 0.050117
gen: 38000 best: 0.054255
gen: 38500 best: 0.055134
gen: 39000 best: 0.055201
gen: 39500 best: 0.055310
gen: 40000 best: 0.055585
gen: 40500 best: 0.055617
gen: 41000 best: 0.055959
gen: 41500 best: 0.056693
gen: 42000 best: 0.057401
gen: 42500 best: 0.057563
gen: 43000 best: 0.057771
gen: 43500 best: 0.057899
gen: 44000 best: 0.057935
gen: 44500 best: 0.057935
gen: 45000 best: 0.058018
gen: 45500 best: 0.058299
gen: 46000 best: 0.058772
gen: 46500 best: 0.058881
gen: 47000 best: 0.059878
gen: 47500 best: 0.060221
gen: 48000 best: 0.060603
gen: 48500 best: 0.060684
gen: 49000 best: 0.061071
gen: 49500 best: 0.061142
gen: 50000 best: 0.061521
gen: 50500 best: 0.061614
gen: 51000 best: 0.062149
gen: 51500 best: 0.068835
gen: 52000 best: 0.069667
gen: 52500 best: 0.070659
gen: 53000 best: 0.072539
gen: 53500 best: 0.072898
gen: 54000 best: 0.073533
gen: 54500 best: 0.073807
gen: 55000 best: 0.073963
gen: 55500 best: 0.074069
gen: 56000 best: 0.074214
gen: 56500 best: 0.074408
gen: 57000 best: 0.079308
gen: 57500 best: 0.079308
gen: 58000 best: 0.079725
gen: 58500 best: 0.079725
gen: 59000 best: 0.080094
gen: 59500 best: 0.080094
gen: 60000 best: 0.080094
gen: 60500 best: 0.080161
gen: 61000 best: 0.080202
gen: 61500 best: 0.080324
gen: 62000 best: 0.080449
gen: 62500 best: 0.080874
gen: 63000 best: 0.080967
gen: 63500 best: 0.081260
gen: 64000 best: 0.081269
gen: 64500 best: 0.081388
gen: 65000 best: 0.081628
gen: 65500 best: 0.081628
gen: 66000 best: 0.081653
gen: 66500 best: 0.081688
gen: 67000 best: 0.081710
gen: 67500 best: 0.081794
gen: 68000 best: 0.081842
gen: 68500 best: 0.081993
gen: 69000 best: 0.081993
gen: 69500 best: 0.082127
gen: 70000 best: 0.082241
