gen: 0 best: 0.101589
gen: 500 best: 0.109397
gen: 1000 best: 0.110176
gen: 1500 best: 0.110429
gen: 2000 best: 0.111058
gen: 2500 best: 0.111058
gen: 3000 best: 0.111126
gen: 3500 best: 0.111126
gen: 4000 best: 0.111181
gen: 4500 best: 0.111202
gen: 5000 best: 0.111241
gen: 5500 best: 0.111340
gen: 6000 best: 0.111587
gen: 6500 best: 0.111733
gen: 7000 best: 0.111733
gen: 7500 best: 0.111767
gen: 8000 best: 0.112158
gen: 8500 best: 0.112190
gen: 9000 best: 0.112282
gen: 9500 best: 0.115330
gen: 10000 best: 0.115330
gen: 10500 best: 0.121644
gen: 11000 best: 0.121667
gen: 11500 best: 0.121720
gen: 12000 best: 0.121893
gen: 12500 best: 0.121915
gen: 13000 best: 0.122013
gen: 13500 best: 0.122108
gen: 14000 best: 0.122230
gen: 14500 best: 0.122230
gen: 15000 best: 0.122230
gen: 15500 best: 0.122374
gen: 16000 best: 0.122374
gen: 16500 best: 0.122374
gen: 17000 best: 0.123202
gen: 17500 best: 0.123451
gen: 18000 best: 0.123561
gen: 18500 best: 0.123561
gen: 19000 best: 0.123590
gen: 19500 best: 0.123608
gen: 20000 best: 0.123627
gen: 20500 best: 0.123627
gen: 21000 best: 0.123627
gen: 21500 best: 0.123630
gen: 22000 best: 0.123630
gen: 22500 best: 0.123630
gen: 23000 best: 0.123630
gen: 23500 best: 0.123658
gen: 24000 best: 0.123658
gen: 24500 best: 0.123658
gen: 25000 best: 0.123658
gen: 25500 best: 0.123658
gen: 26000 best: 0.123723
gen: 26500 best: 0.123723
gen: 27000 best: 0.123723
gen: 27500 best: 0.127709
gen: 28000 best: 0.128438
gen: 28500 best: 0.128553
gen: 29000 best: 0.128613
gen: 29500 best: 0.128613
gen: 30000 best: 0.128674
gen: 30500 best: 0.128749
gen: 31000 best: 0.128810
gen: 31500 best: 0.128816
gen: 32000 best: 0.128932
gen: 32500 best: 0.128932
gen: 33000 best: 0.128932
gen: 33500 best: 0.128932
gen: 34000 best: 0.128982
gen: 34500 best: 0.128982
gen: 35000 best: 0.128982
gen: 35500 best: 0.129017
gen: 36000 best: 0.129019
gen: 36500 best: 0.129049
gen: 37000 best: 0.129049
gen: 37500 best: 0.129049
gen: 38000 best: 0.129127
gen: 38500 best: 0.129176
gen: 39000 best: 0.129176
gen: 39500 best: 0.129184
gen: 40000 best: 0.129184
gen: 40500 best: 0.129206
gen: 41000 best: 0.129206
gen: 41500 best: 0.129209
gen: 42000 best: 0.129222
gen: 42500 best: 0.129222
gen: 43000 best: 0.129239
gen: 43500 best: 0.129276
gen: 44000 best: 0.129276
gen: 44500 best: 0.129276
gen: 45000 best: 0.129276
gen: 45500 best: 0.129276
gen: 46000 best: 0.129276
gen: 46500 best: 0.129284
gen: 47000 best: 0.129284
gen: 47500 best: 0.129284
gen: 48000 best: 0.129284
gen: 48500 best: 0.129284
gen: 49000 best: 0.129284
gen: 49500 best: 0.129284
gen: 50000 best: 0.129284
gen: 50500 best: 0.129326
gen: 51000 best: 0.129326
gen: 51500 best: 0.129326
gen: 52000 best: 0.129326
gen: 52500 best: 0.129326
gen: 53000 best: 0.129326
gen: 53500 best: 0.129326
gen: 54000 best: 0.129326
gen: 54500 best: 0.129326
gen: 55000 best: 0.129326
gen: 55500 best: 0.129326
gen: 56000 best: 0.129326
gen: 56500 best: 0.129326
gen: 57000 best: 0.129326
gen: 57500 best: 0.129326
gen: 58000 best: 0.129326
gen: 58500 best: 0.129326
gen: 59000 best: 0.129326
gen: 59500 best: 0.129326
gen: 60000 best: 0.129326
gen: 60500 best: 0.129334
gen: 61000 best: 0.129334
gen: 61500 best: 0.129334
gen: 62000 best: 0.129334
gen: 62500 best: 0.129334
gen: 63000 best: 0.129334
gen: 63500 best: 0.129334
gen: 64000 best: 0.130207
gen: 64500 best: 0.130207
gen: 65000 best: 0.130216
gen: 65500 best: 0.130243
gen: 66000 best: 0.130264
gen: 66500 best: 0.130353
gen: 67000 best: 0.130513
gen: 67500 best: 0.130513
gen: 68000 best: 0.130513
gen: 68500 best: 0.130552
gen: 69000 best: 0.130552
gen: 69500 best: 0.130552
gen: 70000 best: 0.130552
