gen: 0 best: 0.141025
gen: 500 best: 0.152181
gen: 1000 best: 0.152333
gen: 1500 best: 0.152333
gen: 2000 best: 0.152333
gen: 2500 best: 0.152384
gen: 3000 best: 0.152477
gen: 3500 best: 0.152477
gen: 4000 best: 0.152477
gen: 4500 best: 0.152477
gen: 5000 best: 0.152534
gen: 5500 best: 0.152534
gen: 6000 best: 0.152534
gen: 6500 best: 0.152534
gen: 7000 best: 0.152534
gen: 7500 best: 0.152534
gen: 8000 best: 0.152562
gen: 8500 best: 0.152726
gen: 9000 best: 0.152736
gen: 9500 best: 0.152781
gen: 10000 best: 0.152781
gen: 10500 best: 0.152781
gen: 11000 best: 0.152793
gen: 11500 best: 0.152807
gen: 12000 best: 0.152807
gen: 12500 best: 0.152812
gen: 13000 best: 0.152867
gen: 13500 best: 0.152867
gen: 14000 best: 0.152900
gen: 14500 best: 0.152902
gen: 15000 best: 0.152932
gen: 15500 best: 0.152948
gen: 16000 best: 0.152951
gen: 16500 best: 0.152951
gen: 17000 best: 0.152951
gen: 17500 best: 0.152951
gen: 18000 best: 0.153053
gen: 18500 best: 0.153053
gen: 19000 best: 0.153053
gen: 19500 best: 0.153053
gen: 20000 best: 0.153053
gen: 20500 best: 0.153053
gen: 21000 best: 0.153057
gen: 21500 best: 0.153064
gen: 22000 best: 0.153065
gen: 22500 best: 0.153065
gen: 23000 best: 0.153065
gen: 23500 best: 0.153065
gen: 24000 best: 0.153065
gen: 24500 best: 0.153153
gen: 25000 best: 0.153153
gen: 25500 best: 0.153153
gen: 26000 best: 0.153166
gen: 26500 best: 0.153166
gen: 27000 best: 0.153166
gen: 27500 best: 0.153166
gen: 28000 best: 0.153166
gen: 28500 best: 0.153166
gen: 29000 best: 0.153166
gen: 29500 best: 0.153166
gen: 30000 best: 0.153172
gen: 30500 best: 0.153172
gen: 31000 best: 0.153172
gen: 31500 best: 0.153172
gen: 32000 best: 0.153174
gen: 32500 best: 0.153229
gen: 33000 best: 0.153229
gen: 33500 best: 0.153229
gen: 34000 best: 0.153229
gen: 34500 best: 0.153229
gen: 35000 best: 0.153229
gen: 35500 best: 0.153229
gen: 36000 best: 0.153238
gen: 36500 best: 0.153262
gen: 37000 best: 0.153301
gen: 37500 best: 0.153301
gen: 38000 best: 0.153301
gen: 38500 best: 0.153350
gen: 39000 best: 0.153350
gen: 39500 best: 0.153350
gen: 40000 best: 0.153350
gen: 40500 best: 0.153383
gen: 41000 best: 0.153383
gen: 41500 best: 0.153383
gen: 42000 best: 0.153383
gen: 42500 best: 0.153383
gen: 43000 best: 0.153383
gen: 43500 best: 0.153383
gen: 44000 best: 0.153383
gen: 44500 best: 0.153383
gen: 45000 best: 0.153383
gen: 45500 best: 0.153383
gen: 46000 best: 0.153383
gen: 46500 best: 0.153383
gen: 47000 best: 0.153399
gen: 47500 best: 0.153399
gen: 48000 best: 0.153399
gen: 48500 best: 0.153399
gen: 49000 best: 0.153399
gen: 49500 best: 0.153401
gen: 50000 best: 0.153437
gen: 50500 best: 0.153437
gen: 51000 best: 0.153550
gen: 51500 best: 0.153550
gen: 52000 best: 0.153550
gen: 52500 best: 0.153561
gen: 53000 best: 0.153576
gen: 53500 best: 0.153586
gen: 54000 best: 0.153636
gen: 54500 best: 0.153678
gen: 55000 best: 0.153678
gen: 55500 best: 0.153792
gen: 56000 best: 0.153792
gen: 56500 best: 0.153924
gen: 57000 best: 0.153979
gen: 57500 best: 0.154047
gen: 58000 best: 0.154123
gen: 58500 best: 0.154243
gen: 59000 best: 0.154294
gen: 59500 best: 0.154421
gen: 60000 best: 0.154467
gen: 60500 best: 0.154508
gen: 61000 best: 0.154576
gen: 61500 best: 0.154647
gen: 62000 best: 0.154723
gen: 62500 best: 0.154902
gen: 63000 best: 0.155029
gen: 63500 best: 0.155096
gen: 64000 best: 0.155130
gen: 64500 best: 0.155130
gen: 65000 best: 0.155130
gen: 65500 best: 0.155148
gen: 66000 best: 0.155159
gen: 66500 best: 0.155159
gen: 67000 best: 0.155159
gen: 67500 best: 0.155159
gen: 68000 best: 0.155159
gen: 68500 best: 0.155188
gen: 69000 best: 0.155188
gen: 69500 best: 0.155218
gen: 70000 best: 0.155218
