gen: 0 best: 0.138892
gen: 500 best: 0.157688
gen: 1000 best: 0.158131
gen: 1500 best: 0.158305
gen: 2000 best: 0.158353
gen: 2500 best: 0.158495
gen: 3000 best: 0.158521
gen: 3500 best: 0.158640
gen: 4000 best: 0.158937
gen: 4500 best: 0.170482
gen: 5000 best: 0.170482
gen: 5500 best: 0.170482
gen: 6000 best: 0.170482
gen: 6500 best: 0.170482
gen: 7000 best: 0.170482
gen: 7500 best: 0.170482
gen: 8000 best: 0.170482
gen: 8500 best: 0.170482
gen: 9000 best: 0.170482
gen: 9500 best: 0.170482
gen: 10000 best: 0.170482
gen: 10500 best: 0.170482
gen: 11000 best: 0.170482
gen: 11500 best: 0.170482
gen: 12000 best: 0.170516
gen: 12500 best: 0.170516
gen: 13000 best: 0.170545
gen: 13500 best: 0.170545
gen: 14000 best: 0.170616
gen: 14500 best: 0.170731
gen: 15000 best: 0.170731
gen: 15500 best: 0.170905
gen: 16000 best: 0.170982
gen: 16500 best: 0.171022
gen: 17000 best: 0.171161
gen: 17500 best: 0.171161
gen: 18000 best: 0.171256
gen: 18500 best: 0.171442
gen: 19000 best: 0.171442
gen: 19500 best: 0.171605
gen: 20000 best: 0.171865
gen: 20500 best: 0.171865
gen: 21000 best: 0.171865
gen: 21500 best: 0.171865
gen: 22000 best: 0.171971
gen: 22500 best: 0.171971
gen: 23000 best: 0.171971
gen: 23500 best: 0.171971
gen: 24000 best: 0.172018
gen: 24500 best: 0.172183
gen: 25000 best: 0.172183
gen: 25500 best: 0.172282
gen: 26000 best: 0.172282
gen: 26500 best: 0.172282
gen: 27000 best: 0.172282
gen: 27500 best: 0.172426
gen: 28000 best: 0.172426
gen: 28500 best: 0.172426
gen: 29000 best: 0.172506
gen: 29500 best: 0.172506
gen: 30000 best: 0.172506
gen: 30500 best: 0.172629
gen: 31000 best: 0.172774
gen: 31500 best: 0.172774
gen: 32000 best: 0.172774
gen: 32500 best: 0.172774
gen: 33000 best: 0.172774
gen: 33500 best: 0.172774
gen: 34000 best: 0.172925
gen: 34500 best: 0.173213
gen: 35000 best: 0.173331
gen: 35500 best: 0.173408
gen: 36000 best: 0.173408
gen: 36500 best: 0.173408
gen: 37000 best: 0.173408
gen: 37500 best: 0.173408
gen: 38000 best: 0.173408
gen: 38500 best: 0.173491
gen: 39000 best: 0.173491
gen: 39500 best: 0.173673
gen: 40000 best: 0.173961
gen: 40500 best: 0.173961
gen: 41000 best: 0.173961
gen: 41500 best: 0.173961
gen: 42000 best: 0.173961
gen: 42500 best: 0.173961
gen: 43000 best: 0.173991
gen: 43500 best: 0.173991
gen: 44000 best: 0.173991
gen: 44500 best: 0.173991
gen: 45000 best: 0.173991
gen: 45500 best: 0.174109
gen: 46000 best: 0.188567
gen: 46500 best: 0.202403
gen: 47000 best: 0.218818
gen: 47500 best: 0.226810
gen: 48000 best: 0.234580
gen: 48500 best: 0.259968
gen: 49000 best: 0.260028
gen: 49500 best: 0.260028
gen: 50000 best: 0.260028
gen: 50500 best: 0.260093
gen: 51000 best: 0.260180
gen: 51500 best: 0.260458
gen: 52000 best: 0.260630
gen: 52500 best: 0.260767
gen: 53000 best: 0.260767
gen: 53500 best: 0.260879
gen: 54000 best: 0.261052
gen: 54500 best: 0.261052
gen: 55000 best: 0.261052
gen: 55500 best: 0.261062
gen: 56000 best: 0.261335
gen: 56500 best: 0.261580
gen: 57000 best: 0.261923
gen: 57500 best: 0.262171
gen: 58000 best: 0.262171
gen: 58500 best: 0.262273
gen: 59000 best: 0.262273
gen: 59500 best: 0.262363
gen: 60000 best: 0.262485
gen: 60500 best: 0.262705
gen: 61000 best: 0.262705
gen: 61500 best: 0.262820
gen: 62000 best: 0.262839
gen: 62500 best: 0.262839
gen: 63000 best: 0.263074
gen: 63500 best: 0.263074
gen: 64000 best: 0.263074
gen: 64500 best: 0.263074
gen: 65000 best: 0.263074
gen: 65500 best: 0.263219
gen: 66000 best: 0.263219
gen: 66500 best: 0.263219
gen: 67000 best: 0.263219
gen: 67500 best: 0.263219
gen: 68000 best: 0.263219
gen: 68500 best: 0.263219
gen: 69000 best: 0.263235
gen: 69500 best: 0.263268
gen: 70000 best: 0.263321
