9
100 100	900 100
900 100 900 600
900 600 100 600
100 600 100 100
250 350 750 350
750 100 750 250
750 350 750 500
500 600 500 450
250 500 250 200
500 100 500 350
11
500 250
700 250
850 350
750 550
500 425
300 425
250 550
150 450
150 250
250 150
350 250
2
500 250 1 0
500 200 1 0
