8
100 100	700 100
700 100 700 700
700 700 100 700
100 700 100 100
250 250 550 250
250 250 250 550
550 250 550 550
250 550 550 550
400 250 400 100
5
175 175
175 625
625 625
625 175
400 175
2
400 200 -1 0
400 150 -1 0
