gen: 0 best: 0.093188
gen: 500 best: 0.127552
gen: 1000 best: 0.154728
gen: 1500 best: 0.211651
gen: 2000 best: 0.219699
gen: 2500 best: 0.231094
gen: 3000 best: 0.282899
gen: 3500 best: 0.284063
gen: 4000 best: 0.285529
gen: 4500 best: 0.286825
gen: 5000 best: 0.287042
gen: 5500 best: 0.287082
gen: 6000 best: 0.287421
gen: 6500 best: 0.287816
gen: 7000 best: 0.288348
gen: 7500 best: 0.288348
gen: 8000 best: 0.288348
gen: 8500 best: 0.288348
gen: 9000 best: 0.288361
gen: 9500 best: 0.288783
gen: 10000 best: 0.288834
gen: 10500 best: 0.289069
gen: 11000 best: 0.289589
gen: 11500 best: 0.290211
gen: 12000 best: 0.290211
gen: 12500 best: 0.290211
gen: 13000 best: 0.290509
gen: 13500 best: 0.290509
gen: 14000 best: 0.290608
gen: 14500 best: 0.290907
gen: 15000 best: 0.291224
gen: 15500 best: 0.291224
gen: 16000 best: 0.291224
gen: 16500 best: 0.291286
gen: 17000 best: 0.291416
gen: 17500 best: 0.291717
gen: 18000 best: 0.292053
gen: 18500 best: 0.292053
gen: 19000 best: 0.292053
gen: 19500 best: 0.292053
gen: 20000 best: 0.292332
gen: 20500 best: 0.292332
gen: 21000 best: 0.292332
gen: 21500 best: 0.292332
gen: 22000 best: 0.292428
gen: 22500 best: 0.292428
gen: 23000 best: 0.292821
gen: 23500 best: 0.292821
gen: 24000 best: 0.292821
gen: 24500 best: 0.293395
gen: 25000 best: 0.293395
gen: 25500 best: 0.293395
gen: 26000 best: 0.293453
gen: 26500 best: 0.293706
gen: 27000 best: 0.293815
gen: 27500 best: 0.293815
gen: 28000 best: 0.294513
gen: 28500 best: 0.294513
gen: 29000 best: 0.294513
gen: 29500 best: 0.294513
gen: 30000 best: 0.294513
gen: 30500 best: 0.295402
gen: 31000 best: 0.399196
gen: 31500 best: 0.400566
gen: 32000 best: 0.400830
gen: 32500 best: 0.401296
gen: 33000 best: 0.401296
gen: 33500 best: 0.401296
gen: 34000 best: 0.401296
gen: 34500 best: 0.401302
gen: 35000 best: 0.401302
gen: 35500 best: 0.401302
gen: 36000 best: 0.401302
gen: 36500 best: 0.401406
gen: 37000 best: 0.401575
gen: 37500 best: 0.401575
gen: 38000 best: 0.401575
gen: 38500 best: 0.402340
gen: 39000 best: 0.402340
gen: 39500 best: 0.402340
gen: 40000 best: 0.402340
gen: 40500 best: 0.402340
gen: 41000 best: 0.402340
gen: 41500 best: 0.402340
gen: 42000 best: 0.402340
gen: 42500 best: 0.402340
gen: 43000 best: 0.402368
gen: 43500 best: 0.402368
gen: 44000 best: 0.402368
gen: 44500 best: 0.402368
gen: 45000 best: 0.402368
gen: 45500 best: 0.402368
gen: 46000 best: 0.402368
gen: 46500 best: 0.402368
gen: 47000 best: 0.402393
gen: 47500 best: 0.402393
gen: 48000 best: 0.402571
gen: 48500 best: 0.402571
gen: 49000 best: 0.402571
gen: 49500 best: 0.402571
gen: 50000 best: 0.402715
gen: 50500 best: 0.402786
gen: 51000 best: 0.402786
gen: 51500 best: 0.402786
gen: 52000 best: 0.402970
gen: 52500 best: 0.402970
gen: 53000 best: 0.402970
gen: 53500 best: 0.403191
gen: 54000 best: 0.403250
gen: 54500 best: 0.403799
gen: 55000 best: 0.403799
gen: 55500 best: 0.403799
gen: 56000 best: 0.403799
gen: 56500 best: 0.403860
gen: 57000 best: 0.416788
gen: 57500 best: 0.416788
gen: 58000 best: 0.416788
gen: 58500 best: 0.416788
gen: 59000 best: 0.416917
gen: 59500 best: 0.416917
gen: 60000 best: 0.417676
gen: 60500 best: 0.417676
gen: 61000 best: 0.417676
gen: 61500 best: 0.417959
gen: 62000 best: 0.417959
gen: 62500 best: 0.417959
gen: 63000 best: 0.418453
gen: 63500 best: 0.418453
gen: 64000 best: 0.418453
gen: 64500 best: 0.418530
gen: 65000 best: 0.418530
gen: 65500 best: 0.419092
gen: 66000 best: 0.419092
gen: 66500 best: 0.419092
gen: 67000 best: 0.419092
gen: 67500 best: 0.419227
gen: 68000 best: 0.419227
gen: 68500 best: 0.419227
gen: 69000 best: 0.419227
gen: 69500 best: 0.419227
gen: 70000 best: 0.419791
