gen: 0 best: 0.136102
gen: 500 best: 0.140911
gen: 1000 best: 0.144845
gen: 1500 best: 0.145218
gen: 2000 best: 0.145228
gen: 2500 best: 0.145231
gen: 3000 best: 0.145232
gen: 3500 best: 0.145236
gen: 4000 best: 0.145237
gen: 4500 best: 0.145238
gen: 5000 best: 0.145239
gen: 5500 best: 0.145239
gen: 6000 best: 0.145240
gen: 6500 best: 0.145241
gen: 7000 best: 0.145242
gen: 7500 best: 0.145242
gen: 8000 best: 0.145242
gen: 8500 best: 0.145243
gen: 9000 best: 0.145243
gen: 9500 best: 0.145245
gen: 10000 best: 0.145246
gen: 10500 best: 0.145247
gen: 11000 best: 0.145247
gen: 11500 best: 0.145248
gen: 12000 best: 0.145249
gen: 12500 best: 0.145249
gen: 13000 best: 0.145249
gen: 13500 best: 0.145249
gen: 14000 best: 0.145249
gen: 14500 best: 0.145252
gen: 15000 best: 0.145253
gen: 15500 best: 0.145255
gen: 16000 best: 0.145255
gen: 16500 best: 0.145258
gen: 17000 best: 0.145258
gen: 17500 best: 0.145260
gen: 18000 best: 0.145260
gen: 18500 best: 0.145261
gen: 19000 best: 0.145261
gen: 19500 best: 0.145261
gen: 20000 best: 0.145261
gen: 20500 best: 0.145261
gen: 21000 best: 0.145264
gen: 21500 best: 0.145266
gen: 22000 best: 0.145266
gen: 22500 best: 0.145267
gen: 23000 best: 0.145269
gen: 23500 best: 0.145270
gen: 24000 best: 0.145270
gen: 24500 best: 0.145272
gen: 25000 best: 0.145272
gen: 25500 best: 0.145272
gen: 26000 best: 0.145275
gen: 26500 best: 0.145275
gen: 27000 best: 0.145275
gen: 27500 best: 0.145276
gen: 28000 best: 0.145276
gen: 28500 best: 0.145278
gen: 29000 best: 0.145284
gen: 29500 best: 0.145285
gen: 30000 best: 0.145297
gen: 30500 best: 0.145299
gen: 31000 best: 0.145299
gen: 31500 best: 0.145300
gen: 32000 best: 0.145300
gen: 32500 best: 0.145300
gen: 33000 best: 0.145349
gen: 33500 best: 0.145420
gen: 34000 best: 0.145421
gen: 34500 best: 0.145422
gen: 35000 best: 0.145422
gen: 35500 best: 0.145422
gen: 36000 best: 0.145422
gen: 36500 best: 0.145424
gen: 37000 best: 0.145424
gen: 37500 best: 0.145425
gen: 38000 best: 0.145429
gen: 38500 best: 0.145431
gen: 39000 best: 0.145431
gen: 39500 best: 0.145431
gen: 40000 best: 0.145431
gen: 40500 best: 0.145434
gen: 41000 best: 0.145434
gen: 41500 best: 0.145439
gen: 42000 best: 0.145441
gen: 42500 best: 0.145441
gen: 43000 best: 0.145442
gen: 43500 best: 0.145444
gen: 44000 best: 0.145445
gen: 44500 best: 0.145445
gen: 45000 best: 0.145445
gen: 45500 best: 0.145445
gen: 46000 best: 0.145447
gen: 46500 best: 0.145452
gen: 47000 best: 0.145453
gen: 47500 best: 0.145454
gen: 48000 best: 0.145454
gen: 48500 best: 0.145456
gen: 49000 best: 0.145456
gen: 49500 best: 0.145457
gen: 50000 best: 0.145459
gen: 50500 best: 0.145459
gen: 51000 best: 0.145459
gen: 51500 best: 0.145459
gen: 52000 best: 0.145460
gen: 52500 best: 0.145460
gen: 53000 best: 0.145460
gen: 53500 best: 0.145460
gen: 54000 best: 0.145460
gen: 54500 best: 0.145460
gen: 55000 best: 0.145460
gen: 55500 best: 0.145461
gen: 56000 best: 0.145461
gen: 56500 best: 0.145461
gen: 57000 best: 0.145461
gen: 57500 best: 0.145461
gen: 58000 best: 0.145462
gen: 58500 best: 0.145462
gen: 59000 best: 0.145462
gen: 59500 best: 0.145462
gen: 60000 best: 0.145462
gen: 60500 best: 0.145464
gen: 61000 best: 0.145464
gen: 61500 best: 0.145464
gen: 62000 best: 0.145464
gen: 62500 best: 0.145464
gen: 63000 best: 0.145465
gen: 63500 best: 0.145466
gen: 64000 best: 0.145466
gen: 64500 best: 0.145466
gen: 65000 best: 0.145467
gen: 65500 best: 0.145467
gen: 66000 best: 0.145470
gen: 66500 best: 0.145472
gen: 67000 best: 0.145472
gen: 67500 best: 0.145472
gen: 68000 best: 0.145474
gen: 68500 best: 0.145478
gen: 69000 best: 0.145478
gen: 69500 best: 0.145480
gen: 70000 best: 0.145484
