gen: 0 best: 0.095734
gen: 500 best: 0.100740
gen: 1000 best: 0.101509
gen: 1500 best: 0.102094
gen: 2000 best: 0.102537
gen: 2500 best: 0.104881
gen: 3000 best: 0.105418
gen: 3500 best: 0.106588
gen: 4000 best: 0.107455
gen: 4500 best: 0.107616
gen: 5000 best: 0.107616
gen: 5500 best: 0.107630
gen: 6000 best: 0.107787
gen: 6500 best: 0.107998
gen: 7000 best: 0.108003
gen: 7500 best: 0.108119
gen: 8000 best: 0.108164
gen: 8500 best: 0.108175
gen: 9000 best: 0.108191
gen: 9500 best: 0.108192
gen: 10000 best: 0.108192
gen: 10500 best: 0.108192
gen: 11000 best: 0.108192
gen: 11500 best: 0.108192
gen: 12000 best: 0.108192
gen: 12500 best: 0.108193
gen: 13000 best: 0.108193
gen: 13500 best: 0.108193
gen: 14000 best: 0.108193
gen: 14500 best: 0.108193
gen: 15000 best: 0.108194
gen: 15500 best: 0.108194
gen: 16000 best: 0.108237
gen: 16500 best: 0.108249
gen: 17000 best: 0.108263
gen: 17500 best: 0.108284
gen: 18000 best: 0.108666
gen: 18500 best: 0.108670
gen: 19000 best: 0.108670
gen: 19500 best: 0.108672
gen: 20000 best: 0.108673
gen: 20500 best: 0.108709
gen: 21000 best: 0.109006
gen: 21500 best: 0.109029
gen: 22000 best: 0.109053
gen: 22500 best: 0.109055
gen: 23000 best: 0.109098
gen: 23500 best: 0.109100
gen: 24000 best: 0.109103
gen: 24500 best: 0.109103
gen: 25000 best: 0.109103
gen: 25500 best: 0.109170
gen: 26000 best: 0.109486
gen: 26500 best: 0.109492
gen: 27000 best: 0.109497
gen: 27500 best: 0.109498
gen: 28000 best: 0.109500
gen: 28500 best: 0.109500
gen: 29000 best: 0.109500
gen: 29500 best: 0.109503
gen: 30000 best: 0.109764
gen: 30500 best: 0.109770
gen: 31000 best: 0.109775
gen: 31500 best: 0.109782
gen: 32000 best: 0.109783
gen: 32500 best: 0.109787
gen: 33000 best: 0.109787
gen: 33500 best: 0.109788
gen: 34000 best: 0.109790
gen: 34500 best: 0.109791
gen: 35000 best: 0.109799
gen: 35500 best: 0.109799
gen: 36000 best: 0.109803
gen: 36500 best: 0.109807
gen: 37000 best: 0.133480
gen: 37500 best: 0.133552
gen: 38000 best: 0.133722
gen: 38500 best: 0.133807
gen: 39000 best: 0.134045
gen: 39500 best: 0.134276
gen: 40000 best: 0.134561
gen: 40500 best: 0.134587
gen: 41000 best: 0.134605
gen: 41500 best: 0.134617
gen: 42000 best: 0.134622
gen: 42500 best: 0.134626
gen: 43000 best: 0.134633
gen: 43500 best: 0.134651
gen: 44000 best: 0.134684
gen: 44500 best: 0.134973
gen: 45000 best: 0.135045
gen: 45500 best: 0.135222
gen: 46000 best: 0.135258
gen: 46500 best: 0.135296
gen: 47000 best: 0.135337
gen: 47500 best: 0.135376
gen: 48000 best: 0.135403
gen: 48500 best: 0.135421
gen: 49000 best: 0.135424
gen: 49500 best: 0.135427
gen: 50000 best: 0.135427
gen: 50500 best: 0.135427
gen: 51000 best: 0.135429
gen: 51500 best: 0.135434
gen: 52000 best: 0.135437
gen: 52500 best: 0.135455
gen: 53000 best: 0.135479
gen: 53500 best: 0.135502
gen: 54000 best: 0.135511
gen: 54500 best: 0.135724
gen: 55000 best: 0.135747
gen: 55500 best: 0.135758
gen: 56000 best: 0.135782
gen: 56500 best: 0.135837
gen: 57000 best: 0.136045
gen: 57500 best: 0.136058
gen: 58000 best: 0.136098
gen: 58500 best: 0.136127
gen: 59000 best: 0.136150
gen: 59500 best: 0.136158
gen: 60000 best: 0.136163
gen: 60500 best: 0.136166
gen: 61000 best: 0.136166
gen: 61500 best: 0.136166
gen: 62000 best: 0.136168
gen: 62500 best: 0.136168
gen: 63000 best: 0.136252
gen: 63500 best: 0.136257
gen: 64000 best: 0.136264
gen: 64500 best: 0.136265
gen: 65000 best: 0.136282
gen: 65500 best: 0.136306
gen: 66000 best: 0.136318
gen: 66500 best: 0.136352
gen: 67000 best: 0.136365
gen: 67500 best: 0.136371
gen: 68000 best: 0.136382
gen: 68500 best: 0.136388
gen: 69000 best: 0.136420
gen: 69500 best: 0.136432
gen: 70000 best: 0.136450
