# architectures
phase1.architecture.length = 4
phase1.architecture = 12 15 10 2
phase1.architecture.hidden.activation = sigmoid
phase1.architecture.output.activation = tanh
phase2.architecture.length = 4
phase2.architecture = 22 20 12 2
phase2.architecture.hidden.activation = sigmoid
phase2.architecture.output.activation = tanh
wall.sensors = 10
car.sensors = 10

# other params
mutation.deviation = 0.500000
mutation.probability = 0.010000
alpha = 0.500000
beta = 0.300000

# static params
k.tournament = 3
population.size = 50
population.mean = 0.000000
population.deviation = 1.000000
mutation.mean = 0.000000
phase1.generations = 70000
phase2.generations = 70000
phase3.generations = 70000
number.of.steps = 500

# tracks params
train.number.of.tracks = 6
train.track.files = ../tracks/left1.txt ../tracks/right1.txt ../tracks/left2.txt ../tracks/right2.txt ../tracks/left4.txt ../tracks/right3.txt
train.number.of.cars = 2
train.car.unit = 50

test.number.of.tracks = 2
test.track.files = ../tracks/left4.txt ../tracks/right3.txt
test.number.of.cars = 2
test.car.unit = 50

# winner
winner.weights = 1.008712 -0.005990 -0.254513 -0.048770 0.192018 0.048274 -0.072467 -0.055865 0.025261 0.820254 0.357681 0.077100 -0.148760 0.099251 -0.046965 0.021181 -0.113194 0.358581 -0.045105 -0.378686 -0.173818 0.379258 -0.164253 0.197269 0.111490 -0.064002 0.148988 0.533518 -0.069367 -0.100641 -0.093278 -0.257263 -0.282547 0.186422 -0.048114 0.268365 -0.061482 0.245658 0.278410 -0.171946 0.107685 -0.091577 -0.207023 -0.124983 -0.143712 0.289663 0.400009 -0.418565 -0.281705 -0.093054 0.265773 -0.041517 -0.232702 -0.306410 -0.197689 -0.280698 0.488363 -0.327362 -0.001920 -0.416038 0.260051 -0.176565 -0.582743 -0.610425 -0.407936 -0.201544 -0.221787 0.358740 0.699404 -0.395356 -0.184149 0.381198 -0.067346 -0.403568 -0.252288 -0.026705 -0.207584 -0.029946 -0.088529 0.206584 -0.035609 0.318057 -0.501825 -0.173293 -0.116849 -0.014631 0.604708 -0.352582 -0.057173 -0.043456 -0.057820 -0.021404 -0.146720 0.220725 -0.111567 -0.035847 -0.099406 0.303908 0.037208 -0.192419 -0.464722 -0.155067 -0.500949 -0.377704 -0.423659 0.117647 0.143340 0.060347 0.142469 -0.280266 0.082992 -0.140295 0.018575 0.249724 0.163212 -0.121112 0.075048 -0.719667 -0.323949 0.138038 0.092660 0.356384 -0.589556 0.014450 -0.186370 0.231078 -0.326244 -0.292185 0.212908 -0.432838 -0.151485 -0.035484 -0.111246 -0.487453 -0.166002 0.175134 -0.159303 -0.398708 -0.193116 -0.220249 0.094650 0.146647 -0.087065 -0.163433 0.347303 0.150144 0.320803 0.238729 -0.112702 0.304260 0.136437 0.047688 -0.513398 -0.163444 0.237839 -0.382025 -0.166381 -0.289988 -0.012988 -0.314353 -0.350809 -0.106688 0.419126 0.141380 -0.174055 0.483025 0.055320 0.351793 0.113164 -0.345414 0.096273 0.237615 -0.546230 -0.334886 0.293253 0.297435 -0.092885 -0.071139 -0.376821 -0.112748 -0.020976 -0.272459 0.087799 -0.013859 0.476265 0.113075 -0.780749 -0.291333 -0.261961 -0.120145 0.217454 0.167553 0.028768 0.265251 0.730039 0.630240 0.358853 0.368188 -0.119430 -0.346333 -0.023338 0.765863 -0.069298 -0.201466 -0.304319 0.347745 0.197032 -0.605615 0.070499 0.450954 -0.176911 0.196834 0.045259 -0.288675 0.659039 0.058733 0.702532 -0.171528 -0.105517 -0.111223 0.218227 0.715181 0.263955 0.267700 -0.326983 -0.000082 0.101141 0.541874 -0.049466 0.030002 -0.182312 0.327085 -0.123953 0.229386 0.031638 -0.042657 -0.034645 0.025053 -0.517208 0.271600 -0.477595 -0.429060 0.087816 0.176902 0.320154 0.037044 -0.238345 -0.108625 0.110567 -0.288755 -0.031252 -0.339674 -0.335736 -0.111368 -0.016874 0.048299 -0.240320 -0.186686 0.343484 0.096774 0.020397 -0.495329 -0.130401 0.185825 -0.428353 0.072099 -0.306873 0.277057 -0.099560 0.271182 -0.215658 0.217727 0.036827 -0.066304 -0.085417 -0.109041 0.316678 -0.559311 -0.081549 0.085517 0.025575 0.243313 0.673261 -0.617095 0.186360 0.215156 -0.020146 -0.305797 -0.164748 -0.096788 0.108767 0.052122 -0.326688 0.009134 0.189719 0.206592 -0.383008 -0.213579 -0.406627 -0.519005 -0.481998 0.019120 -0.002643 -0.384824 0.016191 -0.180767 -0.439760 -0.309530 -0.310914 -0.210578 -0.108238 -0.009411 0.282881 -0.123363 0.482487 -0.037363 -0.023695 0.137404 -0.203541 -0.328377 -0.529946 -0.117217 -0.392880 0.275274 -0.325434 0.276719 0.049723 -0.071214 0.558425 -0.109723 -0.138365 -0.267352 0.141594 -0.034650 -0.079644 -0.058198 0.504019 -0.003430 0.426324 0.110499 -0.080841 -0.291448 -0.174724 0.227654 -0.257010 0.260860 0.165181 0.169800 0.063664 0.384965 -0.100305 0.125424 0.158942 -0.006427 -0.215277 -0.140504 -0.105899 -0.029767 0.331086 0.290538 -0.316811 0.259231 -0.153301 0.128920 -0.077476 -0.036205 -0.175899 -0.084295 -0.385266 0.015126 0.069360 -0.311533 -0.284215 -0.014395 -0.030427 -0.012533 0.122115 -0.034578 -0.413059 0.301533 0.968426 -0.361077 -0.133280 0.008306 -0.286329 0.025445 -0.088778 0.437195 0.111633 -0.106310 0.528180 0.803125 -0.041724 -0.107012 -0.302001 -0.234526 -0.000259 -0.154799 0.347368 -0.262241 0.308157 -0.140979 0.286302 0.039088 -0.020810 -0.346626 0.143603 0.174011 -0.035708 0.185117 -0.011942 0.014256 -0.038992 -0.414680 0.319420 -0.020890 0.055306 0.204083 -0.131537 0.057128 -0.490113 -0.093999 0.048014 -0.087379 -0.239752 -0.077208 0.446628 0.161187 0.044674 0.080470 -0.637521 -0.056032 0.113617 -0.010867 -0.357685 -0.551435 0.604206 -0.202075 -0.067854 0.830045 -0.139493 -0.219630 -0.063217 -0.085208 0.279723 -0.134320 0.047219 0.384784 -0.118552 -0.070199 0.626628 0.167116 -0.014109 -0.113685 0.113974 -0.159449 0.097450 -0.232035 -0.048357 -0.433158 0.584058 -0.355287 0.088015 0.171426 -0.349270 -0.430058 0.125767 0.041372 -0.146760 0.070225 0.312498 0.087699 -0.331715 -0.086266 -0.125341 -0.370214 -0.141637 -0.066964 0.168903 0.132619 -0.233147 -0.406864 0.325751 -0.199036 0.024312 0.255842 -0.057488 -0.406611 0.079468 -0.254760 -0.254025 0.269813 -0.109085 0.195455 0.109169 0.105748 -0.021448 -0.026318 0.211193 0.036954 0.297821 -0.370902 0.111278 0.574453 0.247165 -0.214090 0.450063 0.645613 -0.844185 0.185520 0.356852 -0.045146 0.060334 0.005113 -0.096372 0.451579 -0.258615 0.685863 -0.055215 0.001537 0.306886 -0.141480 0.190598 0.198406 -0.199617 -0.378504 -0.188991 -0.359234 0.304935 0.340810 0.262291 0.292602 -0.415304 0.095390 0.467766 -0.058699 0.073489 -0.057747 0.207320 -0.120426 0.488712 0.348969 0.068992 0.431563 0.516578 0.428974 -0.122933 0.211536 -0.298944 -0.436436 -0.170676 -0.681123 -0.363395 0.716687 -0.061182 -0.614168 -0.110031 0.126236 -0.099755 0.346156 0.551108 -0.135983 0.465153 0.317458 -0.320991 -0.176198 0.043464 -0.104599 -0.136657 0.409586 -0.116336 -0.551889 0.299629 -0.302638 0.109191 -0.415501 0.444404 0.312760 -0.169159 0.193814 -0.278894 0.120052 0.387547 0.016350 0.071232 -0.014826 0.641835 -0.069429 0.281891 -0.210010 0.201270 -0.204244 -0.239386 0.683737 0.059833 0.467212 0.284383 0.007003 -0.483692 -0.691355 -0.141691 0.263000 0.374602 0.130298 -0.434826 0.183144 0.402634 -0.055804 -0.290094 -0.134998 0.393752 -0.350754 0.458275 -0.151327 0.341590 -0.143519 -0.412632 -0.251784 -0.372454 0.064992 0.378956 0.155409 0.250858 0.460557 0.311060 0.060322 -0.314389 -0.282583 -0.229955 -0.338737 0.469557 -0.157445 0.332007 -0.099381 0.148286 -0.436371 -0.311284 0.219135 0.178178 0.126558 -0.727398 0.436552 0.592833 0.178365 -0.311505 0.179927 0.415423 0.621396 -0.377988 0.127719 -0.011554 0.009884 0.369410 -0.329551 -0.002345 -0.254657 0.308586 0.125951 -0.473857 0.087736 0.003438 0.467281 0.234138 -0.171615 -0.791339 -0.248707 -0.075449 -0.366348 0.050854 0.077690 0.061747 0.059388 0.033589 0.050516 0.018925 -0.121909 -0.295929 0.091157 0.375111 0.243507 -0.204806 -0.138434 0.125449 0.207341 -0.257151 -0.021440 0.696213 0.261691 0.381270 -0.078725 -0.104669 0.141427 0.044472 -0.065301 0.023266 -0.000192 -0.565563 -0.095918 0.296899 -0.000854 0.458338 -0.416620 0.166792 -0.269118 0.610112 -0.064213 -0.086990 -0.275523 -0.460694 0.271258 -0.006958 -0.250234 -0.756971 -0.152779 0.234388 -0.390013 0.241195 -0.282409 0.233433 0.121184 0.101806 0.293389 -0.048529 0.511866 -0.076465 1.297379 0.087484 -0.294497 1.020597 -0.621028 0.462831 -1.301365 0.237084 -0.079935 -0.194393 -0.722175 0.364968 -0.348834
winner.fitness = 0.032744
