gen: 0 best: 0.138083
gen: 500 best: 0.145122
gen: 1000 best: 0.145403
gen: 1500 best: 0.145448
gen: 2000 best: 0.145459
gen: 2500 best: 0.145462
gen: 3000 best: 0.145480
gen: 3500 best: 0.145487
gen: 4000 best: 0.145487
gen: 4500 best: 0.145493
gen: 5000 best: 0.145494
gen: 5500 best: 0.145510
gen: 6000 best: 0.145522
gen: 6500 best: 0.145531
gen: 7000 best: 0.145538
gen: 7500 best: 0.145543
gen: 8000 best: 0.145548
gen: 8500 best: 0.145563
gen: 9000 best: 0.145563
gen: 9500 best: 0.145571
gen: 10000 best: 0.145580
gen: 10500 best: 0.145585
gen: 11000 best: 0.145593
gen: 11500 best: 0.145597
gen: 12000 best: 0.145604
gen: 12500 best: 0.145604
gen: 13000 best: 0.145610
gen: 13500 best: 0.145630
gen: 14000 best: 0.145640
gen: 14500 best: 0.145644
gen: 15000 best: 0.145647
gen: 15500 best: 0.145655
gen: 16000 best: 0.145666
gen: 16500 best: 0.145668
gen: 17000 best: 0.145674
gen: 17500 best: 0.145686
gen: 18000 best: 0.145692
gen: 18500 best: 0.145697
gen: 19000 best: 0.145700
gen: 19500 best: 0.145702
gen: 20000 best: 0.145709
gen: 20500 best: 0.145722
gen: 21000 best: 0.145726
gen: 21500 best: 0.145744
gen: 22000 best: 0.145751
gen: 22500 best: 0.145751
gen: 23000 best: 0.145759
gen: 23500 best: 0.145765
gen: 24000 best: 0.145768
gen: 24500 best: 0.145775
gen: 25000 best: 0.145777
gen: 25500 best: 0.145778
gen: 26000 best: 0.145784
gen: 26500 best: 0.145796
gen: 27000 best: 0.145814
gen: 27500 best: 0.145825
gen: 28000 best: 0.145829
gen: 28500 best: 0.145837
gen: 29000 best: 0.145844
gen: 29500 best: 0.145847
gen: 30000 best: 0.145847
gen: 30500 best: 0.145858
gen: 31000 best: 0.145860
gen: 31500 best: 0.145862
gen: 32000 best: 0.145866
gen: 32500 best: 0.145867
gen: 33000 best: 0.145868
gen: 33500 best: 0.145873
gen: 34000 best: 0.145876
gen: 34500 best: 0.145889
gen: 35000 best: 0.145901
gen: 35500 best: 0.145903
gen: 36000 best: 0.145909
gen: 36500 best: 0.145911
gen: 37000 best: 0.145921
gen: 37500 best: 0.145930
gen: 38000 best: 0.145933
gen: 38500 best: 0.145935
gen: 39000 best: 0.145944
gen: 39500 best: 0.145944
gen: 40000 best: 0.145955
gen: 40500 best: 0.145966
gen: 41000 best: 0.145976
gen: 41500 best: 0.145983
gen: 42000 best: 0.145986
gen: 42500 best: 0.145991
gen: 43000 best: 0.146000
gen: 43500 best: 0.146010
gen: 44000 best: 0.146025
gen: 44500 best: 0.146027
gen: 45000 best: 0.146029
gen: 45500 best: 0.146034
gen: 46000 best: 0.146037
gen: 46500 best: 0.146039
gen: 47000 best: 0.146039
gen: 47500 best: 0.146041
gen: 48000 best: 0.146041
gen: 48500 best: 0.146043
gen: 49000 best: 0.146043
gen: 49500 best: 0.146043
gen: 50000 best: 0.146057
gen: 50500 best: 0.146063
gen: 51000 best: 0.146072
gen: 51500 best: 0.146072
gen: 52000 best: 0.146073
gen: 52500 best: 0.146076
gen: 53000 best: 0.146076
gen: 53500 best: 0.146077
gen: 54000 best: 0.146079
gen: 54500 best: 0.146082
gen: 55000 best: 0.146083
gen: 55500 best: 0.146083
gen: 56000 best: 0.146091
gen: 56500 best: 0.146094
gen: 57000 best: 0.146107
gen: 57500 best: 0.146113
gen: 58000 best: 0.146124
gen: 58500 best: 0.146133
gen: 59000 best: 0.146139
gen: 59500 best: 0.146140
gen: 60000 best: 0.146147
gen: 60500 best: 0.146150
gen: 61000 best: 0.146155
gen: 61500 best: 0.146156
gen: 62000 best: 0.146164
gen: 62500 best: 0.146164
gen: 63000 best: 0.146181
gen: 63500 best: 0.146183
gen: 64000 best: 0.146185
gen: 64500 best: 0.146186
gen: 65000 best: 0.146190
gen: 65500 best: 0.146199
gen: 66000 best: 0.146214
gen: 66500 best: 0.146258
gen: 67000 best: 0.146266
gen: 67500 best: 0.146282
gen: 68000 best: 0.146286
gen: 68500 best: 0.146286
gen: 69000 best: 0.146289
gen: 69500 best: 0.146291
gen: 70000 best: 0.146293
