gen: 0 best: 0.092660
gen: 500 best: 0.092946
gen: 1000 best: 0.093059
gen: 1500 best: 0.093205
gen: 2000 best: 0.093468
gen: 2500 best: 0.094105
gen: 3000 best: 0.094612
gen: 3500 best: 0.095331
gen: 4000 best: 0.095607
gen: 4500 best: 0.096239
gen: 5000 best: 0.097088
gen: 5500 best: 0.097639
gen: 6000 best: 0.098295
gen: 6500 best: 0.099090
gen: 7000 best: 0.099833
gen: 7500 best: 0.100775
gen: 8000 best: 0.102676
gen: 8500 best: 0.104664
gen: 9000 best: 0.106810
gen: 9500 best: 0.110359
gen: 10000 best: 0.115454
gen: 10500 best: 0.121697
gen: 11000 best: 0.128249
gen: 11500 best: 0.132849
gen: 12000 best: 0.133744
gen: 12500 best: 0.133820
gen: 13000 best: 0.133851
gen: 13500 best: 0.133854
gen: 14000 best: 0.133905
gen: 14500 best: 0.133909
gen: 15000 best: 0.133982
gen: 15500 best: 0.134174
gen: 16000 best: 0.134232
gen: 16500 best: 0.134299
gen: 17000 best: 0.134305
gen: 17500 best: 0.134457
gen: 18000 best: 0.134507
gen: 18500 best: 0.134553
gen: 19000 best: 0.134815
gen: 19500 best: 0.134917
gen: 20000 best: 0.134983
gen: 20500 best: 0.135555
gen: 21000 best: 0.136148
gen: 21500 best: 0.136184
gen: 22000 best: 0.136260
gen: 22500 best: 0.136298
gen: 23000 best: 0.136892
gen: 23500 best: 0.137499
gen: 24000 best: 0.138008
gen: 24500 best: 0.138446
gen: 25000 best: 0.185514
gen: 25500 best: 0.190062
gen: 26000 best: 0.190138
gen: 26500 best: 0.190219
gen: 27000 best: 0.190225
gen: 27500 best: 0.190227
gen: 28000 best: 0.190230
gen: 28500 best: 0.190234
gen: 29000 best: 0.190253
gen: 29500 best: 0.190437
gen: 30000 best: 0.190506
gen: 30500 best: 0.190585
gen: 31000 best: 0.190767
gen: 31500 best: 0.190777
gen: 32000 best: 0.190777
gen: 32500 best: 0.190782
gen: 33000 best: 0.190782
gen: 33500 best: 0.190784
gen: 34000 best: 0.190785
gen: 34500 best: 0.190786
gen: 35000 best: 0.190810
gen: 35500 best: 0.190979
gen: 36000 best: 0.191211
gen: 36500 best: 0.191236
gen: 37000 best: 0.191262
gen: 37500 best: 0.191262
gen: 38000 best: 0.191264
gen: 38500 best: 0.191266
gen: 39000 best: 0.191266
gen: 39500 best: 0.191266
gen: 40000 best: 0.191281
gen: 40500 best: 0.191281
gen: 41000 best: 0.191290
gen: 41500 best: 0.191290
gen: 42000 best: 0.191299
gen: 42500 best: 0.191300
gen: 43000 best: 0.191304
gen: 43500 best: 0.191323
gen: 44000 best: 0.191323
gen: 44500 best: 0.191326
gen: 45000 best: 0.191326
gen: 45500 best: 0.191326
gen: 46000 best: 0.191326
gen: 46500 best: 0.191333
gen: 47000 best: 0.191333
gen: 47500 best: 0.191567
gen: 48000 best: 0.191640
gen: 48500 best: 0.191910
gen: 49000 best: 0.192069
gen: 49500 best: 0.192069
gen: 50000 best: 0.192074
gen: 50500 best: 0.192078
gen: 51000 best: 0.192079
gen: 51500 best: 0.192081
gen: 52000 best: 0.192082
gen: 52500 best: 0.192084
gen: 53000 best: 0.192084
gen: 53500 best: 0.192084
gen: 54000 best: 0.192090
gen: 54500 best: 0.192095
gen: 55000 best: 0.192160
gen: 55500 best: 0.192590
gen: 56000 best: 0.192690
gen: 56500 best: 0.192726
gen: 57000 best: 0.192749
gen: 57500 best: 0.192772
gen: 58000 best: 0.192785
gen: 58500 best: 0.218818
gen: 59000 best: 0.219308
gen: 59500 best: 0.219349
gen: 60000 best: 0.219623
gen: 60500 best: 0.219654
gen: 61000 best: 0.219671
gen: 61500 best: 0.219764
gen: 62000 best: 0.219811
gen: 62500 best: 0.219859
gen: 63000 best: 0.219877
gen: 63500 best: 0.219885
gen: 64000 best: 0.219887
gen: 64500 best: 0.219887
gen: 65000 best: 0.219892
gen: 65500 best: 0.219893
gen: 66000 best: 0.219896
gen: 66500 best: 0.219896
gen: 67000 best: 0.219896
gen: 67500 best: 0.219896
gen: 68000 best: 0.219896
gen: 68500 best: 0.219896
gen: 69000 best: 0.219896
gen: 69500 best: 0.219896
gen: 70000 best: 0.219904
