# architectures
phase1.architecture.length = 4
phase1.architecture = 12 15 10 2
phase1.architecture.hidden.activation = sigmoid
phase1.architecture.output.activation = tanh
phase2.architecture.length = 4
phase2.architecture = 22 20 12 2
phase2.architecture.hidden.activation = sigmoid
phase2.architecture.output.activation = tanh
wall.sensors = 10
car.sensors = 10

# other params
mutation.deviation = 0.050000
mutation.probability = 0.010000
alpha = 0.500000
beta = 0.300000

# static params
k.tournament = 3
population.size = 50
population.mean = 0.000000
population.deviation = 1.000000
mutation.mean = 0.000000
phase1.generations = 70000
phase2.generations = 70000
phase3.generations = 70000
number.of.steps = 500

# tracks params
train.number.of.tracks = 6
train.track.files = ../tracks/left1.txt ../tracks/right1.txt ../tracks/left2.txt ../tracks/right2.txt ../tracks/left4.txt ../tracks/right3.txt
train.number.of.cars = 2
train.car.unit = 50

test.number.of.tracks = 2
test.track.files = ../tracks/left4.txt ../tracks/right3.txt
test.number.of.cars = 2
test.car.unit = 50

# winner
winner.weights = -0.102843 -0.083073 -0.278813 0.245129 -0.072563 -0.004934 0.171418 -0.250749 -0.232218 -0.137694 -0.232050 0.161646 0.003821 -0.175793 0.144008 -0.202736 -0.154105 0.053079 0.319049 0.092386 -0.162708 -0.207447 -0.146834 -0.021183 0.150652 -0.375922 0.130164 -0.346498 0.167329 0.023320 -0.111278 0.244556 0.201687 -0.230936 0.497428 -0.316661 0.019903 0.344736 -0.429962 0.089123 0.149307 -0.183003 0.032684 0.310976 -0.092636 0.101639 0.159939 -0.544493 0.368907 0.444460 -0.074474 0.190206 0.084871 -0.434073 0.033809 0.489914 -0.273342 0.046309 0.035738 -0.050643 -0.115531 -0.034817 0.313992 0.124527 -0.007284 -0.102218 -0.106482 -0.032934 0.678062 -0.038740 0.069915 0.302233 -0.002064 0.266776 -0.049624 0.060656 0.214825 0.131894 -0.013270 0.323595 0.209469 -0.439312 -0.213614 0.107407 -0.220773 -0.133491 0.333572 -0.063081 -0.090672 0.283181 0.258596 0.176463 0.231125 -0.210775 -0.050409 0.243641 0.342643 0.333417 -0.373673 0.166395 -0.168196 -0.349401 -0.209929 -0.214698 0.122511 -0.069354 -0.021516 0.518629 -0.269697 -0.102709 -0.292364 0.273525 0.295498 -0.170011 0.178075 0.242622 -0.321962 -0.094093 -0.202841 0.097657 -0.311602 -0.013800 0.385720 0.186393 -0.148482 -0.321873 0.368831 0.056914 -0.229108 0.191540 0.006523 -0.098160 -0.030828 0.119757 -0.079278 -0.448142 0.323196 -0.063396 -0.234293 -0.138248 -0.134705 -0.389440 -0.376884 -0.461568 -0.032152 -0.259388 0.248241 -0.037452 0.515517 0.282232 0.369861 0.287307 0.122923 -0.087465 0.162746 0.160397 0.033964 0.250202 -0.100093 -0.051306 0.128667 -0.013954 -0.025116 -0.366161 -0.314060 0.216668 0.050307 0.029270 0.125236 0.233942 -0.352493 0.031539 0.012857 -0.357052 0.092781 -0.074485 0.248181 0.000882 -0.148549 -0.136510 0.030970 0.091053 0.144684 0.218390 0.260528 0.190283 0.023660 -0.249536 -0.095245 0.234669 -0.023555 -0.054951 0.404590 -0.020767 0.087895 -0.038955 -0.268166 0.166601 -0.078935 -0.094719 0.169976 -0.154541 -0.306139 0.049535 0.066348 0.283248 -0.248701 0.391151 0.582781 0.164614 -0.296718 -0.095017 0.187566 -0.003728 0.134264 -0.046942 -0.257454 -0.168157 0.324958 0.153446 0.225923 0.155011 0.222675 -0.117795 0.283088 0.158903 -0.090266 -0.169867 -0.269817 0.211100 0.086651 -0.158570 0.078874 -0.232513 0.539425 0.147951 -0.112144 0.126847 0.042545 -0.174368 -0.119860 -0.052758 0.125938 -0.432460 0.135813 0.006892 0.362173 -0.461207 -0.243838 0.001740 0.084068 -0.293987 0.071835 -0.129631 -0.247383 -0.044118 0.108135 0.203601 0.281849 -0.227341 0.041173 0.024585 -0.262449 0.253328 -0.024168 -0.156348 0.368473 0.035466 -0.283206 0.177822 0.047240 0.550139 0.297193 -0.499769 0.232122 0.051743 0.031415 -0.122804 -0.055051 -0.015162 -0.478439 0.488901 -0.086432 -0.459114 -0.386025 -0.113199 0.081406 -0.072818 -0.371896 0.094794 -0.281712 0.035697 0.349668 -0.107493 0.065168 0.258448 0.246324 0.237236 0.085335 0.080428 0.314379 0.284885 0.354976 -0.470027 -0.200162 0.366724 0.380243 -0.195353 -0.184759 -0.304268 0.103270 0.066732 -0.548271 -0.364598 0.271741 0.024996 0.347318 -0.232035 0.343165 -0.222373 0.017170 -0.102188 -0.012178 -0.155694 0.063349 0.116147 0.679643 0.452903 0.111128 -0.166048 0.410905 -0.304445 0.165343 -0.203762 0.145392 -0.105422 0.011753 0.111285 0.118913 -0.219754 -0.064221 0.128522 -0.166969 -0.615235 0.221186 0.009917 -0.001147 -0.289174 -0.098318 0.173702 0.050335 -0.240743 -0.073440 0.464728 0.034457 -0.004936 0.082435 0.091738 0.073049 0.473412 0.265186 0.167503 0.036940 0.027456 -0.345281 -0.051805 0.125400 -0.021126 -0.108783 0.169257 0.013014 0.319735 -0.016855 0.264327 0.727839 0.273197 -0.025903 -0.112511 -0.181736 -0.236199 0.056532 -0.529874 0.141699 -0.130412 -0.078742 0.017681 -0.094779 -0.088817 0.402460 0.077815 0.501334 0.255476 0.052588 -0.551238 0.130875 0.323515 0.122481 0.171101 0.217472 0.118982 0.123701 0.088203 0.277254 0.229605 0.097630 -0.160712 0.075487 0.006984 -0.107891 -0.152684 0.135827 -0.420570 -0.033768 -0.045534 0.241771 -0.031160 -0.046893 0.419988 0.015980 0.220913 0.101027 0.297157 0.159540 0.089661 -0.220877 -0.203866 -0.067662 -0.066174 -0.014721 0.308978 0.052277 0.199017 -0.085271 0.006903 0.103847 0.056660 0.145846 -0.194464 -0.336003 0.121447 -0.062524 -0.356757 -0.132220 0.084934 0.107769 -0.163428 0.140088 -0.074442 0.207271 0.084114 0.010377 -0.577897 0.159884 0.260527 0.430601 0.321831 0.225003 -0.296642 0.409708 -0.543052 0.064730 0.049035 -0.161742 -0.377565 -0.340650 0.185065 0.222945 0.526439 0.502970 0.214338 0.157113 0.046607 -0.084525 -0.365177 -0.254219 -0.039409 -0.094321 0.246995 0.317414 0.208468 0.117750 0.509606 0.140131 0.294775 0.142519 -0.081468 0.203091 0.512151 0.480678 0.068598 0.302079 -0.310009 -0.092908 0.219172 0.256640 0.046000 0.036232 0.030824 -0.225145 0.068848 -0.114205 -0.044960 -0.115106 0.320517 -0.137456 0.477113 -0.206942 0.043476 0.064716 0.151325 0.012555 -0.356503 -0.095026 -0.104140 0.044841 -0.098237 0.372233 -0.231101 0.279175 0.006496 0.015113 -0.275258 0.225207 -0.074896 0.122258 -0.327568 -0.449265 -0.325035 0.388440 -0.126904 0.182037 -0.249993 0.055364 0.286128 -0.134712 0.069194 0.097808 -0.380790 -0.122239 -0.005019 -0.176482 0.016470 -0.040028 0.181410 -0.095733 0.206316 -0.225874 0.186583 0.267787 0.218230 -0.270691 -0.225779 -0.582595 0.226232 -0.296388 0.332391 0.363698 0.211194 -0.338099 -0.318607 0.089586 -0.198084 0.168667 -0.310051 0.152233 -0.130814 0.067944 0.142479 -0.249736 -0.042132 0.231071 0.244549 -0.050439 0.183229 0.658610 -0.334483 0.015624 -0.268722 -0.198652 -0.231870 0.114007 0.167273 0.181102 0.445046 -0.261378 0.162309 0.113685 0.183210 0.040273 0.257731 -0.654661 -0.217687 0.136593 -0.168491 0.129120 -0.429498 -0.278567 -0.353748 0.614114 0.439346 0.102191 -0.022946 0.101731 0.216885 -0.178421 0.537235 -0.178417 -0.097523 -0.253931 0.132910 -0.373511 0.086934 0.443764 -0.182054 0.445202 -0.012042 -0.154341 -0.094799 -0.445267 0.287610 -0.136276 -0.086027 0.450752 -0.005990 -0.031109 -0.055884 0.045017 0.125296 -0.099613 0.073668 -0.205296 -0.025854 -0.476216 0.414662 0.363827 -0.198636 -0.210048 -0.002402 0.456579 -0.024620 -0.229776 -0.153027 0.155437 0.057126 -0.182248 0.150768 0.087826 -0.097056 -0.398959 -0.602832 -0.049193 0.261926 -0.108375 0.451935 0.178468 -0.127065 -0.052636 -0.040435 0.174230 0.032983 -0.476298 -0.085489 -0.150166 0.417170 -0.007033 -0.054993 0.169720 0.119650 0.124790 0.193171 -0.143597 -0.382694 -0.435413 0.170197 0.039521 0.228523 0.045653 -0.305824 -0.068778 -0.216048 0.098728 -0.300648 -0.074796 0.170814 0.323229 -0.044930 0.279213 0.113373 0.074082 0.116085 -0.119006 0.240066 0.546908 -0.174245 0.324227 -0.046349 0.313921 0.279164 -0.328914 0.477206 -0.189298 0.134093 0.167655 0.108834 -0.261526 0.273946 -0.303886 0.126411 -0.486820 0.271153 -0.089379 -0.271697 -0.661564 -0.481683 -0.022421 0.242405 0.252687 0.248452 -0.327159 0.095621 0.034362 -0.351882 0.281514 -0.098621 -0.562431 0.811659 0.031673 0.146255 -0.472220 -0.415418 0.125622 0.149518 0.598318 0.007843 -0.249242 -0.277166 0.327614 0.140815
winner.fitness = 0.040754
