# architectures
phase1.architecture.length = 4
phase1.architecture = 12 15 10 2
phase1.architecture.hidden.activation = sigmoid
phase1.architecture.output.activation = tanh
phase2.architecture.length = 4
phase2.architecture = 22 20 12 2
phase2.architecture.hidden.activation = sigmoid
phase2.architecture.output.activation = tanh
wall.sensors = 10
car.sensors = 10

# other params
mutation.deviation = 0.050000
mutation.probability = 0.100000
alpha = 0.700000
beta = 0.500000

# static params
k.tournament = 3
population.size = 50
population.mean = 0.000000
population.deviation = 1.000000
mutation.mean = 0.000000
phase1.generations = 70000
phase2.generations = 70000
phase3.generations = 70000
number.of.steps = 500

# tracks params
train.number.of.tracks = 6
train.track.files = ../tracks/left1.txt ../tracks/right1.txt ../tracks/left2.txt ../tracks/right2.txt ../tracks/left4.txt ../tracks/right3.txt
train.number.of.cars = 2
train.car.unit = 50

test.number.of.tracks = 2
test.track.files = ../tracks/left4.txt ../tracks/right3.txt
test.number.of.cars = 2
test.car.unit = 50

# winner
winner.weights = -0.264947 -0.414225 0.082773 0.017255 -0.300538 -0.474056 0.208786 0.299742 -0.048392 -0.064415 0.063408 -0.128786 -0.107310 0.164579 -0.079376 0.170419 -0.341503 -0.504148 0.042685 -0.057595 0.003708 0.210514 0.330340 0.969482 -0.158045 -0.042639 -0.132159 0.596619 -0.187631 -0.321047 -0.262091 0.148304 0.373388 0.272126 -0.010625 -0.105866 0.024902 0.036195 -0.316810 -0.352584 -0.029511 0.302928 0.039928 0.030375 0.208243 0.270558 -0.527270 0.306413 -0.277176 0.281675 0.080765 -0.124996 0.048770 0.211392 -0.190877 0.124036 -0.115057 0.355976 -0.114215 -0.137347 0.475875 -0.301388 0.829846 -0.029014 -0.065099 -0.042457 -0.136976 0.221442 -0.090546 -0.040089 -0.436543 -0.198406 -0.369709 -0.040883 -0.340195 0.035914 -0.291534 0.012955 0.173090 0.102114 -0.060895 -0.205380 -0.148528 -0.151218 -0.411220 -0.158512 -0.345345 0.059340 0.141542 0.071784 0.136595 -0.001754 0.110280 -0.017466 -0.266469 -0.134874 -0.317098 0.289395 -0.191316 -0.279446 -0.071816 -0.408725 0.010514 0.060324 0.318837 -0.107634 0.199626 0.319560 -0.421250 0.287882 -0.249516 0.121918 -0.098813 -0.001115 -0.334212 -0.357213 0.203167 -0.218085 -0.219096 0.087523 -0.461558 -0.689340 -0.025560 -0.218701 -0.328936 0.130842 0.404535 -0.015406 0.052397 0.510635 0.107359 0.094519 -0.278487 0.013220 -0.408902 0.084725 0.424309 -0.216960 0.089655 -0.257587 -0.248499 0.212126 0.166274 0.120875 -0.112953 0.324988 0.342596 -0.394013 0.049373 -0.010207 0.015708 0.404118 0.217036 0.261806 -0.101516 -0.011146 0.077611 0.274063 0.374314 0.005883 -0.424261 0.343736 -0.115305 -0.640873 0.048604 0.106370 -0.222982 0.446527 0.389034 -0.616806 -0.040446 -0.044003 0.199736 0.344321 0.454299 -0.165028 0.023546 -0.186331 0.232169 0.208526 -0.290771 -0.072546 -0.462885 -0.061833 -0.276671 0.176938 -0.210417 0.299956 -0.357749 -0.115535 -0.036799 -0.102521 -0.104262 0.420980 0.131157 -0.089398 -0.137654 -0.035874 -0.294068 -0.036670 -0.290456 -0.006881 0.045645 -0.134427 -0.090223 -0.329842 -0.395651 0.014159 -0.251968 0.164350 -0.475850 -0.114491 -0.029496 0.059063 0.089141 -0.372441 -0.220646 0.195252 -0.569817 -0.315358 -0.026038 0.502575 0.203498 0.023542 -0.065238 0.230908 -0.252464 0.091457 0.187338 -0.057247 0.246630 -0.116747 0.452225 0.257756 -0.045478 0.301424 -0.138691 0.267501 0.282014 -0.056749 0.022545 -0.494005 0.199295 0.505345 -0.164650 0.463817 0.152263 -0.099591 -0.010258 -0.241930 0.247779 0.135443 0.154081 -0.479956 0.047519 -0.187472 -0.000552 0.077989 0.163606 -0.120091 0.028809 -0.273438 -0.586048 -0.055642 0.002949 0.042838 0.093702 0.250009 -0.173915 0.406794 0.009847 0.170034 0.356400 -0.038908 0.044129 -0.461736 -0.334443 -0.076783 -0.145229 0.298838 0.340702 0.346622 -0.328196 0.254698 0.430029 0.175664 0.122569 0.127948 -0.130207 -0.200258 0.203019 0.210420 -0.124485 0.090994 -0.069712 0.408178 -0.228544 0.241160 -0.048464 0.077186 -0.250491 -0.397899 0.215193 0.122108 -0.171340 -0.006430 0.145350 -0.126348 0.481464 -0.079640 -0.322570 0.405908 -0.038564 -0.437651 -0.104208 0.468981 0.094763 -0.748815 0.171666 -0.612502 -0.369651 -0.041455 -0.017225 0.167124 0.324356 0.354735 0.197489 -0.039912 0.100512 0.404175 -0.255827 -0.147765 -0.045434 0.375419 -0.080920 -0.131393 -0.000434 -0.077334 0.506570 -0.105815 -0.205610 -0.140542 -0.175997 -0.344109 0.283072 0.329941 0.080102 0.271122 -0.195914 -0.136323 -0.167643 0.160251 -0.171433 0.160712 -0.782384 0.170358 0.013877 -0.303801 -0.007435 -0.055284 0.011047 0.397641 0.234983 0.032799 -0.013360 -0.219981 -0.248352 0.105828 0.155501 -0.169812 -0.284659 -0.100240 0.006223 0.005485 -0.314524 -0.324090 0.092848 0.221952 -0.141742 -0.177176 -0.109891 -0.043189 0.138568 0.026071 -0.075664 -0.204841 0.066885 -0.328153 -0.197495 0.303677 -0.262929 0.510358 -0.147724 0.283406 -0.054959 -0.263105 0.248863 0.063301 0.315869 -0.066584 -0.553553 0.242417 0.021289 -0.003944 0.057642 0.441366 -0.240726 0.790537 0.446761 -0.536359 -0.361599 -0.315148 0.322336 0.008297 0.362113 -0.177089 0.394685 -0.354538 -0.261911 -0.533345 0.059836 0.183304 -0.132310 0.085769 -0.130825 0.097472 0.084575 0.105599 0.153686 0.063592 -0.157850 0.503784 0.033643 0.242835 -0.024548 -0.105891 -0.128770 0.152228 -0.342755 -0.115772 -0.027396 -0.044224 0.103313 -0.019449 -0.331931 -0.249703 0.128372 0.037704 0.090776 0.010343 -0.038041 -0.137135 0.163139 -0.193834 0.095541 -0.150911 0.100397 -0.005701 0.364303 0.020429 0.212083 -0.155226 0.357645 0.337724 0.033332 -0.077333 0.112118 -0.015232 0.604461 -0.045321 -0.433542 -0.183648 -0.176299 -0.186427 -0.243987 0.025301 0.248569 -0.074788 0.249766 0.320032 -0.458999 0.008979 -0.222040 -0.160167 -0.352657 0.283260 -0.275584 0.212489 0.174000 0.123275 0.359799 -0.400479 0.081098 0.173791 -0.047892 -0.109886 -0.355337 -0.264406 -0.030182 -0.035910 0.088220 0.113568 0.111050 0.161709 -0.026199 -0.026646 0.010695 0.187916 0.063030 0.182975 0.154337 -0.214378 0.003422 -0.389025 0.019605 0.007136 -0.048780 -0.134043 0.569204 -0.224045 -0.151882 -0.338584 0.030516 0.016253 -0.182793 0.234695 -0.106538 0.167867 -0.322881 0.258249 -0.160553 0.105833 0.156175 -0.092068 0.449052 0.352865 -0.220867 0.330213 -0.135425 -0.324923 -0.155905 -0.034353 -0.099673 0.002258 0.092337 0.084678 0.068669 0.095675 -0.160107 -0.078592 -0.170637 0.126674 -0.245684 0.169170 0.341691 -0.035176 -0.224546 0.288846 0.183039 0.157897 -0.073859 0.239364 0.239722 0.063723 -0.022945 -0.723988 0.345658 -0.130595 -0.107185 0.052013 -0.079959 0.230296 -0.331000 0.003987 -0.117431 -0.703034 -0.395012 0.066596 0.045844 -0.293478 0.086511 0.360639 0.154375 -0.224407 0.048909 0.187983 -0.030677 0.418450 0.027625 0.192769 0.224642 0.128264 -0.324035 -0.545216 0.068735 0.234486 -0.181724 0.130522 0.564480 -0.343863 0.241771 -0.646426 0.301795 0.031904 -0.253590 0.161031 -0.304653 0.113954 -0.092401 -0.367773 0.440017 0.018569 0.129971 0.302964 0.316292 0.128641 -0.339666 -0.111579 -0.195998 0.404813 0.302730 -0.186308 0.269192 0.371332 -0.321180 0.089206 0.377008 -0.269447 0.024192 -0.050138 0.010541 0.543246 -0.180915 -0.121600 -0.382570 0.100336 0.494698 0.248181 0.397983 -0.424894 0.108878 0.021719 -0.104290 0.191930 0.285069 -0.009213 -0.016362 0.159000 -0.420894 -0.543696 0.064399 0.372339 0.221776 -0.208305 -0.081961 0.001599 -0.456376 0.299286 0.041338 -0.330124 0.517517 0.330955 0.335022 -0.185584 -0.062333 -0.313336 -0.115494 -0.066079 -0.003765 0.061535 -0.039800 0.153625 0.052955 -0.182551 0.171577 0.631754 0.252187 -0.066263 0.528102 0.014964 -0.276195 0.222187 0.326517 0.048585 0.353592 0.425812 -0.056291 -0.275546 -0.183783 0.062291 0.094577 0.463345 0.179301 0.669313 0.142570 -0.012200 0.196168 0.614857 -0.074319 0.213199 0.112763 -0.210271 0.175269 0.233151 0.061922 -0.321339 -0.264717 -0.244421 0.044720 -0.002556 0.128454 0.290228 -0.481372 -0.158746 0.133891 -0.264064 0.254181 0.235333 0.118094 0.342469 -0.863460 -0.353763 0.136226 -0.169814 0.134370 0.802866 0.274725 -0.350748 0.177186 0.192878 0.103734 -0.078680 -0.807707 0.370691 0.167901 -0.153301 0.133763 0.050949
winner.fitness = 0.054626
