# architectures
phase1.architecture.length = 4
phase1.architecture = 10 15 10 2
phase1.architecture.hidden.activation = tanh
phase1.architecture.output.activation = tanh
phase2.architecture.length = 4
phase2.architecture = 18 20 12 2
phase2.architecture.hidden.activation = tanh
phase2.architecture.output.activation = tanh
wall.sensors = 8
car.sensors = 8

# other params
mutation.deviation = 0.500000
mutation.probability = 0.010000
alpha = 0.300000
beta = 0.500000

# static params
k.tournament = 3
population.size = 50
population.mean = 0.000000
population.deviation = 1.000000
mutation.mean = 0.000000
phase1.generations = 70000
phase2.generations = 70000
phase3.generations = 70000
number.of.steps = 500

# tracks params
train.number.of.tracks = 6
train.track.files = ../tracks/left1.txt ../tracks/right1.txt ../tracks/left2.txt ../tracks/right2.txt ../tracks/left4.txt ../tracks/right3.txt
train.number.of.cars = 2
train.car.unit = 50

test.number.of.tracks = 2
test.track.files = ../tracks/left4.txt ../tracks/right3.txt
test.number.of.cars = 2
test.car.unit = 50

# winner
winner.weights = -0.451349 0.386122 -1.267579 -0.261237 -0.291696 -0.108932 -0.228712 -0.181672 -0.131024 0.230957 0.003240 -0.130087 0.400758 -0.203674 -0.371748 -0.223250 0.319119 0.049878 -0.359219 -0.433798 0.603913 -1.225912 0.104748 0.382841 -0.087143 -0.237387 -0.111238 -0.502107 0.034299 0.196651 -0.467716 0.786057 0.182166 -0.250723 -0.327979 0.310839 0.096456 -0.345051 -0.239447 -0.246867 1.279321 0.285562 -0.533824 -0.452007 -0.000566 0.213815 0.275616 0.131317 0.406303 0.389729 0.091317 0.232260 0.338374 0.390770 -0.494840 0.175148 0.083993 0.120289 -0.580609 0.381850 -0.459079 -0.231301 0.217395 -0.231100 -0.162088 0.071175 -0.100469 -0.152441 -0.049132 0.611194 0.224480 -0.333472 0.425986 -0.172161 0.310135 0.489500 1.011573 -0.065164 1.442623 0.206722 -0.005205 -0.015529 0.210000 0.301198 0.511206 0.132198 0.114049 -0.475764 -0.415470 -0.056220 -0.295565 -0.126585 -0.409692 0.330614 0.126153 -0.348325 0.219975 -0.481751 -0.859209 0.173866 -0.010361 -0.113955 0.107943 -0.003555 -0.225841 0.142649 0.228505 -0.187530 0.491928 0.382636 0.015260 0.063757 -0.055559 -0.187373 -0.150198 -0.596005 0.288453 0.141578 0.795233 0.220943 -0.044542 0.510037 0.415455 -0.184589 -0.450324 0.288322 -0.494544 0.484654 -0.739536 0.166276 -0.781943 0.262799 -0.398529 -0.237363 0.199365 -1.103142 -0.204113 -0.136176 -0.254509 0.269602 -0.134088 0.030753 0.287803 0.913471 -0.327690 0.194242 -0.375184 -0.378518 -0.352167 0.323518 0.579860 0.049528 -0.261532 -0.672703 0.865738 -0.178055 0.228204 -0.454904 0.223750 -0.168194 0.296328 -0.223999 -0.310442 0.089853 0.108412 0.123288 -0.221666 0.211848 -0.233316 0.204463 -0.113257 0.129500 -0.585553 0.030698 0.155672 0.009839 -0.329266 -0.044839 0.340229 -0.333775 -0.256325 0.659474 0.060077 -0.173063 -0.205438 0.059253 0.071906 0.494928 0.236934 -0.323955 -0.474531 0.124856 -1.635467 -0.450884 -0.061386 0.244691 0.000092 -0.141069 0.158628 0.037677 0.091355 -0.305185 -0.286121 -0.180404 0.475319 -0.161042 0.055143 -0.037546 0.225674 0.268871 1.132696 -0.028971 -0.012218 0.089639 -0.092922 0.048865 -0.076369 -0.578466 0.104920 0.772839 -0.307497 0.053305 0.132041 0.083174 -0.229177 -0.254638 0.174806 -0.165211 -0.787764 -0.423044 0.305431 0.229512 0.514632 -0.075086 -0.429598 0.149108 -0.174501 0.018002 0.383364 -0.044280 -0.184929 0.225289 0.561604 -0.296768 -0.142400 0.381765 0.091519 -0.061086 0.155207 -0.413336 -0.424225 0.132795 0.681402 0.896643 -0.148268 -0.132750 0.119822 0.451677 -0.025660 0.255240 0.143238 -0.294832 -0.069422 -0.532023 -0.078664 0.104683 0.209411 0.540067 -0.330520 -0.172870 0.737565 0.035910 -0.032842 -0.043347 0.069473 -0.529550 0.017990 0.052646 0.103272 0.200609 0.232295 -0.138747 0.043918 -0.286697 0.546333 0.207655 -0.019794 -0.312572 0.206587 0.306186 -0.257755 -0.097495 0.066007 0.798463 0.067393 0.218514 0.225052 0.460441 0.422923 -0.719120 0.076727 -0.447025 0.302391 0.244233 -0.276084 0.658703 -0.025128 -0.008408 0.407742 -0.292543 -0.012703 -0.041966 -0.370196 -0.254664 -0.532054 -0.531052 0.220820 -0.357423 0.251705 0.061558 0.190241 0.173700 0.427178 0.375519 0.080158 0.080462 -0.152025 0.174907 0.137461 -0.133443 -0.124382 -0.100174 -0.313462 0.306115 -0.313759 -0.022237 0.148631 0.061382 -0.127356 -0.121167 -0.174773 -0.144327 0.551907 -0.849430 -0.002608 0.533711 -0.548757 0.142891 0.087027 -0.156272 0.123498 0.584678 -0.073836 0.230772 -0.205195 -0.225218 0.395983 0.549960 -0.389506 0.236945 -0.593740 -0.362083 -0.195030 -0.006206 -0.000503 0.272127 0.070890 -0.110866 -0.230674 0.192857 -0.312270 0.258902 -0.218400 -0.049594 -0.046033 -0.007229 -0.140755 0.176181 0.061702 0.053586 -0.356708 -0.026086 0.185055 -0.109087 -0.540447 -0.269871 0.231211 -0.664633 -0.090138 -0.111196 -0.241484 -0.219128 0.099170 -0.403473 0.097434 0.668215 0.281336 0.026194 0.082435 -0.032112 -0.277370 0.118260 0.573640 0.059815 -0.185544 -0.003668 0.179984 0.302981 -0.248013 -0.161085 -0.561849 -0.143697 0.401887 0.362724 -0.132139 -0.073926 0.070272 0.268891 0.460071 0.404841 0.168211 0.611359 -0.217137 -0.046914 -1.229108 -0.318024 0.533370 0.049880 0.248023 -0.232967 -0.527347 0.266503 -0.355261 -0.393131 -0.029424 -0.243073 0.372742 0.432718 0.518305 0.148192 0.038085 0.098691 -0.260868 0.125730 0.587384 0.520830 0.543240 -0.173927 0.089826 -0.331667 -0.804356 0.883684 -0.062066 -0.312798 0.087656 -0.338743 0.294671 0.028602 -0.214404 0.284294 -0.382586 0.346051 0.201009 -0.246232 -0.216637 0.588597 -0.138609 -0.644305 -0.276323 0.026734 0.138273 -0.881223 0.296531 -0.296964 -0.470624 0.620264 -0.225391 -0.332468 0.339696 0.028619 -0.325500 0.126102 -0.125751 0.063110 -0.024122 0.496461 0.150636 0.191720 -0.617065 -0.124586 -0.387875 0.960800 -0.402988 0.408345 -0.405915 -0.882567 -0.120459 0.158245 -0.524715 -0.033364 0.313397 -0.067021 0.033891 0.567836 -0.118399 -0.175209 0.520871 0.532021 0.227041 -0.357526 -0.280911 0.843145 0.112502 0.381657 0.475449 0.261791 0.037265 0.299356 0.680215 0.390452 0.618201 0.129835 -0.043629 0.119573 0.084504 0.117191 -0.289603 -0.307971 0.285951 -0.664786 -0.168319 -0.187109 -0.563899 0.337664 -0.317006 -0.036993 0.276312 -0.439656 -0.054619 0.253357 -0.251849 0.517878 0.143548 0.177521 -0.196243 0.285739 0.208918 0.041798 0.072996 0.459098 0.009513 -0.749946 -0.634857 -0.295850 0.070176 -0.083175 0.219407 -0.583485 0.241941 0.227506 0.185821 -0.059104 0.626160 -0.108411 -0.207555 -0.359574 0.043593 -0.289236 -0.072477 -0.289266 0.066683 0.454744 -1.065424 0.221808 -0.032397 -0.029866 0.257053 -0.107257 -0.428476 0.241535 0.003900 0.006399 -0.495673 -0.152230 0.289255 0.411870 0.001523 0.168174 0.053277 0.072802 -0.207901 0.265509 0.165645 0.130919 -0.426835 0.119992 0.140259 -0.380063 -0.148488 -0.380789 -0.095887 0.627881 -0.394779 0.974036 -0.131797 0.030133 -0.142799 -0.109760 -0.054456 0.149660 0.340307 -0.027720 0.072180 0.113109 -0.106422 0.003378 -0.019786 -0.021918 0.374306 -0.279219 0.281006 0.006210 0.066512 -0.054859 0.186742 -0.193303 -0.047423 0.116112 -0.089160 0.046128 -0.125869 0.256130 -0.211058 0.124037 -0.190640 0.335851 -0.300332 -0.654464 -0.302395 -0.199849 -0.126665 -0.326325 -0.313687 0.049796 0.271972 0.446421 0.848888 0.810162 0.493836 0.515301 0.478478 0.835539 0.879118 0.252814 0.627011 0.684001 0.054420 -0.069241
winner.fitness = 0.041566
