gen: 0 best: 0.094479
gen: 500 best: 0.126533
gen: 1000 best: 0.127087
gen: 1500 best: 0.127087
gen: 2000 best: 0.127099
gen: 2500 best: 0.127122
gen: 3000 best: 0.127246
gen: 3500 best: 0.127293
gen: 4000 best: 0.127293
gen: 4500 best: 0.127293
gen: 5000 best: 0.127293
gen: 5500 best: 0.152285
gen: 6000 best: 0.152747
gen: 6500 best: 0.152747
gen: 7000 best: 0.154126
gen: 7500 best: 0.154815
gen: 8000 best: 0.156217
gen: 8500 best: 0.158301
gen: 9000 best: 0.159651
gen: 9500 best: 0.168004
gen: 10000 best: 0.217258
gen: 10500 best: 0.224335
gen: 11000 best: 0.226186
gen: 11500 best: 0.226847
gen: 12000 best: 0.227318
gen: 12500 best: 0.227868
gen: 13000 best: 0.228782
gen: 13500 best: 0.228863
gen: 14000 best: 0.229083
gen: 14500 best: 0.229083
gen: 15000 best: 0.229083
gen: 15500 best: 0.230946
gen: 16000 best: 0.231623
gen: 16500 best: 0.232662
gen: 17000 best: 0.234007
gen: 17500 best: 0.250618
gen: 18000 best: 0.261676
gen: 18500 best: 0.262747
gen: 19000 best: 0.263892
gen: 19500 best: 0.265368
gen: 20000 best: 0.265691
gen: 20500 best: 0.265691
gen: 21000 best: 0.265691
gen: 21500 best: 0.265691
gen: 22000 best: 0.265691
gen: 22500 best: 0.265695
gen: 23000 best: 0.265722
gen: 23500 best: 0.265932
gen: 24000 best: 0.265932
gen: 24500 best: 0.265932
gen: 25000 best: 0.265932
gen: 25500 best: 0.265977
gen: 26000 best: 0.265977
gen: 26500 best: 0.265977
gen: 27000 best: 0.266069
gen: 27500 best: 0.266230
gen: 28000 best: 0.266230
gen: 28500 best: 0.266230
gen: 29000 best: 0.266230
gen: 29500 best: 0.266230
gen: 30000 best: 0.266230
gen: 30500 best: 0.266230
gen: 31000 best: 0.266230
gen: 31500 best: 0.266230
gen: 32000 best: 0.266230
gen: 32500 best: 0.266230
gen: 33000 best: 0.287959
gen: 33500 best: 0.287959
gen: 34000 best: 0.288692
gen: 34500 best: 0.288692
gen: 35000 best: 0.289009
gen: 35500 best: 0.289434
gen: 36000 best: 0.289434
gen: 36500 best: 0.289596
gen: 37000 best: 0.289926
gen: 37500 best: 0.289926
gen: 38000 best: 0.290335
gen: 38500 best: 0.290335
gen: 39000 best: 0.290507
gen: 39500 best: 0.290507
gen: 40000 best: 0.290507
gen: 40500 best: 0.290507
gen: 41000 best: 0.290634
gen: 41500 best: 0.290664
gen: 42000 best: 0.290664
gen: 42500 best: 0.290664
gen: 43000 best: 0.290664
gen: 43500 best: 0.290664
gen: 44000 best: 0.290664
gen: 44500 best: 0.290664
gen: 45000 best: 0.290664
gen: 45500 best: 0.290907
gen: 46000 best: 0.290907
gen: 46500 best: 0.290907
gen: 47000 best: 0.290998
gen: 47500 best: 0.290998
gen: 48000 best: 0.290998
gen: 48500 best: 0.290998
gen: 49000 best: 0.291027
gen: 49500 best: 0.291027
gen: 50000 best: 0.291027
gen: 50500 best: 0.291027
gen: 51000 best: 0.291027
gen: 51500 best: 0.291027
gen: 52000 best: 0.291027
gen: 52500 best: 0.291027
gen: 53000 best: 0.291027
gen: 53500 best: 0.291027
gen: 54000 best: 0.291027
gen: 54500 best: 0.291038
gen: 55000 best: 0.291038
gen: 55500 best: 0.291038
gen: 56000 best: 0.291038
gen: 56500 best: 0.291038
gen: 57000 best: 0.291046
gen: 57500 best: 0.291046
gen: 58000 best: 0.291051
gen: 58500 best: 0.291194
gen: 59000 best: 0.291194
gen: 59500 best: 0.291194
gen: 60000 best: 0.291194
gen: 60500 best: 0.291194
gen: 61000 best: 0.291194
gen: 61500 best: 0.291194
gen: 62000 best: 0.291194
gen: 62500 best: 0.291194
gen: 63000 best: 0.291207
gen: 63500 best: 0.291207
gen: 64000 best: 0.291207
gen: 64500 best: 0.291207
gen: 65000 best: 0.291207
gen: 65500 best: 0.291207
gen: 66000 best: 0.291207
gen: 66500 best: 0.291207
gen: 67000 best: 0.291207
gen: 67500 best: 0.291207
gen: 68000 best: 0.291233
gen: 68500 best: 0.291246
gen: 69000 best: 0.291246
gen: 69500 best: 0.291256
gen: 70000 best: 0.291256
