gen: 0 best: 0.099636
gen: 500 best: 0.123034
gen: 1000 best: 0.127351
gen: 1500 best: 0.127490
gen: 2000 best: 0.127567
gen: 2500 best: 0.127587
gen: 3000 best: 0.127589
gen: 3500 best: 0.127592
gen: 4000 best: 0.127600
gen: 4500 best: 0.127600
gen: 5000 best: 0.127600
gen: 5500 best: 0.127602
gen: 6000 best: 0.127633
gen: 6500 best: 0.127645
gen: 7000 best: 0.127665
gen: 7500 best: 0.127669
gen: 8000 best: 0.127675
gen: 8500 best: 0.127691
gen: 9000 best: 0.127693
gen: 9500 best: 0.127694
gen: 10000 best: 0.127694
gen: 10500 best: 0.127697
gen: 11000 best: 0.127697
gen: 11500 best: 0.127697
gen: 12000 best: 0.127697
gen: 12500 best: 0.127698
gen: 13000 best: 0.127698
gen: 13500 best: 0.127698
gen: 14000 best: 0.127698
gen: 14500 best: 0.127698
gen: 15000 best: 0.127698
gen: 15500 best: 0.127698
gen: 16000 best: 0.127698
gen: 16500 best: 0.127706
gen: 17000 best: 0.127711
gen: 17500 best: 0.127714
gen: 18000 best: 0.127714
gen: 18500 best: 0.127714
gen: 19000 best: 0.127714
gen: 19500 best: 0.127716
gen: 20000 best: 0.127717
gen: 20500 best: 0.127717
gen: 21000 best: 0.127717
gen: 21500 best: 0.153284
gen: 22000 best: 0.153358
gen: 22500 best: 0.153475
gen: 23000 best: 0.153504
gen: 23500 best: 0.153538
gen: 24000 best: 0.153598
gen: 24500 best: 0.153638
gen: 25000 best: 0.153760
gen: 25500 best: 0.153898
gen: 26000 best: 0.153999
gen: 26500 best: 0.154079
gen: 27000 best: 0.154314
gen: 27500 best: 0.154541
gen: 28000 best: 0.154779
gen: 28500 best: 0.154902
gen: 29000 best: 0.155037
gen: 29500 best: 0.155195
gen: 30000 best: 0.155223
gen: 30500 best: 0.155325
gen: 31000 best: 0.155351
gen: 31500 best: 0.155459
gen: 32000 best: 0.155650
gen: 32500 best: 0.155698
gen: 33000 best: 0.155739
gen: 33500 best: 0.155777
gen: 34000 best: 0.156036
gen: 34500 best: 0.156223
gen: 35000 best: 0.156294
gen: 35500 best: 0.156467
gen: 36000 best: 0.156683
gen: 36500 best: 0.156741
gen: 37000 best: 0.156771
gen: 37500 best: 0.156944
gen: 38000 best: 0.157075
gen: 38500 best: 0.157981
gen: 39000 best: 0.158760
gen: 39500 best: 0.159070
gen: 40000 best: 0.159686
gen: 40500 best: 0.160905
gen: 41000 best: 0.162230
gen: 41500 best: 0.165886
gen: 42000 best: 0.209028
gen: 42500 best: 0.213301
gen: 43000 best: 0.216964
gen: 43500 best: 0.219838
gen: 44000 best: 0.220916
gen: 44500 best: 0.223092
gen: 45000 best: 0.224635
gen: 45500 best: 0.225005
gen: 46000 best: 0.225541
gen: 46500 best: 0.226197
gen: 47000 best: 0.227199
gen: 47500 best: 0.228276
gen: 48000 best: 0.228349
gen: 48500 best: 0.228395
gen: 49000 best: 0.228465
gen: 49500 best: 0.228471
gen: 50000 best: 0.228552
gen: 50500 best: 0.228660
gen: 51000 best: 0.228681
gen: 51500 best: 0.228768
gen: 52000 best: 0.229134
gen: 52500 best: 0.229159
gen: 53000 best: 0.229191
gen: 53500 best: 0.229234
gen: 54000 best: 0.229299
gen: 54500 best: 0.229329
gen: 55000 best: 0.229348
gen: 55500 best: 0.229350
gen: 56000 best: 0.229365
gen: 56500 best: 0.229368
gen: 57000 best: 0.229368
gen: 57500 best: 0.229368
gen: 58000 best: 0.229368
gen: 58500 best: 0.229368
gen: 59000 best: 0.229368
gen: 59500 best: 0.229368
gen: 60000 best: 0.229368
gen: 60500 best: 0.229368
gen: 61000 best: 0.229377
gen: 61500 best: 0.229381
gen: 62000 best: 0.229385
gen: 62500 best: 0.229434
gen: 63000 best: 0.229465
gen: 63500 best: 0.229513
gen: 64000 best: 0.229588
gen: 64500 best: 0.229604
gen: 65000 best: 0.229637
gen: 65500 best: 0.229700
gen: 66000 best: 0.229771
gen: 66500 best: 0.229819
gen: 67000 best: 0.229884
gen: 67500 best: 0.229977
gen: 68000 best: 0.230012
gen: 68500 best: 0.230015
gen: 69000 best: 0.230028
gen: 69500 best: 0.230030
gen: 70000 best: 0.230034
