gen: 0 best: 0.106279
gen: 500 best: 0.107115
gen: 1000 best: 0.107353
gen: 1500 best: 0.107505
gen: 2000 best: 0.107509
gen: 2500 best: 0.107598
gen: 3000 best: 0.107598
gen: 3500 best: 0.133396
gen: 4000 best: 0.133470
gen: 4500 best: 0.133768
gen: 5000 best: 0.133978
gen: 5500 best: 0.134005
gen: 6000 best: 0.134024
gen: 6500 best: 0.134024
gen: 7000 best: 0.134048
gen: 7500 best: 0.134060
gen: 8000 best: 0.134134
gen: 8500 best: 0.134180
gen: 9000 best: 0.134195
gen: 9500 best: 0.134216
gen: 10000 best: 0.134236
gen: 10500 best: 0.134302
gen: 11000 best: 0.134326
gen: 11500 best: 0.134338
gen: 12000 best: 0.134338
gen: 12500 best: 0.134338
gen: 13000 best: 0.134350
gen: 13500 best: 0.134353
gen: 14000 best: 0.134359
gen: 14500 best: 0.134367
gen: 15000 best: 0.134376
gen: 15500 best: 0.134385
gen: 16000 best: 0.134394
gen: 16500 best: 0.134413
gen: 17000 best: 0.134413
gen: 17500 best: 0.134418
gen: 18000 best: 0.134429
gen: 18500 best: 0.134448
gen: 19000 best: 0.134456
gen: 19500 best: 0.134456
gen: 20000 best: 0.134460
gen: 20500 best: 0.134460
gen: 21000 best: 0.134489
gen: 21500 best: 0.134489
gen: 22000 best: 0.134515
gen: 22500 best: 0.134515
gen: 23000 best: 0.134515
gen: 23500 best: 0.134517
gen: 24000 best: 0.134530
gen: 24500 best: 0.134571
gen: 25000 best: 0.134582
gen: 25500 best: 0.134622
gen: 26000 best: 0.134688
gen: 26500 best: 0.134696
gen: 27000 best: 0.134739
gen: 27500 best: 0.134739
gen: 28000 best: 0.134739
gen: 28500 best: 0.134755
gen: 29000 best: 0.134755
gen: 29500 best: 0.134755
gen: 30000 best: 0.134764
gen: 30500 best: 0.134764
gen: 31000 best: 0.134767
gen: 31500 best: 0.134767
gen: 32000 best: 0.134769
gen: 32500 best: 0.134788
gen: 33000 best: 0.134792
gen: 33500 best: 0.134807
gen: 34000 best: 0.134840
gen: 34500 best: 0.138836
gen: 35000 best: 0.138836
gen: 35500 best: 0.138836
gen: 36000 best: 0.138836
gen: 36500 best: 0.138836
gen: 37000 best: 0.138836
gen: 37500 best: 0.138836
gen: 38000 best: 0.138836
gen: 38500 best: 0.138836
gen: 39000 best: 0.138836
gen: 39500 best: 0.138836
gen: 40000 best: 0.138836
gen: 40500 best: 0.138836
gen: 41000 best: 0.138836
gen: 41500 best: 0.138836
gen: 42000 best: 0.138836
gen: 42500 best: 0.138836
gen: 43000 best: 0.138836
gen: 43500 best: 0.138836
gen: 44000 best: 0.138836
gen: 44500 best: 0.138836
gen: 45000 best: 0.138836
gen: 45500 best: 0.138836
gen: 46000 best: 0.138836
gen: 46500 best: 0.138836
gen: 47000 best: 0.138836
gen: 47500 best: 0.138836
gen: 48000 best: 0.138836
gen: 48500 best: 0.138836
gen: 49000 best: 0.138836
gen: 49500 best: 0.138836
gen: 50000 best: 0.138836
gen: 50500 best: 0.138836
gen: 51000 best: 0.138836
gen: 51500 best: 0.138836
gen: 52000 best: 0.138836
gen: 52500 best: 0.138836
gen: 53000 best: 0.138836
gen: 53500 best: 0.138836
gen: 54000 best: 0.138836
gen: 54500 best: 0.138836
gen: 55000 best: 0.138836
gen: 55500 best: 0.138836
gen: 56000 best: 0.138836
gen: 56500 best: 0.138836
gen: 57000 best: 0.138836
gen: 57500 best: 0.138836
gen: 58000 best: 0.138836
gen: 58500 best: 0.138836
gen: 59000 best: 0.138836
gen: 59500 best: 0.138836
gen: 60000 best: 0.138836
gen: 60500 best: 0.138836
gen: 61000 best: 0.138836
gen: 61500 best: 0.138836
gen: 62000 best: 0.138836
gen: 62500 best: 0.138836
gen: 63000 best: 0.138836
gen: 63500 best: 0.138836
gen: 64000 best: 0.138836
gen: 64500 best: 0.138836
gen: 65000 best: 0.138836
gen: 65500 best: 0.138836
gen: 66000 best: 0.138836
gen: 66500 best: 0.138836
gen: 67000 best: 0.138836
gen: 67500 best: 0.138836
gen: 68000 best: 0.138836
gen: 68500 best: 0.138836
gen: 69000 best: 0.138836
gen: 69500 best: 0.138836
gen: 70000 best: 0.138836
