gen: 0 best: 0.177176
gen: 500 best: 0.179781
gen: 1000 best: 0.180405
gen: 1500 best: 0.181190
gen: 2000 best: 0.181527
gen: 2500 best: 0.182195
gen: 3000 best: 0.182610
gen: 3500 best: 0.182961
gen: 4000 best: 0.183790
gen: 4500 best: 0.185068
gen: 5000 best: 0.185660
gen: 5500 best: 0.186794
gen: 6000 best: 0.186944
gen: 6500 best: 0.187322
gen: 7000 best: 0.187367
gen: 7500 best: 0.187372
gen: 8000 best: 0.187531
gen: 8500 best: 0.187590
gen: 9000 best: 0.187700
gen: 9500 best: 0.187775
gen: 10000 best: 0.187780
gen: 10500 best: 0.187789
gen: 11000 best: 0.187798
gen: 11500 best: 0.187809
gen: 12000 best: 0.187821
gen: 12500 best: 0.187863
gen: 13000 best: 0.187925
gen: 13500 best: 0.187925
gen: 14000 best: 0.187925
gen: 14500 best: 0.187941
gen: 15000 best: 0.187953
gen: 15500 best: 0.187953
gen: 16000 best: 0.187957
gen: 16500 best: 0.187958
gen: 17000 best: 0.187959
gen: 17500 best: 0.187959
gen: 18000 best: 0.187960
gen: 18500 best: 0.187968
gen: 19000 best: 0.187968
gen: 19500 best: 0.187968
gen: 20000 best: 0.187982
gen: 20500 best: 0.187988
gen: 21000 best: 0.187988
gen: 21500 best: 0.187988
gen: 22000 best: 0.187988
gen: 22500 best: 0.187988
gen: 23000 best: 0.187988
gen: 23500 best: 0.187988
gen: 24000 best: 0.187988
gen: 24500 best: 0.187988
gen: 25000 best: 0.187991
gen: 25500 best: 0.187991
gen: 26000 best: 0.187991
gen: 26500 best: 0.187991
gen: 27000 best: 0.187991
gen: 27500 best: 0.187991
gen: 28000 best: 0.187991
gen: 28500 best: 0.187991
gen: 29000 best: 0.187991
gen: 29500 best: 0.187991
gen: 30000 best: 0.187991
gen: 30500 best: 0.187991
gen: 31000 best: 0.187992
gen: 31500 best: 0.187992
gen: 32000 best: 0.187992
gen: 32500 best: 0.187992
gen: 33000 best: 0.187992
gen: 33500 best: 0.187993
gen: 34000 best: 0.187993
gen: 34500 best: 0.187993
gen: 35000 best: 0.187993
gen: 35500 best: 0.187993
gen: 36000 best: 0.187993
gen: 36500 best: 0.187993
gen: 37000 best: 0.187993
gen: 37500 best: 0.187993
gen: 38000 best: 0.187993
gen: 38500 best: 0.187993
gen: 39000 best: 0.187993
gen: 39500 best: 0.187998
gen: 40000 best: 0.187998
gen: 40500 best: 0.187998
gen: 41000 best: 0.187998
gen: 41500 best: 0.187998
gen: 42000 best: 0.187998
gen: 42500 best: 0.187998
gen: 43000 best: 0.187998
gen: 43500 best: 0.187998
gen: 44000 best: 0.187998
gen: 44500 best: 0.187998
gen: 45000 best: 0.187998
gen: 45500 best: 0.187998
gen: 46000 best: 0.187998
gen: 46500 best: 0.187998
gen: 47000 best: 0.187998
gen: 47500 best: 0.187998
gen: 48000 best: 0.188002
gen: 48500 best: 0.188002
gen: 49000 best: 0.188002
gen: 49500 best: 0.188002
gen: 50000 best: 0.188002
gen: 50500 best: 0.188002
gen: 51000 best: 0.188004
gen: 51500 best: 0.188004
gen: 52000 best: 0.188004
gen: 52500 best: 0.188004
gen: 53000 best: 0.188004
gen: 53500 best: 0.188004
gen: 54000 best: 0.188004
gen: 54500 best: 0.188004
gen: 55000 best: 0.188004
gen: 55500 best: 0.188004
gen: 56000 best: 0.188004
gen: 56500 best: 0.188004
gen: 57000 best: 0.188004
gen: 57500 best: 0.188004
gen: 58000 best: 0.188005
gen: 58500 best: 0.188005
gen: 59000 best: 0.188005
gen: 59500 best: 0.188005
gen: 60000 best: 0.188005
gen: 60500 best: 0.188005
gen: 61000 best: 0.188005
gen: 61500 best: 0.188005
gen: 62000 best: 0.188005
gen: 62500 best: 0.188217
gen: 63000 best: 0.188284
gen: 63500 best: 0.188367
gen: 64000 best: 0.188367
gen: 64500 best: 0.188372
gen: 65000 best: 0.188378
gen: 65500 best: 0.188451
gen: 66000 best: 0.188474
gen: 66500 best: 0.188496
gen: 67000 best: 0.188567
gen: 67500 best: 0.188567
gen: 68000 best: 0.188585
gen: 68500 best: 0.188585
gen: 69000 best: 0.188585
gen: 69500 best: 0.188585
gen: 70000 best: 0.188585
