gen: 0 best: 0.075890
gen: 500 best: 0.108896
gen: 1000 best: 0.110479
gen: 1500 best: 0.112480
gen: 2000 best: 0.113124
gen: 2500 best: 0.115152
gen: 3000 best: 0.118399
gen: 3500 best: 0.121611
gen: 4000 best: 0.123466
gen: 4500 best: 0.124768
gen: 5000 best: 0.125560
gen: 5500 best: 0.125874
gen: 6000 best: 0.126236
gen: 6500 best: 0.126409
gen: 7000 best: 0.126466
gen: 7500 best: 0.126479
gen: 8000 best: 0.126505
gen: 8500 best: 0.126761
gen: 9000 best: 0.126872
gen: 9500 best: 0.127059
gen: 10000 best: 0.127113
gen: 10500 best: 0.127138
gen: 11000 best: 0.127327
gen: 11500 best: 0.127384
gen: 12000 best: 0.127474
gen: 12500 best: 0.127576
gen: 13000 best: 0.127933
gen: 13500 best: 0.128100
gen: 14000 best: 0.128143
gen: 14500 best: 0.128170
gen: 15000 best: 0.128236
gen: 15500 best: 0.128308
gen: 16000 best: 0.128555
gen: 16500 best: 0.128842
gen: 17000 best: 0.129110
gen: 17500 best: 0.129150
gen: 18000 best: 0.129184
gen: 18500 best: 0.129268
gen: 19000 best: 0.129344
gen: 19500 best: 0.129378
gen: 20000 best: 0.129389
gen: 20500 best: 0.129419
gen: 21000 best: 0.129435
gen: 21500 best: 0.129499
gen: 22000 best: 0.129518
gen: 22500 best: 0.129539
gen: 23000 best: 0.129539
gen: 23500 best: 0.129539
gen: 24000 best: 0.129548
gen: 24500 best: 0.129550
gen: 25000 best: 0.129599
gen: 25500 best: 0.129605
gen: 26000 best: 0.129660
gen: 26500 best: 0.129688
gen: 27000 best: 0.129790
gen: 27500 best: 0.129790
gen: 28000 best: 0.129790
gen: 28500 best: 0.129804
gen: 29000 best: 0.129843
gen: 29500 best: 0.129843
gen: 30000 best: 0.129851
gen: 30500 best: 0.129872
gen: 31000 best: 0.129872
gen: 31500 best: 0.129885
gen: 32000 best: 0.130040
gen: 32500 best: 0.130115
gen: 33000 best: 0.130162
gen: 33500 best: 0.130162
gen: 34000 best: 0.130180
gen: 34500 best: 0.130202
gen: 35000 best: 0.130250
gen: 35500 best: 0.130250
gen: 36000 best: 0.130258
gen: 36500 best: 0.130268
gen: 37000 best: 0.130300
gen: 37500 best: 0.130300
gen: 38000 best: 0.130406
gen: 38500 best: 0.130432
gen: 39000 best: 0.130448
gen: 39500 best: 0.130453
gen: 40000 best: 0.130462
gen: 40500 best: 0.130474
gen: 41000 best: 0.130491
gen: 41500 best: 0.130500
gen: 42000 best: 0.130511
gen: 42500 best: 0.130527
gen: 43000 best: 0.130533
gen: 43500 best: 0.130533
gen: 44000 best: 0.130533
gen: 44500 best: 0.130557
gen: 45000 best: 0.130563
gen: 45500 best: 0.130563
gen: 46000 best: 0.130565
gen: 46500 best: 0.130573
gen: 47000 best: 0.130614
gen: 47500 best: 0.130614
gen: 48000 best: 0.130661
gen: 48500 best: 0.130670
gen: 49000 best: 0.130822
gen: 49500 best: 0.130849
gen: 50000 best: 0.130859
gen: 50500 best: 0.130859
gen: 51000 best: 0.130859
gen: 51500 best: 0.130859
gen: 52000 best: 0.130861
gen: 52500 best: 0.130871
gen: 53000 best: 0.132022
gen: 53500 best: 0.132077
gen: 54000 best: 0.132094
gen: 54500 best: 0.132150
gen: 55000 best: 0.132223
gen: 55500 best: 0.132258
gen: 56000 best: 0.132270
gen: 56500 best: 0.132481
gen: 57000 best: 0.132508
gen: 57500 best: 0.132563
gen: 58000 best: 0.132615
gen: 58500 best: 0.132735
gen: 59000 best: 0.132751
gen: 59500 best: 0.132760
gen: 60000 best: 0.132786
gen: 60500 best: 0.132812
gen: 61000 best: 0.132820
gen: 61500 best: 0.132908
gen: 62000 best: 0.132930
gen: 62500 best: 0.133087
gen: 63000 best: 0.133132
gen: 63500 best: 0.133195
gen: 64000 best: 0.133217
gen: 64500 best: 0.133228
gen: 65000 best: 0.133287
gen: 65500 best: 0.133294
gen: 66000 best: 0.133317
gen: 66500 best: 0.133319
gen: 67000 best: 0.133393
gen: 67500 best: 0.133439
gen: 68000 best: 0.133456
gen: 68500 best: 0.133470
gen: 69000 best: 0.133498
gen: 69500 best: 0.133498
gen: 70000 best: 0.133517
