# architectures
phase1.architecture.length = 4
phase1.architecture = 8 15 10 2
phase1.architecture.hidden.activation = sigmoid
phase1.architecture.output.activation = tanh
phase2.architecture.length = 4
phase2.architecture = 14 20 12 2
phase2.architecture.hidden.activation = sigmoid
phase2.architecture.output.activation = tanh
wall.sensors = 6
car.sensors = 6

# other params
mutation.deviation = 0.500000
mutation.probability = 0.100000
alpha = 0.700000
beta = 0.500000

# static params
k.tournament = 3
population.size = 50
population.mean = 0.000000
population.deviation = 1.000000
mutation.mean = 0.000000
phase1.generations = 70000
phase2.generations = 70000
phase3.generations = 70000
number.of.steps = 500

# tracks params
train.number.of.tracks = 6
train.track.files = ../tracks/left1.txt ../tracks/right1.txt ../tracks/left2.txt ../tracks/right2.txt ../tracks/left4.txt ../tracks/right3.txt
train.number.of.cars = 2
train.car.unit = 50

test.number.of.tracks = 2
test.track.files = ../tracks/left4.txt ../tracks/right3.txt
test.number.of.cars = 2
test.car.unit = 50

# winner
winner.weights = -0.653339 0.528948 -0.868702 -1.078083 0.438880 0.093277 -0.139076 -0.629502 0.289794 -0.279951 0.027790 -0.488556 0.089027 -0.737100 -0.065274 0.287899 -0.537132 -0.892214 -0.348188 0.270271 0.165286 0.484575 -0.351132 0.184535 -0.744772 -0.163828 -0.280749 0.007896 0.479724 -0.210487 -0.845972 -0.464470 -0.462105 1.008281 0.467773 -0.098618 0.330578 0.413499 -0.120380 0.247495 0.494713 -0.658683 -0.261819 0.495990 0.376074 -0.075008 0.247211 0.311714 0.493763 -0.008304 0.354296 0.026491 0.427177 0.788237 -0.170910 -0.187017 0.719921 -0.312195 1.002701 -0.125853 -1.103188 -0.452587 0.990993 -0.036629 1.059882 0.350542 -1.503491 -0.264120 -1.469085 0.039337 0.467598 0.109115 0.376276 1.037910 -0.132353 -1.431115 0.631844 -0.345913 -0.825499 -0.376543 0.520004 -0.961539 0.574536 0.079155 -0.525483 -0.204802 0.346366 0.290078 -0.472419 0.941742 1.256033 1.139103 -0.452961 0.407988 0.401373 -0.125165 0.748270 0.595309 -0.955071 -0.059035 0.039225 0.676390 -0.013582 -0.038650 -0.283377 -0.339829 -0.679144 -0.181700 -0.765042 -0.109926 0.216430 0.140592 -0.677503 -0.088324 -0.177648 0.379790 -0.019190 -0.069371 -0.237577 0.393247 -0.300827 0.498549 0.785563 -1.251950 0.057238 -0.492559 1.123065 -0.620852 0.294397 0.066272 -0.397518 0.740495 -0.888130 -0.540115 -0.166391 0.909242 1.048433 0.316454 0.093583 -0.269579 -0.820691 1.396284 -0.760479 -0.180754 -0.091483 0.175906 -0.360226 -0.136051 -0.302536 -0.354519 -0.812521 0.225209 -0.106244 0.121164 -2.152897 0.821435 0.982960 0.280614 0.943552 -0.403614 0.085710 0.730982 -0.398223 -0.492447 -0.073478 -1.060865 -0.051245 -0.185603 0.751035 0.055642 0.379765 0.318463 -0.580089 0.320369 -0.226387 -0.508643 -0.244357 0.049541 0.524571 0.436902 0.137778 0.087763 -1.355765 -0.514401 -0.822509 0.015207 1.056938 0.159553 -0.230554 0.163062 0.650792 -0.323458 -0.724202 -0.331287 0.103076 0.630179 -0.761621 0.015574 -0.840735 0.113559 -0.197173 -0.134010 0.013839 -0.440439 -0.452946 0.278047 0.335513 0.161667 -0.297642 -0.975276 -1.119542 0.715549 0.404322 -0.006460 0.616774 -0.425005 -0.571501 -0.066791 -0.207706 -0.215540 0.699997 -0.607255 0.301065 0.080747 0.247357 0.223196 0.459727 -0.281400 0.634557 0.706043 0.232262 -0.367329 0.028301 0.962975 -0.074186 -0.871856 -0.678913 -0.085689 0.530690 0.253710 -0.035947 -0.843872 -0.771862 -0.004066 0.452912 -0.114755 0.363484 0.057185 0.385661 -0.164875 -0.179935 0.540851 -0.571852 -0.229775 -0.893176 0.425963 -0.708981 -0.655018 -0.018525 0.812161 -0.133125 0.001340 0.252313 -0.561908 0.668902 -0.010073 -0.117643 -0.625406 -0.266511 0.053645 -0.511893 0.022719 0.383475 0.137965 0.000549 0.384738 -0.678284 0.644599 0.600738 -0.392352 -0.250978 -0.125523 -0.003506 -0.171346 -0.653722 0.551673 -0.640650 0.586656 0.680675 0.083134 -0.264313 0.321006 -1.127096 -0.244471 -0.250388 0.331082 -0.142255 -0.089321 0.537324 0.826997 0.819272 -1.084398 -0.552244 0.644767 0.005378 0.833870 0.045775 0.468508 -0.446981 0.404947 0.128509 -1.118297 0.209281 0.116032 -0.260205 -0.297555 -0.096090 -0.057712 0.651068 0.331089 -0.265169 1.007067 -0.565098 -0.460115 -0.388218 0.194606 0.300448 1.264400 0.177506 -0.379656 0.157993 -0.074844 0.311257 -0.929934 -0.271578 1.107260 0.234394 0.026497 0.638686 -0.263916 0.252091 0.480603 0.458562 0.197565 -0.270647 0.317313 0.604547 0.666329 -1.921995 -0.128689 -0.393141 0.426535 -0.650023 0.457383 -0.154633 -0.825314 0.587856 0.491375 -0.226217 -0.179195 0.360943 0.926690 0.547476 -0.089003 0.295356 -0.689325 -0.665319 0.543439 0.466375 0.379606 -1.025546 0.737674 0.020777 -0.591734 -0.859495 0.836203 -1.107723 -0.611975 -0.388827 -0.429175 0.438615 0.064674 0.056799 -0.218818 -0.494044 0.180479 0.716893 -1.120848 -0.457961 -0.265685 0.489020 -0.361295 0.120145 0.037749 -0.470089 -0.282429 -0.395585 0.617897 1.262762 -0.181272 -0.221514 0.149698 -1.238731 0.147861 0.692339 -0.789279 -0.179020 -0.645902 -0.004804 0.029573 -0.751674 -0.289380 -0.475890 0.016768 0.318891 -0.152354 -0.791977 -0.286713 -0.702413 1.651450 -0.563162 -0.546809 0.103156 0.363179 -0.804434 1.186510 -0.498175 -0.177744 -0.498884 0.217747 0.519817 0.478509 -0.327926 0.337237 -0.550998 -0.506481 -0.675980 -0.607715 0.117369 -0.745654 0.520550 0.349672 -0.102521 -0.044479 1.007229 0.590551 0.996884 0.793752 -0.455344 -0.189682 -0.081133 0.357709 -0.177758 -0.241941 1.088919 0.140724 0.170594 0.943242 0.124635 -0.160346 0.033852 0.294609 0.194725 -0.232554 -0.377717 -0.396475 0.693225 -0.506840 0.124069 0.052240 0.773315 0.253468 0.284303 -0.280218 0.065797 0.395097 -0.346397 1.041296 0.641258 1.574856 0.496486 -0.038694 -0.084849 0.208122 0.637393 0.245991 -0.743774 0.536788 0.234361 0.684380 -0.203863 -1.164435 0.353879 0.198189 -0.196292 -0.234631 -0.313155 1.063577 -0.987361 -0.961572 -0.759985 -0.486491 0.879086 0.374684 0.712694 0.436592 -0.136194 0.924120 0.341874 -1.052961 0.111863 -0.199889 0.106332 -0.647322 -0.031341 -0.286098 0.251544 -0.301820 0.455042 -0.308866 0.094356 0.071705 -0.180389 0.658325 0.014870 -0.001514 0.453665 0.024273 -0.279677 0.097822 0.207954 -0.279193 1.216858 -0.454792 -0.464491 0.470917 0.129397 0.042421 -0.287385 -0.373035 -0.045145 0.189412 0.416185 0.221425 0.381741 -0.227618 -0.468344 -0.650526 0.432992 0.428301 0.136612 -0.327307 -0.907265 1.111523 -0.743606 0.520299 0.386477 0.018041 -1.010451 -0.963393 -1.564057 0.230029 1.139311 0.269471 -0.431326 1.354406 0.216358 0.297532 0.262402 -0.975101 0.138332 -0.626644 -0.306736 0.608111 -0.244616 -0.079605 -0.064370 0.083085
winner.fitness = 0.056866
