gen: 0 best: 0.023483
gen: 500 best: 0.025091
gen: 1000 best: 0.036710
gen: 1500 best: 0.050193
gen: 2000 best: 0.051918
gen: 2500 best: 0.052944
gen: 3000 best: 0.053864
gen: 3500 best: 0.054406
gen: 4000 best: 0.054908
gen: 4500 best: 0.055337
gen: 5000 best: 0.055917
gen: 5500 best: 0.056120
gen: 6000 best: 0.056505
gen: 6500 best: 0.056732
gen: 7000 best: 0.056827
gen: 7500 best: 0.056961
gen: 8000 best: 0.057067
gen: 8500 best: 0.057176
gen: 9000 best: 0.057397
gen: 9500 best: 0.057460
gen: 10000 best: 0.057483
gen: 10500 best: 0.057634
gen: 11000 best: 0.057648
gen: 11500 best: 0.057681
gen: 12000 best: 0.057726
gen: 12500 best: 0.057795
gen: 13000 best: 0.057931
gen: 13500 best: 0.058049
gen: 14000 best: 0.061788
gen: 14500 best: 0.061806
gen: 15000 best: 0.061847
gen: 15500 best: 0.061847
gen: 16000 best: 0.061847
gen: 16500 best: 0.061855
gen: 17000 best: 0.061885
gen: 17500 best: 0.061905
gen: 18000 best: 0.061910
gen: 18500 best: 0.061917
gen: 19000 best: 0.061926
gen: 19500 best: 0.061927
gen: 20000 best: 0.061928
gen: 20500 best: 0.061932
gen: 21000 best: 0.061932
gen: 21500 best: 0.061965
gen: 22000 best: 0.061969
gen: 22500 best: 0.061978
gen: 23000 best: 0.061991
gen: 23500 best: 0.061991
gen: 24000 best: 0.061992
gen: 24500 best: 0.061997
gen: 25000 best: 0.061997
gen: 25500 best: 0.061999
gen: 26000 best: 0.062012
gen: 26500 best: 0.062043
gen: 27000 best: 0.062061
gen: 27500 best: 0.062080
gen: 28000 best: 0.062088
gen: 28500 best: 0.062088
gen: 29000 best: 0.062094
gen: 29500 best: 0.062097
gen: 30000 best: 0.062097
gen: 30500 best: 0.062097
gen: 31000 best: 0.062103
gen: 31500 best: 0.062103
gen: 32000 best: 0.062103
gen: 32500 best: 0.062108
gen: 33000 best: 0.062112
gen: 33500 best: 0.062112
gen: 34000 best: 0.062112
gen: 34500 best: 0.062112
gen: 35000 best: 0.062112
gen: 35500 best: 0.062117
gen: 36000 best: 0.062143
gen: 36500 best: 0.062143
gen: 37000 best: 0.062159
gen: 37500 best: 0.062193
gen: 38000 best: 0.062316
gen: 38500 best: 0.062402
gen: 39000 best: 0.062432
gen: 39500 best: 0.062508
gen: 40000 best: 0.062590
gen: 40500 best: 0.062607
gen: 41000 best: 0.062671
gen: 41500 best: 0.062682
gen: 42000 best: 0.062682
gen: 42500 best: 0.062692
gen: 43000 best: 0.062699
gen: 43500 best: 0.062699
gen: 44000 best: 0.062705
gen: 44500 best: 0.062710
gen: 45000 best: 0.062711
gen: 45500 best: 0.062749
gen: 46000 best: 0.062786
gen: 46500 best: 0.062845
gen: 47000 best: 0.062863
gen: 47500 best: 0.062890
gen: 48000 best: 0.062910
gen: 48500 best: 0.063056
gen: 49000 best: 0.063062
gen: 49500 best: 0.063070
gen: 50000 best: 0.063076
gen: 50500 best: 0.063089
gen: 51000 best: 0.063096
gen: 51500 best: 0.063098
gen: 52000 best: 0.063098
gen: 52500 best: 0.063104
gen: 53000 best: 0.063104
gen: 53500 best: 0.063113
gen: 54000 best: 0.063113
gen: 54500 best: 0.063114
gen: 55000 best: 0.063114
gen: 55500 best: 0.063114
gen: 56000 best: 0.063114
gen: 56500 best: 0.063114
gen: 57000 best: 0.063114
gen: 57500 best: 0.063114
gen: 58000 best: 0.063114
gen: 58500 best: 0.063114
gen: 59000 best: 0.063134
gen: 59500 best: 0.063181
gen: 60000 best: 0.063188
gen: 60500 best: 0.063191
gen: 61000 best: 0.063199
gen: 61500 best: 0.063212
gen: 62000 best: 0.063217
gen: 62500 best: 0.063234
gen: 63000 best: 0.063234
gen: 63500 best: 0.063234
gen: 64000 best: 0.063234
gen: 64500 best: 0.063234
gen: 65000 best: 0.063238
gen: 65500 best: 0.063238
gen: 66000 best: 0.063240
gen: 66500 best: 0.063240
gen: 67000 best: 0.063240
gen: 67500 best: 0.063241
gen: 68000 best: 0.063241
gen: 68500 best: 0.063241
gen: 69000 best: 0.063315
gen: 69500 best: 0.063436
gen: 70000 best: 0.063455
