# architectures
phase1.architecture.length = 4
phase1.architecture = 8 15 10 2
phase1.architecture.hidden.activation = sigmoid
phase1.architecture.output.activation = tanh
phase2.architecture.length = 4
phase2.architecture = 14 20 12 2
phase2.architecture.hidden.activation = sigmoid
phase2.architecture.output.activation = tanh
wall.sensors = 6
car.sensors = 6

# other params
mutation.deviation = 0.050000
mutation.probability = 0.010000
alpha = 0.700000
beta = 0.300000

# static params
k.tournament = 3
population.size = 50
population.mean = 0.000000
population.deviation = 1.000000
mutation.mean = 0.000000
phase1.generations = 70000
phase2.generations = 70000
phase3.generations = 70000
number.of.steps = 500

# tracks params
train.number.of.tracks = 6
train.track.files = ../tracks/left1.txt ../tracks/right1.txt ../tracks/left2.txt ../tracks/right2.txt ../tracks/left4.txt ../tracks/right3.txt
train.number.of.cars = 2
train.car.unit = 50

test.number.of.tracks = 2
test.track.files = ../tracks/left4.txt ../tracks/right3.txt
test.number.of.cars = 2
test.car.unit = 50

# winner
winner.weights = 0.099057 0.235535 0.072210 -0.227321 0.217597 0.064831 0.173160 -0.222069 -0.150790 -0.241090 -0.272285 0.026493 -0.368984 0.034576 0.561434 -0.077156 -0.136836 0.524528 -0.210259 -0.162034 0.096095 0.503910 -0.039293 -0.167825 0.136210 0.124346 0.130103 -0.280950 0.312705 -0.319387 -0.497462 0.137136 0.103592 0.031375 -0.543836 -0.336961 -0.572837 -0.270512 -0.443749 -0.173284 0.268285 -0.323144 0.020250 0.004397 0.275801 0.307922 0.127714 0.128167 0.050274 -0.165564 0.012152 -0.282983 0.223102 -0.138184 0.214671 -0.067179 -0.296467 -0.102756 -0.366466 -0.139227 0.184863 0.212144 -0.158207 0.292970 0.029748 0.215857 -0.209647 -0.060140 0.144513 -0.209189 -0.011173 -0.281694 -0.038739 0.002595 0.335079 0.259222 0.012998 -0.081240 -0.107077 -0.164099 0.087914 -0.343881 -0.165823 -0.089547 -0.265079 -0.111678 -0.350719 -0.474442 -0.123752 -0.659904 0.133392 -0.488560 -0.111530 0.406171 0.255113 -0.058664 -0.639152 -0.410067 0.428440 -0.147487 0.184583 0.030247 -0.057281 -0.187882 0.243936 0.145603 -0.213050 -0.433781 -0.190018 0.156788 0.341518 0.251668 0.040604 0.072787 -0.063085 -0.047146 0.228181 0.023516 0.124841 -0.054020 -0.113641 -0.077681 0.092986 -0.009344 -0.247561 0.096290 0.318363 0.387386 -0.229451 0.426064 -0.086237 0.377215 -0.384576 0.243594 -0.221759 -0.395678 -0.439330 -0.019520 -0.307488 0.241661 0.007540 -0.033198 0.173434 -0.105048 -0.068960 0.081434 -0.012999 0.321212 -0.230004 0.111378 -0.015205 -0.134675 0.445733 0.045700 -0.091193 0.274706 0.503187 -0.017744 0.299340 -0.183368 0.297172 0.082565 -0.008542 0.010309 -0.510755 -0.147961 -0.039282 -0.049842 0.148138 -0.054124 -0.103785 -0.142870 -0.124376 -0.149061 -0.487325 0.109072 0.015456 -0.412225 0.032295 -0.312228 0.387939 0.219675 -0.521126 0.157686 0.336720 0.159241 -0.526780 -0.316657 0.204034 -0.328961 0.108928 0.118628 0.004293 0.176529 0.191673 0.098780 0.051963 -0.482022 0.172388 0.196395 -0.720198 0.082030 -0.189200 0.636596 -0.295142 0.023754 -0.055898 -0.206593 -0.336988 0.131767 0.002757 0.339522 -0.054410 -0.175847 0.147990 0.212305 -0.050429 -0.175476 0.393722 -0.469770 0.044011 0.455881 -0.159208 0.140979 0.034884 -0.311235 -0.140135 0.012079 0.227111 0.244107 -0.035608 -0.435391 -0.017635 -0.003128 -0.175824 0.207221 -0.080053 -0.487206 -0.234642 0.241844 0.088985 0.037657 -0.168432 0.004865 -0.453042 0.241839 -0.225805 0.136755 0.455669 0.066434 -0.211206 0.187041 0.146451 0.254816 -0.347091 -0.189865 -0.326818 -0.283604 0.002707 0.294490 -0.445371 0.322667 0.097637 -0.090564 0.144793 -0.213060 -0.358098 0.057625 -0.228003 0.338609 -0.018050 0.376108 0.452868 0.096642 0.100434 0.096470 0.175397 0.163864 0.435974 -0.068647 -0.044262 -0.257730 0.191063 0.229058 -0.116081 0.023190 -0.236041 0.030662 -0.013746 -0.460435 -0.292036 -0.486660 0.037965 0.042840 0.153106 0.058679 0.102631 0.351893 -0.013414 -0.047235 -0.022605 -0.002294 0.259958 -0.077921 0.191145 -0.060195 -0.050101 0.135464 -0.546784 0.255635 -0.122918 0.089062 0.155334 -0.298842 -0.006263 -0.160403 0.254002 0.053700 -0.171060 -0.135423 -0.201801 0.540733 -0.052065 -0.035189 0.130953 -0.418431 0.200278 -0.085741 -0.036782 0.259995 -0.146220 -0.017844 0.166048 -0.125218 -0.070982 0.018660 -0.212031 0.168146 0.176078 0.411403 -0.283473 0.252738 0.077591 0.020364 0.241008 0.446331 0.017876 0.286226 -0.311176 -0.246919 -0.191078 0.084967 0.156686 0.095458 -0.431960 0.171803 0.061517 0.129245 -0.112835 -0.404177 0.076288 0.387322 -0.044757 -0.116414 0.055233 -0.086763 -0.139908 -0.194438 0.028042 0.240761 0.131192 -0.336590 -0.005645 0.194215 0.501700 -0.197487 0.060085 0.277763 -0.464886 0.126285 -0.267435 0.196493 -0.121374 0.185532 0.344312 -0.110062 0.236823 -0.246285 0.121499 0.089083 0.259998 0.141367 0.190782 0.049568 0.030195 0.601432 -0.159536 -0.186821 -0.327352 -0.226813 0.007685 0.027133 -0.065652 -0.315193 0.072582 -0.001426 0.213426 0.199464 0.446211 -0.345384 0.075263 -0.026827 0.103053 0.110340 -0.093280 -0.213767 0.033684 0.016012 -0.209753 0.078650 0.242400 -0.108496 0.442541 -0.123919 0.146757 0.187708 -0.289093 -0.010434 -0.080019 -0.303015 -0.118289 0.406409 -0.101862 0.267889 0.254900 -0.524165 0.074888 0.127058 -0.155922 -0.337074 -0.207548 -0.157389 -0.206351 -0.384920 -0.390698 -0.185887 -0.251281 -0.196578 0.146315 0.262750 0.480552 -0.344656 -0.197644 0.000294 0.008829 -0.032372 -0.157364 -0.160810 0.135068 -0.286172 -0.184900 -0.277415 -0.402522 -0.101646 0.220388 -0.020243 -0.299171 0.308525 0.180097 -0.168640 -0.758319 0.456035 -0.220532 0.317503 -0.073163 0.221258 -0.050466 0.265967 0.469001 -0.361719 0.020112 0.138515 -0.075335 -0.075034 -0.130417 -0.024283 0.277873 -0.310260 0.208807 -0.194203 0.122224 0.108187 -0.146323 -0.345762 0.351138 -0.055347 -0.065535 -0.412656 0.686915 0.359817 0.235430 0.155758 -0.241756 -0.246276 -0.187049 0.088291 -0.024082 0.518449 0.220346 -0.153832 -0.035093 -0.276349 -0.494882 0.612262 -0.169726 -0.013963 -0.385615 -0.026246 0.121451 -0.493750 -0.107703 -0.228577 0.108148 0.436868 0.236907 0.031221 -0.161084 0.785590 -0.000795 -0.019899 -0.248027 -0.193536 -0.130125 0.477424 0.054090 0.254251 -0.045286 -0.097180 0.429087 -0.484594 -0.034749 -0.142152 -0.179983 -0.281736 -0.296021 -0.046960 -0.268585 0.069355 -0.266512 0.043174 0.480541 0.010616 -0.515869 -0.027978 -0.494974 -0.081556 0.289711 0.379125 0.136457 0.330789 0.653380 -0.321324 0.195773 -0.175121 -0.144044 0.401990 0.230927 -0.171795 0.097887 -0.224934 -0.368346 0.488263 0.194789 0.001429 -0.713248 -0.003581 -0.321226 0.111938
winner.fitness = 0.039607
