6;8;10
0.056369;0.107736;0.134037
0.073341;0.165711;0.081610
0.066083;0.129214;0.139710
0.098978;0.060660;0.126157
0.105829;0.114292;0.126969
0.068779;0.133501;0.138415
0.061598;0.176889;0.065674
0.056866;0.061694;0.125392
0.110125;0.121058;0.133543
0.033598;0.051156;0.055513
0.040044;0.068473;0.034145
0.069086;0.068627;0.060283
0.032132;0.030584;0.032744
0.053896;0.068406;0.055066
0.055822;0.065273;0.063530
0.033285;0.060851;0.028484
0.054804;0.053828;0.067016
0.054636;0.071675;0.053750
0.032438;0.030060;0.062014
0.040356;0.063352;0.031376
0.076602;0.063379;0.080784
0.033019;0.031540;0.023962
0.052313;0.055943;0.037196
0.067740;0.049103;0.059284
0.036824;0.061807;0.022241
0.028833;0.067891;0.054626
0.064733;0.031600;0.056846
0.038942;0.037350;0.039534
0.037327;0.038467;0.054921
0.027535;0.039396;0.042170
0.034244;0.034118;0.040754
0.038506;0.054145;0.053770
0.039001;0.043361;0.056943
0.039607;0.032375;0.037487
0.039195;0.038520;0.054937
0.042535;0.039792;0.041765
0.031997;0.054823;0.058742
0.067533;0.062622;0.064307
0.076769;0.066912;0.055221
0.055434;0.057960;0.059200
0.053190;0.065654;0.059095
0.054232;0.066674;0.065609
0.032018;0.028215;0.090636
0.051473;0.031274;0.051577
0.067903;0.055470;0.065097
0.038883;0.037222;0.038092
0.040129;0.041566;0.041681
0.055550;0.038314;0.042268
0.038892;0.040324;0.039785
0.040403;0.032945;0.039248
0.048254;0.056025;0.056337
0.039034;0.039568;0.038522
0.040155;0.037637;0.039939
0.039295;0.048768;0.063830
0.037194;0.039641;0.039256
0.037537;0.040057;0.038217
0.037819;0.037566;0.037422
0.037871;0.037309;0.036956
0.040038;0.040187;0.040083
0.031781;0.039854;0.038020
0.030032;0.037504;0.036957
0.037629;0.037296;0.037682
0.040163;0.037238;0.039273
0.037103;0.255056;0.037179
0.037271;0.037325;0.037291
0.037536;0.037479;0.037561
0.037020;0.037088;0.026334
0.026494;0.031381;0.037674
0.037637;0.037351;0.036932
0.037117;0.037220;0.037138
0.037922;0.037437;0.037832
0.037578;0.037623;0.037457
