# architectures
phase1.architecture.length = 4
phase1.architecture = 8 15 10 2
phase1.architecture.hidden.activation = tanh
phase1.architecture.output.activation = tanh
phase2.architecture.length = 4
phase2.architecture = 14 20 12 2
phase2.architecture.hidden.activation = tanh
phase2.architecture.output.activation = tanh
wall.sensors = 6
car.sensors = 6

# other params
mutation.deviation = 0.050000
mutation.probability = 0.100000
alpha = 0.300000
beta = 0.700000

# static params
k.tournament = 3
population.size = 50
population.mean = 0.000000
population.deviation = 1.000000
mutation.mean = 0.000000
phase1.generations = 70000
phase2.generations = 70000
phase3.generations = 70000
number.of.steps = 500

# tracks params
train.number.of.tracks = 6
train.track.files = ../tracks/left1.txt ../tracks/right1.txt ../tracks/left2.txt ../tracks/right2.txt ../tracks/left4.txt ../tracks/right3.txt
train.number.of.cars = 2
train.car.unit = 50

test.number.of.tracks = 2
test.track.files = ../tracks/left4.txt ../tracks/right3.txt
test.number.of.cars = 2
test.car.unit = 50

# winner
winner.weights = 0.218614 -0.052187 0.280079 0.031928 0.466803 0.022712 0.256505 0.559225 -0.283240 0.492680 -0.027741 0.031098 -0.378696 -0.381102 -0.089353 0.085979 -0.038866 -0.270241 0.159009 0.278890 0.214030 0.064347 -0.198358 -0.382142 -0.182220 0.145811 -0.048913 -0.232877 0.385965 0.251481 0.116749 -0.169890 -0.026359 -0.146794 -0.190777 0.070831 0.049225 0.301113 -0.436892 -0.436030 -0.142944 -0.032117 -0.163428 0.108822 0.198746 -0.382603 -0.055381 0.137872 -0.028324 -0.026134 -0.106759 0.004579 -0.300758 0.027585 0.449997 -0.099825 -0.276710 0.052274 0.119048 -0.116401 0.251947 0.181476 -0.166139 0.111143 -0.066170 0.483495 0.205242 -0.219246 0.409102 0.130001 0.020723 -0.091802 0.096107 0.073538 0.256535 0.109086 0.195331 -0.047749 -0.085190 -0.085113 -0.198217 0.010237 0.151024 -0.149497 0.218595 -0.147642 0.151835 0.188546 0.009033 0.178525 -0.356376 0.133686 0.159511 0.037974 0.280519 -0.317022 -0.287972 -0.345443 -0.036082 -0.164353 -0.225042 -0.384146 -0.635878 -0.436642 0.336180 -0.069920 -0.251358 -0.161480 0.197876 -0.253936 -0.163999 0.202404 -0.037741 0.156413 -0.068349 0.101278 -0.160592 0.091078 -0.319916 -0.131469 -0.112139 -0.031433 -0.286280 -0.061344 -0.032349 -0.071722 0.316831 -0.318922 -0.116181 -0.063207 0.256894 0.011569 0.355826 -0.579374 0.060408 -0.255461 -0.287966 0.192979 -0.095633 -0.104382 -0.261217 -0.453169 0.191336 0.094061 0.275094 0.597386 -0.051346 0.242412 -0.088289 -0.110739 -0.513196 0.662282 -0.137950 -0.420965 -0.192429 -0.117547 -0.201521 0.001108 0.022479 0.167721 -0.302660 0.126900 0.425384 0.215079 -0.213074 -0.185042 -0.111362 -0.179539 -0.091773 0.335374 0.202942 -0.284750 -0.018936 0.350397 0.079929 -0.090508 -0.008104 -0.396981 -0.149531 -0.052619 -0.011361 0.020018 -0.140416 -0.351119 -0.700272 0.070505 0.084861 -0.001652 -0.214771 -0.025030 -0.180859 -0.067611 -0.268497 -0.079239 -0.069165 -0.363141 0.099248 0.017235 0.046248 0.081973 -0.302994 0.413653 -0.444312 -0.315239 -0.047753 0.086893 0.224792 0.300623 0.234790 0.097257 0.171335 -0.063072 0.245013 0.199318 -0.036276 0.241677 -0.123726 -0.044987 -0.029483 -0.252221 -0.035575 -0.036922 0.022960 0.006419 0.079383 -0.060908 0.102754 0.025675 0.038127 -0.153827 -0.401002 0.112005 -0.176471 0.291480 0.519410 0.151965 0.280099 0.202854 -0.101530 -0.000074 -0.033663 0.134395 -0.314056 -0.120372 0.281485 0.017104 -0.010183 -0.436608 -0.169667 -0.134355 0.296053 -0.449501 0.334251 -0.395411 0.073265 0.212562 0.121703 0.095574 -0.109573 -0.114205 -0.091357 -0.247099 0.199174 0.122267 -0.347329 -0.132523 -0.021761 0.248050 0.116496 -0.242265 -0.318556 0.195190 0.249648 0.120041 -0.117118 0.081366 0.548628 -0.042570 0.098324 0.037777 -0.310514 -0.122760 -0.342858 -0.030410 -0.086374 0.389414 -0.208910 0.309141 -0.089511 0.207285 -0.047303 -0.092820 -0.077741 -0.033159 0.384631 0.079368 -0.097601 -0.003143 -0.187842 0.121912 0.117150 -0.245492 0.262343 0.007729 -0.149733 -0.135329 -0.064401 -0.008726 0.299971 -0.370225 -0.037467 -0.048437 0.510476 0.207174 0.145809 0.278478 -0.050417 -0.070030 -0.049682 -0.018852 0.061530 -0.458044 -0.446141 -0.099657 0.113074 0.174309 0.103323 0.314049 -0.238068 0.035210 0.267478 0.144540 0.444244 0.491026 0.042208 -0.368141 0.131190 0.336544 0.706068 -0.107022 -0.227969 -0.067638 0.069336 0.112957 0.026811 -0.277427 0.215752 -0.040235 0.198859 -0.240836 -0.530164 0.347714 0.147245 0.031413 0.061449 -0.272790 0.122323 -0.079115 0.094245 0.329165 -0.356393 -0.021549 -0.159226 -0.089149 -0.451601 0.529440 -0.091546 0.147063 0.290460 0.214631 -0.073251 0.176709 0.095017 0.160040 0.313216 -0.061915 0.079644 -0.008344 -0.657242 0.211929 -0.110046 0.005160 0.304203 -0.386926 0.488521 0.142959 0.100880 0.058137 0.271805 0.048565 0.344458 -0.405055 0.209549 -0.071464 0.145482 0.134877 -0.004554 0.352679 -0.020937 -0.128873 0.074841 0.218147 -0.495856 0.348085 -0.318583 -0.093696 -0.082414 0.080058 0.114356 0.051352 0.215143 0.357931 0.246203 0.137260 -0.023496 0.046155 0.186700 -0.002355 0.179950 0.200843 -0.387529 0.161191 -0.053112 0.101658 0.214202 -0.114798 0.205127 0.163250 0.170719 -0.485931 0.099870 0.075549 -0.055795 0.326545 -0.226664 0.159239 0.161191 -0.095713 -0.299391 0.265763 0.258541 0.043486 -0.071129 0.431927 0.334893 0.050623 -0.241462 -0.584329 0.223562 -0.126654 0.061154 0.074758 -0.345643 0.019345 0.129211 0.136367 0.505170 0.189207 -0.135084 -0.205560 -0.261316 -0.069492 -0.133103 -0.232793 -0.097750 -0.336846 -0.193056 0.512066 -0.296237 0.278316 0.138111 -0.162443 -0.018267 -0.310631 -0.102740 0.186503 0.150605 0.161547 -0.140306 -0.128285 0.247830 -0.034459 -0.192767 0.425369 -0.079967 0.463161 -0.350135 0.147793 0.181633 -0.231287 -0.328219 -0.180101 0.056553 0.323710 -0.221042 0.173589 0.046344 -0.389777 -0.111633 -0.108699 -0.084039 -0.059404 0.040094 0.029230 -0.027406 0.350830 0.019571 -0.180078 -0.029854 0.193485 -0.315958 0.265863 -0.276808 -0.080032 0.401642 -0.202167 0.376829 -0.075562 -0.069364 -0.288517 0.060691 -0.543534 0.110214 -0.365135 -0.235132 -0.330179 -0.470708 0.094450 -0.012822 0.011882 -0.607296 0.313523 0.283533 0.192523 0.342175 0.347689 0.151021 -0.490946 -0.127818 -0.236553 -0.481910 -0.498759 0.226034 0.136762 -0.143350 -0.191361 -0.105665 0.023496 0.289273 -0.107728 -0.250760 0.012683 -0.129544 -0.396122 -0.417096 -0.214366 -0.486864 -0.527968 0.186151 0.130001 -0.023476 0.129164 -0.124935 -0.414190 -0.153427 0.550151 -0.166420 0.422342 0.164071 0.306009 -0.028982 0.350463 0.344381 0.162628 0.330044 0.086048 -0.204077 -0.206070
winner.fitness = 0.037819
