# architectures
phase1.architecture.length = 4
phase1.architecture = 12 15 10 2
phase1.architecture.hidden.activation = tanh
phase1.architecture.output.activation = tanh
phase2.architecture.length = 4
phase2.architecture = 22 20 12 2
phase2.architecture.hidden.activation = tanh
phase2.architecture.output.activation = tanh
wall.sensors = 10
car.sensors = 10

# other params
mutation.deviation = 0.050000
mutation.probability = 0.010000
alpha = 0.700000
beta = 0.500000

# static params
k.tournament = 3
population.size = 50
population.mean = 0.000000
population.deviation = 1.000000
mutation.mean = 0.000000
phase1.generations = 70000
phase2.generations = 70000
phase3.generations = 70000
number.of.steps = 500

# tracks params
train.number.of.tracks = 6
train.track.files = ../tracks/left1.txt ../tracks/right1.txt ../tracks/left2.txt ../tracks/right2.txt ../tracks/left4.txt ../tracks/right3.txt
train.number.of.cars = 2
train.car.unit = 50

test.number.of.tracks = 2
test.track.files = ../tracks/left4.txt ../tracks/right3.txt
test.number.of.cars = 2
test.car.unit = 50

# winner
winner.weights = 0.197191 0.005352 -0.045236 -0.047914 -0.138603 -0.429341 -0.004411 0.108627 0.082833 0.009660 0.009610 0.095560 -0.009322 -0.046672 -0.006947 0.092098 0.096313 0.112628 0.057894 -0.246329 -0.065825 0.026567 -0.133268 0.220099 -0.043464 0.077250 0.066121 0.029024 0.079681 -0.194410 0.108149 0.083569 -0.269071 0.119698 -0.286596 0.072751 0.007041 0.009719 -0.029984 -0.036242 0.118211 0.193996 -0.160047 -0.130404 0.209865 -0.043163 -0.133004 -0.074339 -0.056731 0.032107 0.228036 -0.221450 0.150641 0.053448 -0.076973 0.184786 0.252686 -0.098026 0.091934 0.092530 -0.236896 0.098597 -0.343560 -0.043738 0.232843 0.220274 -0.165589 -0.117465 -0.091422 0.122034 0.157059 0.049661 0.284249 0.105229 0.266367 -0.024073 0.096070 0.088839 0.334005 -0.052946 -0.620535 0.141050 0.093909 0.120464 0.161651 -0.197960 -0.087414 0.017997 0.133536 0.037150 -0.111910 -0.063810 0.185292 -0.231895 0.052571 -0.095819 -0.014433 0.308535 0.033746 -0.051326 0.096985 -0.029593 0.035881 0.243078 0.049179 0.194079 0.202158 -0.157383 -0.040596 -0.331382 0.168512 -0.206705 0.259320 -0.132393 -0.160014 -0.148974 0.079050 -0.081010 -0.158695 0.002032 -0.117702 -0.140487 -0.318480 -0.074775 -0.176727 -0.030151 0.084157 -0.095315 0.249073 -0.032297 0.292240 -0.053436 0.243698 0.262514 -0.043514 0.146204 -0.041304 -0.260586 -0.019353 -0.047055 -0.110624 -0.092718 0.043886 0.050664 0.131941 -0.311699 0.057564 -0.119493 -0.144277 -0.135624 0.036504 0.541412 -0.395385 0.082160 -0.080178 0.237879 0.177159 0.129336 0.048271 -0.466538 0.153689 0.146799 -0.055182 -0.026555 -0.026591 -0.126603 -0.039802 0.049289 0.027501 -0.114921 0.009833 -0.375887 -0.250934 0.391692 -0.236919 -0.083174 0.065032 -0.016434 -0.224420 -0.009251 0.312025 -0.066961 -0.093719 -0.306844 0.147016 0.275190 -0.113748 -0.113382 -0.118758 0.145379 -0.119472 0.189638 -0.043014 0.022843 -0.042603 0.056067 0.500602 -0.063331 0.214439 0.023836 -0.058691 0.120906 -0.236289 0.033852 -0.001819 -0.158725 -0.036417 -0.047060 -0.269803 -0.040211 -0.104877 -0.161638 0.102754 -0.185680 -0.057920 0.321641 -0.444573 0.036766 0.019262 -0.016227 0.152792 -0.311905 -0.404532 0.164433 -0.036542 -0.081523 0.160696 -0.216572 -0.073224 0.150835 0.229524 0.175672 0.152297 -0.030035 -0.066013 -0.093171 0.083955 0.138933 -0.072780 0.153839 0.038202 0.067607 -0.102931 -0.123713 0.051620 -0.090679 0.009005 0.101826 -0.028728 -0.303942 -0.109226 -0.117794 -0.072788 -0.184388 0.041592 -0.034731 0.056902 0.051034 -0.110973 0.049431 0.047233 0.107052 -0.177718 0.068439 0.062963 0.040141 0.020384 -0.011964 0.014513 -0.029031 0.003846 -0.218998 -0.228945 0.135041 0.005133 -0.245885 -0.045441 -0.112904 -0.147021 -0.137006 0.016195 0.081639 0.146031 0.126823 0.237035 0.130743 -0.155045 0.000227 0.158272 -0.288524 -0.134263 0.094614 0.127147 0.148130 0.003772 0.085972 0.118966 -0.341725 0.162876 -0.125162 -0.257433 0.220811 -0.276885 0.031426 0.068383 -0.007347 -0.001895 -0.045851 0.231536 0.163689 0.014308 0.170147 0.038524 0.208199 0.067516 -0.113925 -0.229275 0.207884 0.129897 0.120014 -0.080895 -0.078529 -0.240332 -0.140776 0.359024 -0.514782 -0.139153 -0.189659 -0.058536 -0.218499 -0.276072 -0.273745 -0.062021 -0.025098 -0.332275 -0.054597 -0.037502 -0.149304 -0.053398 -0.189119 0.003713 0.087808 -0.361044 -0.096240 0.049115 0.092716 0.177153 0.265434 0.007232 0.327617 -0.050276 -0.188222 0.104915 -0.134777 -0.171107 -0.015935 -0.022371 0.307228 0.104624 -0.278856 -0.129977 0.132559 0.025563 0.006144 -0.321823 0.202195 0.237573 0.005488 -0.492100 0.131541 -0.107132 -0.151106 0.153807 0.021956 -0.222997 0.229744 -0.032180 0.087325 -0.049792 -0.085872 -0.149516 0.179963 -0.083662 0.252503 -0.280786 -0.095537 -0.449605 -0.138900 -0.016835 -0.062832 0.041860 0.053114 0.315487 -0.391748 -0.248149 -0.000634 0.236622 0.188720 0.051207 -0.281711 -0.169400 0.139743 0.175781 0.021595 -0.077167 0.187564 0.037818 0.201086 -0.037308 0.058565 -0.167691 -0.051612 -0.263065 -0.160960 0.066202 -0.236837 0.113508 0.049296 0.062145 0.122909 0.015883 -0.209854 0.050156 0.171242 -0.055423 -0.224591 0.184180 0.120232 -0.122815 -0.129371 0.075316 -0.185902 0.026585 -0.223176 0.445261 -0.035685 -0.240267 0.304946 -0.370349 -0.175181 -0.116027 -0.164802 -0.201101 0.139314 0.063614 0.094071 0.193030 0.024611 0.095401 0.181944 -0.024260 -0.249123 0.084446 0.255671 0.188986 0.305391 0.199864 0.051037 0.213579 0.008273 0.207089 0.066155 -0.097008 0.177761 -0.180229 -0.376643 0.112942 -0.001887 -0.092806 -0.008851 -0.016147 0.097466 0.280918 0.280268 0.006959 0.088841 -0.018784 0.038071 0.202846 -0.262896 0.025728 0.234803 0.143184 0.088187 0.139704 0.073601 0.168319 0.077568 -0.113767 -0.107910 -0.302320 -0.012979 -0.097535 -0.237358 -0.084918 0.036876 -0.080266 0.010917 -0.046246 -0.252515 0.304309 -0.025747 -0.230717 0.123390 0.020458 0.022432 -0.150868 -0.404373 0.057971 0.036063 0.205724 -0.210191 0.145798 0.064575 0.336054 -0.127843 -0.060868 -0.157273 0.207502 0.194304 0.078479 0.242664 0.446114 0.237837 0.020413 0.066363 0.197191 0.160303 0.128107 -0.306680 0.038541 -0.144544 -0.008905 -0.226531 0.135833 -0.032768 -0.155012 -0.150045 -0.110415 0.285290 0.132116 0.014337 0.320110 0.035419 0.035278 -0.118100 -0.109429 -0.307643 -0.200697 0.198232 0.050337 0.123555 -0.189741 0.070102 0.010069 -0.250322 -0.154377 0.191927 0.063348 -0.108397 0.290091 -0.256491 -0.250095 0.287210 0.119295 0.024117 0.170879 -0.258147 -0.234642 0.097602 -0.156983 0.031790 0.001759 0.157006 0.118625 -0.056865 -0.258698 0.433771 0.019621 -0.031714 -0.241399 0.110368 0.275709 0.161489 -0.014180 -0.047272 -0.111806 0.197051 -0.333156 -0.110206 0.116490 0.031646 0.266451 -0.083487 -0.034238 -0.052600 0.027421 -0.014513 0.003908 0.187719 -0.109615 -0.093676 0.330813 -0.125155 -0.127970 -0.243170 -0.189995 -0.266897 0.039583 0.130123 0.283454 0.197833 0.249058 0.311535 -0.066842 -0.065566 0.145815 -0.078005 -0.283594 0.087187 0.176069 -0.149323 -0.062532 -0.082180 -0.027745 0.157096 0.135306 0.160762 0.212219 0.028845 0.219218 -0.343513 -0.009031 -0.173245 -0.091711 -0.178251 0.169766 0.033465 0.093716 -0.129159 0.007070 -0.178979 0.115226 0.101914 0.138045 -0.025074 0.086881 0.175631 -0.047921 0.010755 0.241679 -0.211074 0.152161 0.009471 -0.342827 -0.335011 0.085887 -0.048690 0.117060 0.206073 -0.094120 0.192407 0.095905 -0.098731 -0.309208 -0.255512 -0.041932 0.331730 -0.255911 0.095401 -0.030616 -0.379762 0.171994 0.174842 -0.095491 0.050004 0.056850 -0.108297 0.086827 0.009099 -0.032897 -0.094366 0.305605 0.221394 0.244336 0.162528 0.045366 0.046087 0.125466 -0.128149 -0.328808 -0.275125 0.003851 -0.014703 -0.019162 0.297290 -0.055716 0.217625 -0.344961 -0.383384 -0.140937 0.073174 -0.193395 0.045611 -0.172640 0.022526 -0.073657 0.078087 0.054331 -0.055420 0.007595 0.167560 -0.210613 -0.216395 0.020519 -0.018238 -0.224550 0.017405 -0.144755 -0.243293 -0.346822 -0.127932 -0.378442 -0.339545 -0.008141 0.092036 -0.065052 0.461708 0.248663 0.192332 0.423002 -0.215594 -0.049056 0.495400 -0.019398 0.397341 0.295152 0.146652
winner.fitness = 0.037832
