gen: 0 best: 0.101058
gen: 500 best: 0.127504
gen: 1000 best: 0.153015
gen: 1500 best: 0.154271
gen: 2000 best: 0.157592
gen: 2500 best: 0.202005
gen: 3000 best: 0.218560
gen: 3500 best: 0.224562
gen: 4000 best: 0.226175
gen: 4500 best: 0.227477
gen: 5000 best: 0.227920
gen: 5500 best: 0.228421
gen: 6000 best: 0.229106
gen: 6500 best: 0.229867
gen: 7000 best: 0.230707
gen: 7500 best: 0.231265
gen: 8000 best: 0.232346
gen: 8500 best: 0.233396
gen: 9000 best: 0.234128
gen: 9500 best: 0.255015
gen: 10000 best: 0.261664
gen: 10500 best: 0.262743
gen: 11000 best: 0.263484
gen: 11500 best: 0.264442
gen: 12000 best: 0.265042
gen: 12500 best: 0.265135
gen: 13000 best: 0.265197
gen: 13500 best: 0.265681
gen: 14000 best: 0.265681
gen: 14500 best: 0.265681
gen: 15000 best: 0.265687
gen: 15500 best: 0.265746
gen: 16000 best: 0.265746
gen: 16500 best: 0.266157
gen: 17000 best: 0.266157
gen: 17500 best: 0.266157
gen: 18000 best: 0.266157
gen: 18500 best: 0.266157
gen: 19000 best: 0.266157
gen: 19500 best: 0.266157
gen: 20000 best: 0.266157
gen: 20500 best: 0.266157
gen: 21000 best: 0.266157
gen: 21500 best: 0.266189
gen: 22000 best: 0.273954
gen: 22500 best: 0.287370
gen: 23000 best: 0.287587
gen: 23500 best: 0.287587
gen: 24000 best: 0.287954
gen: 24500 best: 0.288096
gen: 25000 best: 0.288096
gen: 25500 best: 0.288096
gen: 26000 best: 0.288096
gen: 26500 best: 0.288139
gen: 27000 best: 0.288139
gen: 27500 best: 0.288139
gen: 28000 best: 0.288219
gen: 28500 best: 0.288219
gen: 29000 best: 0.288357
gen: 29500 best: 0.288357
gen: 30000 best: 0.288357
gen: 30500 best: 0.288725
gen: 31000 best: 0.288730
gen: 31500 best: 0.288859
gen: 32000 best: 0.288921
gen: 32500 best: 0.289138
gen: 33000 best: 0.289401
gen: 33500 best: 0.289563
gen: 34000 best: 0.289822
gen: 34500 best: 0.289867
gen: 35000 best: 0.289867
gen: 35500 best: 0.289923
gen: 36000 best: 0.289923
gen: 36500 best: 0.289923
gen: 37000 best: 0.289923
gen: 37500 best: 0.289923
gen: 38000 best: 0.289923
gen: 38500 best: 0.289923
gen: 39000 best: 0.290279
gen: 39500 best: 0.290339
gen: 40000 best: 0.290339
gen: 40500 best: 0.290389
gen: 41000 best: 0.290452
gen: 41500 best: 0.290452
gen: 42000 best: 0.290552
gen: 42500 best: 0.290552
gen: 43000 best: 0.290552
gen: 43500 best: 0.290643
gen: 44000 best: 0.290643
gen: 44500 best: 0.290643
gen: 45000 best: 0.290643
gen: 45500 best: 0.290643
gen: 46000 best: 0.290643
gen: 46500 best: 0.290643
gen: 47000 best: 0.290698
gen: 47500 best: 0.290698
gen: 48000 best: 0.291024
gen: 48500 best: 0.291024
gen: 49000 best: 0.291024
gen: 49500 best: 0.291024
gen: 50000 best: 0.291024
gen: 50500 best: 0.291024
gen: 51000 best: 0.291024
gen: 51500 best: 0.291024
gen: 52000 best: 0.291024
gen: 52500 best: 0.291105
gen: 53000 best: 0.291105
gen: 53500 best: 0.291105
gen: 54000 best: 0.291141
gen: 54500 best: 0.291141
gen: 55000 best: 0.291141
gen: 55500 best: 0.291141
gen: 56000 best: 0.291141
gen: 56500 best: 0.291150
gen: 57000 best: 0.291150
gen: 57500 best: 0.291203
gen: 58000 best: 0.291207
gen: 58500 best: 0.291273
gen: 59000 best: 0.291273
gen: 59500 best: 0.291288
gen: 60000 best: 0.291363
gen: 60500 best: 0.291363
gen: 61000 best: 0.291363
gen: 61500 best: 0.291363
gen: 62000 best: 0.291363
gen: 62500 best: 0.291363
gen: 63000 best: 0.291363
gen: 63500 best: 0.291363
gen: 64000 best: 0.291363
gen: 64500 best: 0.291363
gen: 65000 best: 0.291363
gen: 65500 best: 0.291363
gen: 66000 best: 0.291363
gen: 66500 best: 0.291363
gen: 67000 best: 0.291363
gen: 67500 best: 0.291363
gen: 68000 best: 0.291363
gen: 68500 best: 0.291363
gen: 69000 best: 0.291363
gen: 69500 best: 0.291363
gen: 70000 best: 0.291390
