gen: 0 best: 0.170587
gen: 500 best: 0.176408
gen: 1000 best: 0.178325
gen: 1500 best: 0.178564
gen: 2000 best: 0.178988
gen: 2500 best: 0.179859
gen: 3000 best: 0.180133
gen: 3500 best: 0.180533
gen: 4000 best: 0.180871
gen: 4500 best: 0.181346
gen: 5000 best: 0.181477
gen: 5500 best: 0.181477
gen: 6000 best: 0.181732
gen: 6500 best: 0.181999
gen: 7000 best: 0.181999
gen: 7500 best: 0.182213
gen: 8000 best: 0.182213
gen: 8500 best: 0.182213
gen: 9000 best: 0.182213
gen: 9500 best: 0.182224
gen: 10000 best: 0.182248
gen: 10500 best: 0.182248
gen: 11000 best: 0.182297
gen: 11500 best: 0.182297
gen: 12000 best: 0.182326
gen: 12500 best: 0.182326
gen: 13000 best: 0.182341
gen: 13500 best: 0.182341
gen: 14000 best: 0.182355
gen: 14500 best: 0.182355
gen: 15000 best: 0.182355
gen: 15500 best: 0.182369
gen: 16000 best: 0.182369
gen: 16500 best: 0.182369
gen: 17000 best: 0.182387
gen: 17500 best: 0.182398
gen: 18000 best: 0.182398
gen: 18500 best: 0.182398
gen: 19000 best: 0.182413
gen: 19500 best: 0.182417
gen: 20000 best: 0.182417
gen: 20500 best: 0.182417
gen: 21000 best: 0.182417
gen: 21500 best: 0.182418
gen: 22000 best: 0.182418
gen: 22500 best: 0.182419
gen: 23000 best: 0.182419
gen: 23500 best: 0.182434
gen: 24000 best: 0.182434
gen: 24500 best: 0.182512
gen: 25000 best: 0.182634
gen: 25500 best: 0.182634
gen: 26000 best: 0.182754
gen: 26500 best: 0.182754
gen: 27000 best: 0.182775
gen: 27500 best: 0.182779
gen: 28000 best: 0.182961
gen: 28500 best: 0.182961
gen: 29000 best: 0.182983
gen: 29500 best: 0.182983
gen: 30000 best: 0.182983
gen: 30500 best: 0.182986
gen: 31000 best: 0.182988
gen: 31500 best: 0.183040
gen: 32000 best: 0.183040
gen: 32500 best: 0.183040
gen: 33000 best: 0.183040
gen: 33500 best: 0.183057
gen: 34000 best: 0.183057
gen: 34500 best: 0.183057
gen: 35000 best: 0.183065
gen: 35500 best: 0.183065
gen: 36000 best: 0.183065
gen: 36500 best: 0.183065
gen: 37000 best: 0.183065
gen: 37500 best: 0.183067
gen: 38000 best: 0.183067
gen: 38500 best: 0.183072
gen: 39000 best: 0.183072
gen: 39500 best: 0.183072
gen: 40000 best: 0.183072
gen: 40500 best: 0.183072
gen: 41000 best: 0.183072
gen: 41500 best: 0.183072
gen: 42000 best: 0.183073
gen: 42500 best: 0.183073
gen: 43000 best: 0.183073
gen: 43500 best: 0.183073
gen: 44000 best: 0.183073
gen: 44500 best: 0.183073
gen: 45000 best: 0.183073
gen: 45500 best: 0.183073
gen: 46000 best: 0.183073
gen: 46500 best: 0.183082
gen: 47000 best: 0.183082
gen: 47500 best: 0.183082
gen: 48000 best: 0.183082
gen: 48500 best: 0.183082
gen: 49000 best: 0.183082
gen: 49500 best: 0.183082
gen: 50000 best: 0.183082
gen: 50500 best: 0.183099
gen: 51000 best: 0.183099
gen: 51500 best: 0.183099
gen: 52000 best: 0.183099
gen: 52500 best: 0.183099
gen: 53000 best: 0.183099
gen: 53500 best: 0.183099
gen: 54000 best: 0.183099
gen: 54500 best: 0.183099
gen: 55000 best: 0.183099
gen: 55500 best: 0.183290
gen: 56000 best: 0.183290
gen: 56500 best: 0.183290
gen: 57000 best: 0.183290
gen: 57500 best: 0.183301
gen: 58000 best: 0.183301
gen: 58500 best: 0.183301
gen: 59000 best: 0.183301
gen: 59500 best: 0.183358
gen: 60000 best: 0.183358
gen: 60500 best: 0.183358
gen: 61000 best: 0.183370
gen: 61500 best: 0.183370
gen: 62000 best: 0.183454
gen: 62500 best: 0.183454
gen: 63000 best: 0.183473
gen: 63500 best: 0.183477
gen: 64000 best: 0.183477
gen: 64500 best: 0.183477
gen: 65000 best: 0.183517
gen: 65500 best: 0.183517
gen: 66000 best: 0.183517
gen: 66500 best: 0.183533
gen: 67000 best: 0.183533
gen: 67500 best: 0.183543
gen: 68000 best: 0.183543
gen: 68500 best: 0.183543
gen: 69000 best: 0.183543
gen: 69500 best: 0.183550
gen: 70000 best: 0.183550
