gen: 0 best: 0.099040
gen: 500 best: 0.103862
gen: 1000 best: 0.107653
gen: 1500 best: 0.109803
gen: 2000 best: 0.110164
gen: 2500 best: 0.110327
gen: 3000 best: 0.111547
gen: 3500 best: 0.113315
gen: 4000 best: 0.113847
gen: 4500 best: 0.113914
gen: 5000 best: 0.114061
gen: 5500 best: 0.114102
gen: 6000 best: 0.114230
gen: 6500 best: 0.114283
gen: 7000 best: 0.114372
gen: 7500 best: 0.114372
gen: 8000 best: 0.114426
gen: 8500 best: 0.114433
gen: 9000 best: 0.114446
gen: 9500 best: 0.129668
gen: 10000 best: 0.130089
gen: 10500 best: 0.140952
gen: 11000 best: 0.141151
gen: 11500 best: 0.141587
gen: 12000 best: 0.141706
gen: 12500 best: 0.142162
gen: 13000 best: 0.142302
gen: 13500 best: 0.142457
gen: 14000 best: 0.142652
gen: 14500 best: 0.142702
gen: 15000 best: 0.142875
gen: 15500 best: 0.143141
gen: 16000 best: 0.143406
gen: 16500 best: 0.143432
gen: 17000 best: 0.143432
gen: 17500 best: 0.143467
gen: 18000 best: 0.143471
gen: 18500 best: 0.143471
gen: 19000 best: 0.143481
gen: 19500 best: 0.143648
gen: 20000 best: 0.143737
gen: 20500 best: 0.143911
gen: 21000 best: 0.143940
gen: 21500 best: 0.143994
gen: 22000 best: 0.144100
gen: 22500 best: 0.144126
gen: 23000 best: 0.144259
gen: 23500 best: 0.144461
gen: 24000 best: 0.144616
gen: 24500 best: 0.144718
gen: 25000 best: 0.144885
gen: 25500 best: 0.144974
gen: 26000 best: 0.145056
gen: 26500 best: 0.145211
gen: 27000 best: 0.145356
gen: 27500 best: 0.145501
gen: 28000 best: 0.145668
gen: 28500 best: 0.145692
gen: 29000 best: 0.145709
gen: 29500 best: 0.145732
gen: 30000 best: 0.145933
gen: 30500 best: 0.146223
gen: 31000 best: 0.146375
gen: 31500 best: 0.146514
gen: 32000 best: 0.146715
gen: 32500 best: 0.146801
gen: 33000 best: 0.146864
gen: 33500 best: 0.146949
gen: 34000 best: 0.147138
gen: 34500 best: 0.147165
gen: 35000 best: 0.147312
gen: 35500 best: 0.147442
gen: 36000 best: 0.147483
gen: 36500 best: 0.147575
gen: 37000 best: 0.147933
gen: 37500 best: 0.148277
gen: 38000 best: 0.149304
gen: 38500 best: 0.168790
gen: 39000 best: 0.169315
gen: 39500 best: 0.169429
gen: 40000 best: 0.169629
gen: 40500 best: 0.169758
gen: 41000 best: 0.169954
gen: 41500 best: 0.170250
gen: 42000 best: 0.170639
gen: 42500 best: 0.170746
gen: 43000 best: 0.171022
gen: 43500 best: 0.171479
gen: 44000 best: 0.171663
gen: 44500 best: 0.171926
gen: 45000 best: 0.172037
gen: 45500 best: 0.172323
gen: 46000 best: 0.172650
gen: 46500 best: 0.172871
gen: 47000 best: 0.173462
gen: 47500 best: 0.173700
gen: 48000 best: 0.174152
gen: 48500 best: 0.174370
gen: 49000 best: 0.174735
gen: 49500 best: 0.175227
gen: 50000 best: 0.175401
gen: 50500 best: 0.175474
gen: 51000 best: 0.175673
gen: 51500 best: 0.175915
gen: 52000 best: 0.176144
gen: 52500 best: 0.176622
gen: 53000 best: 0.176860
gen: 53500 best: 0.176997
gen: 54000 best: 0.177299
gen: 54500 best: 0.177779
gen: 55000 best: 0.177794
gen: 55500 best: 0.178086
gen: 56000 best: 0.178672
gen: 56500 best: 0.179493
gen: 57000 best: 0.180150
gen: 57500 best: 0.180532
gen: 58000 best: 0.180960
gen: 58500 best: 0.181644
gen: 59000 best: 0.206256
gen: 59500 best: 0.206868
gen: 60000 best: 0.207478
gen: 60500 best: 0.207692
gen: 61000 best: 0.208283
gen: 61500 best: 0.208723
gen: 62000 best: 0.209424
gen: 62500 best: 0.209840
gen: 63000 best: 0.210183
gen: 63500 best: 0.210394
gen: 64000 best: 0.210453
gen: 64500 best: 0.210490
gen: 65000 best: 0.210537
gen: 65500 best: 0.210597
gen: 66000 best: 0.210621
gen: 66500 best: 0.210661
gen: 67000 best: 0.210721
gen: 67500 best: 0.210728
gen: 68000 best: 0.210824
gen: 68500 best: 0.210836
gen: 69000 best: 0.210895
gen: 69500 best: 0.210929
gen: 70000 best: 0.210944
