gen: 0 best: 0.085887
gen: 500 best: 0.089119
gen: 1000 best: 0.090204
gen: 1500 best: 0.092017
gen: 2000 best: 0.095333
gen: 2500 best: 0.095791
gen: 3000 best: 0.096863
gen: 3500 best: 0.098467
gen: 4000 best: 0.098577
gen: 4500 best: 0.098578
gen: 5000 best: 0.098639
gen: 5500 best: 0.099191
gen: 6000 best: 0.099667
gen: 6500 best: 0.100033
gen: 7000 best: 0.100143
gen: 7500 best: 0.100369
gen: 8000 best: 0.100798
gen: 8500 best: 0.100886
gen: 9000 best: 0.100897
gen: 9500 best: 0.100899
gen: 10000 best: 0.100906
gen: 10500 best: 0.101134
gen: 11000 best: 0.101603
gen: 11500 best: 0.101616
gen: 12000 best: 0.101637
gen: 12500 best: 0.102691
gen: 13000 best: 0.103512
gen: 13500 best: 0.103573
gen: 14000 best: 0.103714
gen: 14500 best: 0.103810
gen: 15000 best: 0.103810
gen: 15500 best: 0.103810
gen: 16000 best: 0.103810
gen: 16500 best: 0.103814
gen: 17000 best: 0.103819
gen: 17500 best: 0.103820
gen: 18000 best: 0.103823
gen: 18500 best: 0.103823
gen: 19000 best: 0.103825
gen: 19500 best: 0.103825
gen: 20000 best: 0.103827
gen: 20500 best: 0.103830
gen: 21000 best: 0.103831
gen: 21500 best: 0.103832
gen: 22000 best: 0.103833
gen: 22500 best: 0.103833
gen: 23000 best: 0.103835
gen: 23500 best: 0.103835
gen: 24000 best: 0.103835
gen: 24500 best: 0.103835
gen: 25000 best: 0.103836
gen: 25500 best: 0.103838
gen: 26000 best: 0.103840
gen: 26500 best: 0.103840
gen: 27000 best: 0.103842
gen: 27500 best: 0.103842
gen: 28000 best: 0.103843
gen: 28500 best: 0.103843
gen: 29000 best: 0.103844
gen: 29500 best: 0.103845
gen: 30000 best: 0.103845
gen: 30500 best: 0.103846
gen: 31000 best: 0.103847
gen: 31500 best: 0.103849
gen: 32000 best: 0.103849
gen: 32500 best: 0.103850
gen: 33000 best: 0.103854
gen: 33500 best: 0.103855
gen: 34000 best: 0.103857
gen: 34500 best: 0.103857
gen: 35000 best: 0.103857
gen: 35500 best: 0.103890
gen: 36000 best: 0.104077
gen: 36500 best: 0.104257
gen: 37000 best: 0.104310
gen: 37500 best: 0.104310
gen: 38000 best: 0.104312
gen: 38500 best: 0.104315
gen: 39000 best: 0.104316
gen: 39500 best: 0.104317
gen: 40000 best: 0.104318
gen: 40500 best: 0.104319
gen: 41000 best: 0.104320
gen: 41500 best: 0.104320
gen: 42000 best: 0.104320
gen: 42500 best: 0.104320
gen: 43000 best: 0.104321
gen: 43500 best: 0.104321
gen: 44000 best: 0.104321
gen: 44500 best: 0.104327
gen: 45000 best: 0.104329
gen: 45500 best: 0.104331
gen: 46000 best: 0.104331
gen: 46500 best: 0.104490
gen: 47000 best: 0.104504
gen: 47500 best: 0.105098
gen: 48000 best: 0.105727
gen: 48500 best: 0.106080
gen: 49000 best: 0.106377
gen: 49500 best: 0.106379
gen: 50000 best: 0.106379
gen: 50500 best: 0.106384
gen: 51000 best: 0.106387
gen: 51500 best: 0.106388
gen: 52000 best: 0.106389
gen: 52500 best: 0.106391
gen: 53000 best: 0.106391
gen: 53500 best: 0.106391
gen: 54000 best: 0.106396
gen: 54500 best: 0.106396
gen: 55000 best: 0.106398
gen: 55500 best: 0.106402
gen: 56000 best: 0.106402
gen: 56500 best: 0.106402
gen: 57000 best: 0.106403
gen: 57500 best: 0.106403
gen: 58000 best: 0.106403
gen: 58500 best: 0.106404
gen: 59000 best: 0.106404
gen: 59500 best: 0.106404
gen: 60000 best: 0.106405
gen: 60500 best: 0.106408
gen: 61000 best: 0.106410
gen: 61500 best: 0.106411
gen: 62000 best: 0.106412
gen: 62500 best: 0.106414
gen: 63000 best: 0.106415
gen: 63500 best: 0.106418
gen: 64000 best: 0.106418
gen: 64500 best: 0.106421
gen: 65000 best: 0.106421
gen: 65500 best: 0.106426
gen: 66000 best: 0.106428
gen: 66500 best: 0.106429
gen: 67000 best: 0.106429
gen: 67500 best: 0.106430
gen: 68000 best: 0.106430
gen: 68500 best: 0.106488
gen: 69000 best: 0.106503
gen: 69500 best: 0.106545
gen: 70000 best: 0.106546
