gen: 0 best: 0.025971
gen: 500 best: 0.026600
gen: 1000 best: 0.026911
gen: 1500 best: 0.026916
gen: 2000 best: 0.026920
gen: 2500 best: 0.026920
gen: 3000 best: 0.026920
gen: 3500 best: 0.026920
gen: 4000 best: 0.026920
gen: 4500 best: 0.026920
gen: 5000 best: 0.026920
gen: 5500 best: 0.026920
gen: 6000 best: 0.026920
gen: 6500 best: 0.026921
gen: 7000 best: 0.026921
gen: 7500 best: 0.027052
gen: 8000 best: 0.027150
gen: 8500 best: 0.027225
gen: 9000 best: 0.027638
gen: 9500 best: 0.027873
gen: 10000 best: 0.027875
gen: 10500 best: 0.027877
gen: 11000 best: 0.027879
gen: 11500 best: 0.027879
gen: 12000 best: 0.028220
gen: 12500 best: 0.028344
gen: 13000 best: 0.028466
gen: 13500 best: 0.028560
gen: 14000 best: 0.028561
gen: 14500 best: 0.028650
gen: 15000 best: 0.028650
gen: 15500 best: 0.028810
gen: 16000 best: 0.028815
gen: 16500 best: 0.028817
gen: 17000 best: 0.028817
gen: 17500 best: 0.028817
gen: 18000 best: 0.028817
gen: 18500 best: 0.028817
gen: 19000 best: 0.028817
gen: 19500 best: 0.028817
gen: 20000 best: 0.028817
gen: 20500 best: 0.028819
gen: 21000 best: 0.028819
gen: 21500 best: 0.028819
gen: 22000 best: 0.028819
gen: 22500 best: 0.028819
gen: 23000 best: 0.028820
gen: 23500 best: 0.028820
gen: 24000 best: 0.028820
gen: 24500 best: 0.028820
gen: 25000 best: 0.028820
gen: 25500 best: 0.028820
gen: 26000 best: 0.028821
gen: 26500 best: 0.028821
gen: 27000 best: 0.028821
gen: 27500 best: 0.028821
gen: 28000 best: 0.028939
gen: 28500 best: 0.028958
gen: 29000 best: 0.028964
gen: 29500 best: 0.028964
gen: 30000 best: 0.028964
gen: 30500 best: 0.028964
gen: 31000 best: 0.028965
gen: 31500 best: 0.028965
gen: 32000 best: 0.028965
gen: 32500 best: 0.028965
gen: 33000 best: 0.028965
gen: 33500 best: 0.028965
gen: 34000 best: 0.028965
gen: 34500 best: 0.028965
gen: 35000 best: 0.028965
gen: 35500 best: 0.028966
gen: 36000 best: 0.028966
gen: 36500 best: 0.028966
gen: 37000 best: 0.028966
gen: 37500 best: 0.028966
gen: 38000 best: 0.028966
gen: 38500 best: 0.028966
gen: 39000 best: 0.028966
gen: 39500 best: 0.028966
gen: 40000 best: 0.028966
gen: 40500 best: 0.028966
gen: 41000 best: 0.028966
gen: 41500 best: 0.028966
gen: 42000 best: 0.028967
gen: 42500 best: 0.028967
gen: 43000 best: 0.028968
gen: 43500 best: 0.028968
gen: 44000 best: 0.028968
gen: 44500 best: 0.028968
gen: 45000 best: 0.028968
gen: 45500 best: 0.028969
gen: 46000 best: 0.028969
gen: 46500 best: 0.028970
gen: 47000 best: 0.028970
gen: 47500 best: 0.028970
gen: 48000 best: 0.029038
gen: 48500 best: 0.029101
gen: 49000 best: 0.029102
gen: 49500 best: 0.029104
gen: 50000 best: 0.029104
gen: 50500 best: 0.029104
gen: 51000 best: 0.029104
gen: 51500 best: 0.029104
gen: 52000 best: 0.029104
gen: 52500 best: 0.029105
gen: 53000 best: 0.029105
gen: 53500 best: 0.029105
gen: 54000 best: 0.029105
gen: 54500 best: 0.029105
gen: 55000 best: 0.029105
gen: 55500 best: 0.029106
gen: 56000 best: 0.029106
gen: 56500 best: 0.029106
gen: 57000 best: 0.029107
gen: 57500 best: 0.029107
gen: 58000 best: 0.029108
gen: 58500 best: 0.029109
gen: 59000 best: 0.029109
gen: 59500 best: 0.029109
gen: 60000 best: 0.029109
gen: 60500 best: 0.029109
gen: 61000 best: 0.029109
gen: 61500 best: 0.029109
gen: 62000 best: 0.029109
gen: 62500 best: 0.029109
gen: 63000 best: 0.029109
gen: 63500 best: 0.029109
gen: 64000 best: 0.029109
gen: 64500 best: 0.029109
gen: 65000 best: 0.029109
gen: 65500 best: 0.029109
gen: 66000 best: 0.029109
gen: 66500 best: 0.029109
gen: 67000 best: 0.029109
gen: 67500 best: 0.029109
gen: 68000 best: 0.029109
gen: 68500 best: 0.029109
gen: 69000 best: 0.029188
gen: 69500 best: 0.029223
gen: 70000 best: 0.029224
