gen: 0 best: 0.077282
gen: 500 best: 0.080353
gen: 1000 best: 0.080684
gen: 1500 best: 0.080808
gen: 2000 best: 0.081003
gen: 2500 best: 0.081003
gen: 3000 best: 0.081042
gen: 3500 best: 0.081166
gen: 4000 best: 0.081237
gen: 4500 best: 0.081407
gen: 5000 best: 0.081468
gen: 5500 best: 0.081782
gen: 6000 best: 0.081907
gen: 6500 best: 0.081986
gen: 7000 best: 0.082023
gen: 7500 best: 0.082075
gen: 8000 best: 0.082078
gen: 8500 best: 0.082188
gen: 9000 best: 0.082262
gen: 9500 best: 0.082478
gen: 10000 best: 0.082614
gen: 10500 best: 0.082663
gen: 11000 best: 0.082663
gen: 11500 best: 0.082663
gen: 12000 best: 0.082663
gen: 12500 best: 0.082738
gen: 13000 best: 0.082738
gen: 13500 best: 0.082738
gen: 14000 best: 0.082844
gen: 14500 best: 0.082844
gen: 15000 best: 0.082844
gen: 15500 best: 0.082877
gen: 16000 best: 0.082877
gen: 16500 best: 0.082909
gen: 17000 best: 0.082942
gen: 17500 best: 0.083042
gen: 18000 best: 0.083106
gen: 18500 best: 0.083106
gen: 19000 best: 0.083106
gen: 19500 best: 0.083178
gen: 20000 best: 0.083178
gen: 20500 best: 0.083178
gen: 21000 best: 0.083178
gen: 21500 best: 0.083178
gen: 22000 best: 0.083178
gen: 22500 best: 0.083178
gen: 23000 best: 0.083178
gen: 23500 best: 0.083178
gen: 24000 best: 0.083201
gen: 24500 best: 0.083298
gen: 25000 best: 0.083321
gen: 25500 best: 0.083321
gen: 26000 best: 0.083345
gen: 26500 best: 0.083345
gen: 27000 best: 0.083345
gen: 27500 best: 0.083367
gen: 28000 best: 0.083367
gen: 28500 best: 0.083367
gen: 29000 best: 0.083371
gen: 29500 best: 0.083437
gen: 30000 best: 0.083437
gen: 30500 best: 0.083464
gen: 31000 best: 0.083479
gen: 31500 best: 0.083479
gen: 32000 best: 0.083479
gen: 32500 best: 0.083479
gen: 33000 best: 0.083479
gen: 33500 best: 0.083515
gen: 34000 best: 0.083515
gen: 34500 best: 0.083515
gen: 35000 best: 0.083550
gen: 35500 best: 0.083671
gen: 36000 best: 0.083819
gen: 36500 best: 0.083819
gen: 37000 best: 0.083819
gen: 37500 best: 0.083819
gen: 38000 best: 0.083933
gen: 38500 best: 0.083962
gen: 39000 best: 0.083971
gen: 39500 best: 0.084058
gen: 40000 best: 0.084058
gen: 40500 best: 0.084058
gen: 41000 best: 0.084058
gen: 41500 best: 0.084058
gen: 42000 best: 0.084058
gen: 42500 best: 0.084058
gen: 43000 best: 0.084058
gen: 43500 best: 0.084096
gen: 44000 best: 0.084096
gen: 44500 best: 0.084096
gen: 45000 best: 0.084096
gen: 45500 best: 0.084096
gen: 46000 best: 0.084096
gen: 46500 best: 0.084096
gen: 47000 best: 0.084096
gen: 47500 best: 0.084106
gen: 48000 best: 0.084106
gen: 48500 best: 0.084106
gen: 49000 best: 0.084106
gen: 49500 best: 0.084117
gen: 50000 best: 0.084117
gen: 50500 best: 0.084117
gen: 51000 best: 0.084123
gen: 51500 best: 0.084123
gen: 52000 best: 0.084144
gen: 52500 best: 0.084196
gen: 53000 best: 0.084220
gen: 53500 best: 0.084229
gen: 54000 best: 0.084241
gen: 54500 best: 0.084248
gen: 55000 best: 0.084365
gen: 55500 best: 0.084365
gen: 56000 best: 0.084365
gen: 56500 best: 0.084365
gen: 57000 best: 0.084365
gen: 57500 best: 0.084365
gen: 58000 best: 0.084365
gen: 58500 best: 0.084365
gen: 59000 best: 0.084365
gen: 59500 best: 0.084365
gen: 60000 best: 0.084365
gen: 60500 best: 0.084365
gen: 61000 best: 0.084365
gen: 61500 best: 0.084365
gen: 62000 best: 0.084365
gen: 62500 best: 0.084365
gen: 63000 best: 0.084365
gen: 63500 best: 0.084365
gen: 64000 best: 0.084365
gen: 64500 best: 0.084399
gen: 65000 best: 0.084399
gen: 65500 best: 0.084399
gen: 66000 best: 0.084430
gen: 66500 best: 0.084430
gen: 67000 best: 0.084430
gen: 67500 best: 0.084455
gen: 68000 best: 0.084455
gen: 68500 best: 0.084455
gen: 69000 best: 0.084455
gen: 69500 best: 0.084455
gen: 70000 best: 0.084455
