gen: 0 best: 0.098481
gen: 500 best: 0.100944
gen: 1000 best: 0.103620
gen: 1500 best: 0.104211
gen: 2000 best: 0.105593
gen: 2500 best: 0.106471
gen: 3000 best: 0.107657
gen: 3500 best: 0.107811
gen: 4000 best: 0.107836
gen: 4500 best: 0.108102
gen: 5000 best: 0.108392
gen: 5500 best: 0.109078
gen: 6000 best: 0.109338
gen: 6500 best: 0.109635
gen: 7000 best: 0.109675
gen: 7500 best: 0.109731
gen: 8000 best: 0.109731
gen: 8500 best: 0.109860
gen: 9000 best: 0.110002
gen: 9500 best: 0.110122
gen: 10000 best: 0.110122
gen: 10500 best: 0.110455
gen: 11000 best: 0.110752
gen: 11500 best: 0.110813
gen: 12000 best: 0.110858
gen: 12500 best: 0.110860
gen: 13000 best: 0.110999
gen: 13500 best: 0.111048
gen: 14000 best: 0.111066
gen: 14500 best: 0.113010
gen: 15000 best: 0.114866
gen: 15500 best: 0.116482
gen: 16000 best: 0.117640
gen: 16500 best: 0.118064
gen: 17000 best: 0.118525
gen: 17500 best: 0.118740
gen: 18000 best: 0.118770
gen: 18500 best: 0.118789
gen: 19000 best: 0.118803
gen: 19500 best: 0.118803
gen: 20000 best: 0.118803
gen: 20500 best: 0.118874
gen: 21000 best: 0.118995
gen: 21500 best: 0.119040
gen: 22000 best: 0.119052
gen: 22500 best: 0.119076
gen: 23000 best: 0.119092
gen: 23500 best: 0.119132
gen: 24000 best: 0.119144
gen: 24500 best: 0.119173
gen: 25000 best: 0.119227
gen: 25500 best: 0.119247
gen: 26000 best: 0.119262
gen: 26500 best: 0.119439
gen: 27000 best: 0.119457
gen: 27500 best: 0.119459
gen: 28000 best: 0.119459
gen: 28500 best: 0.119475
gen: 29000 best: 0.119478
gen: 29500 best: 0.119480
gen: 30000 best: 0.119482
gen: 30500 best: 0.119482
gen: 31000 best: 0.119486
gen: 31500 best: 0.119498
gen: 32000 best: 0.119498
gen: 32500 best: 0.119498
gen: 33000 best: 0.119498
gen: 33500 best: 0.119500
gen: 34000 best: 0.119502
gen: 34500 best: 0.119512
gen: 35000 best: 0.119512
gen: 35500 best: 0.119518
gen: 36000 best: 0.120336
gen: 36500 best: 0.120595
gen: 37000 best: 0.120606
gen: 37500 best: 0.120613
gen: 38000 best: 0.120628
gen: 38500 best: 0.120631
gen: 39000 best: 0.120642
gen: 39500 best: 0.120642
gen: 40000 best: 0.120642
gen: 40500 best: 0.120659
gen: 41000 best: 0.120665
gen: 41500 best: 0.120665
gen: 42000 best: 0.120665
gen: 42500 best: 0.120670
gen: 43000 best: 0.120670
gen: 43500 best: 0.120678
gen: 44000 best: 0.120678
gen: 44500 best: 0.120678
gen: 45000 best: 0.120679
gen: 45500 best: 0.120679
gen: 46000 best: 0.120679
gen: 46500 best: 0.120679
gen: 47000 best: 0.120679
gen: 47500 best: 0.120679
gen: 48000 best: 0.120684
gen: 48500 best: 0.120684
gen: 49000 best: 0.120684
gen: 49500 best: 0.120685
gen: 50000 best: 0.120685
gen: 50500 best: 0.120686
gen: 51000 best: 0.120686
gen: 51500 best: 0.120686
gen: 52000 best: 0.120686
gen: 52500 best: 0.120689
gen: 53000 best: 0.120689
gen: 53500 best: 0.120689
gen: 54000 best: 0.120689
gen: 54500 best: 0.120689
gen: 55000 best: 0.120689
gen: 55500 best: 0.120691
gen: 56000 best: 0.120691
gen: 56500 best: 0.120694
gen: 57000 best: 0.120694
gen: 57500 best: 0.120694
gen: 58000 best: 0.120694
gen: 58500 best: 0.120694
gen: 59000 best: 0.120694
gen: 59500 best: 0.120694
gen: 60000 best: 0.120694
gen: 60500 best: 0.120694
gen: 61000 best: 0.120694
gen: 61500 best: 0.120694
gen: 62000 best: 0.120694
gen: 62500 best: 0.120694
gen: 63000 best: 0.120696
gen: 63500 best: 0.120696
gen: 64000 best: 0.120696
gen: 64500 best: 0.120696
gen: 65000 best: 0.120701
gen: 65500 best: 0.120701
gen: 66000 best: 0.120701
gen: 66500 best: 0.120701
gen: 67000 best: 0.120701
gen: 67500 best: 0.120701
gen: 68000 best: 0.120701
gen: 68500 best: 0.120701
gen: 69000 best: 0.120701
gen: 69500 best: 0.120701
gen: 70000 best: 0.120701
