gen: 0 best: 0.149197
gen: 500 best: 0.159654
gen: 1000 best: 0.160104
gen: 1500 best: 0.160906
gen: 2000 best: 0.160906
gen: 2500 best: 0.161013
gen: 3000 best: 0.161078
gen: 3500 best: 0.161078
gen: 4000 best: 0.161078
gen: 4500 best: 0.161078
gen: 5000 best: 0.161078
gen: 5500 best: 0.161148
gen: 6000 best: 0.161148
gen: 6500 best: 0.161148
gen: 7000 best: 0.161155
gen: 7500 best: 0.161155
gen: 8000 best: 0.161155
gen: 8500 best: 0.161155
gen: 9000 best: 0.161155
gen: 9500 best: 0.161155
gen: 10000 best: 0.161155
gen: 10500 best: 0.161155
gen: 11000 best: 0.161155
gen: 11500 best: 0.161155
gen: 12000 best: 0.161155
gen: 12500 best: 0.161155
gen: 13000 best: 0.161155
gen: 13500 best: 0.163753
gen: 14000 best: 0.166567
gen: 14500 best: 0.167211
gen: 15000 best: 0.167543
gen: 15500 best: 0.167681
gen: 16000 best: 0.167869
gen: 16500 best: 0.167963
gen: 17000 best: 0.167983
gen: 17500 best: 0.167983
gen: 18000 best: 0.167983
gen: 18500 best: 0.167983
gen: 19000 best: 0.167983
gen: 19500 best: 0.167983
gen: 20000 best: 0.168020
gen: 20500 best: 0.168020
gen: 21000 best: 0.168020
gen: 21500 best: 0.168021
gen: 22000 best: 0.168021
gen: 22500 best: 0.168021
gen: 23000 best: 0.168087
gen: 23500 best: 0.168178
gen: 24000 best: 0.168178
gen: 24500 best: 0.168178
gen: 25000 best: 0.168178
gen: 25500 best: 0.168378
gen: 26000 best: 0.168420
gen: 26500 best: 0.168630
gen: 27000 best: 0.168724
gen: 27500 best: 0.168724
gen: 28000 best: 0.168724
gen: 28500 best: 0.168724
gen: 29000 best: 0.168724
gen: 29500 best: 0.168774
gen: 30000 best: 0.168776
gen: 30500 best: 0.168776
gen: 31000 best: 0.168776
gen: 31500 best: 0.168776
gen: 32000 best: 0.168776
gen: 32500 best: 0.168849
gen: 33000 best: 0.168849
gen: 33500 best: 0.168849
gen: 34000 best: 0.168912
gen: 34500 best: 0.168912
gen: 35000 best: 0.168912
gen: 35500 best: 0.168912
gen: 36000 best: 0.168941
gen: 36500 best: 0.168941
gen: 37000 best: 0.168941
gen: 37500 best: 0.168941
gen: 38000 best: 0.168941
gen: 38500 best: 0.168998
gen: 39000 best: 0.168998
gen: 39500 best: 0.168998
gen: 40000 best: 0.168998
gen: 40500 best: 0.168998
gen: 41000 best: 0.168998
gen: 41500 best: 0.168998
gen: 42000 best: 0.168998
gen: 42500 best: 0.168998
gen: 43000 best: 0.168998
gen: 43500 best: 0.168998
gen: 44000 best: 0.168998
gen: 44500 best: 0.169057
gen: 45000 best: 0.169131
gen: 45500 best: 0.169131
gen: 46000 best: 0.169131
gen: 46500 best: 0.169131
gen: 47000 best: 0.169131
gen: 47500 best: 0.169131
gen: 48000 best: 0.169131
gen: 48500 best: 0.169131
gen: 49000 best: 0.169131
gen: 49500 best: 0.169131
gen: 50000 best: 0.169131
gen: 50500 best: 0.169131
gen: 51000 best: 0.169131
gen: 51500 best: 0.169131
gen: 52000 best: 0.169131
gen: 52500 best: 0.169131
gen: 53000 best: 0.169211
gen: 53500 best: 0.169211
gen: 54000 best: 0.169211
gen: 54500 best: 0.169211
gen: 55000 best: 0.169269
gen: 55500 best: 0.169456
gen: 56000 best: 0.169456
gen: 56500 best: 0.169571
gen: 57000 best: 0.169571
gen: 57500 best: 0.169571
gen: 58000 best: 0.169774
gen: 58500 best: 0.169774
gen: 59000 best: 0.169774
gen: 59500 best: 0.169774
gen: 60000 best: 0.169774
gen: 60500 best: 0.169774
gen: 61000 best: 0.169774
gen: 61500 best: 0.169774
gen: 62000 best: 0.169774
gen: 62500 best: 0.169774
gen: 63000 best: 0.169774
gen: 63500 best: 0.169774
gen: 64000 best: 0.169774
gen: 64500 best: 0.169774
gen: 65000 best: 0.169774
gen: 65500 best: 0.169774
gen: 66000 best: 0.169774
gen: 66500 best: 0.169774
gen: 67000 best: 0.169774
gen: 67500 best: 0.169774
gen: 68000 best: 0.169774
gen: 68500 best: 0.169774
gen: 69000 best: 0.169774
gen: 69500 best: 0.169774
gen: 70000 best: 0.169774
