gen: 0 best: 0.091499
gen: 500 best: 0.091911
gen: 1000 best: 0.092329
gen: 1500 best: 0.092745
gen: 2000 best: 0.093024
gen: 2500 best: 0.093341
gen: 3000 best: 0.093912
gen: 3500 best: 0.094425
gen: 4000 best: 0.095785
gen: 4500 best: 0.096462
gen: 5000 best: 0.097564
gen: 5500 best: 0.098373
gen: 6000 best: 0.099446
gen: 6500 best: 0.101618
gen: 7000 best: 0.103763
gen: 7500 best: 0.106548
gen: 8000 best: 0.110437
gen: 8500 best: 0.114329
gen: 9000 best: 0.123913
gen: 9500 best: 0.127272
gen: 10000 best: 0.127382
gen: 10500 best: 0.127393
gen: 11000 best: 0.127396
gen: 11500 best: 0.127398
gen: 12000 best: 0.127401
gen: 12500 best: 0.127402
gen: 13000 best: 0.127403
gen: 13500 best: 0.127403
gen: 14000 best: 0.127407
gen: 14500 best: 0.127407
gen: 15000 best: 0.127407
gen: 15500 best: 0.127407
gen: 16000 best: 0.127407
gen: 16500 best: 0.127407
gen: 17000 best: 0.127407
gen: 17500 best: 0.127407
gen: 18000 best: 0.127407
gen: 18500 best: 0.127408
gen: 19000 best: 0.127409
gen: 19500 best: 0.127410
gen: 20000 best: 0.127411
gen: 20500 best: 0.127411
gen: 21000 best: 0.127414
gen: 21500 best: 0.127418
gen: 22000 best: 0.127418
gen: 22500 best: 0.127419
gen: 23000 best: 0.127420
gen: 23500 best: 0.127420
gen: 24000 best: 0.127420
gen: 24500 best: 0.127421
gen: 25000 best: 0.127425
gen: 25500 best: 0.127425
gen: 26000 best: 0.127426
gen: 26500 best: 0.127427
gen: 27000 best: 0.127427
gen: 27500 best: 0.127428
gen: 28000 best: 0.127429
gen: 28500 best: 0.127430
gen: 29000 best: 0.127430
gen: 29500 best: 0.127431
gen: 30000 best: 0.127431
gen: 30500 best: 0.127431
gen: 31000 best: 0.127431
gen: 31500 best: 0.127432
gen: 32000 best: 0.127436
gen: 32500 best: 0.127437
gen: 33000 best: 0.127441
gen: 33500 best: 0.127443
gen: 34000 best: 0.127444
gen: 34500 best: 0.127445
gen: 35000 best: 0.127445
gen: 35500 best: 0.127445
gen: 36000 best: 0.127448
gen: 36500 best: 0.127448
gen: 37000 best: 0.127449
gen: 37500 best: 0.127449
gen: 38000 best: 0.127449
gen: 38500 best: 0.127449
gen: 39000 best: 0.127450
gen: 39500 best: 0.127452
gen: 40000 best: 0.127454
gen: 40500 best: 0.127455
gen: 41000 best: 0.127455
gen: 41500 best: 0.127456
gen: 42000 best: 0.127456
gen: 42500 best: 0.127457
gen: 43000 best: 0.127459
gen: 43500 best: 0.127459
gen: 44000 best: 0.127460
gen: 44500 best: 0.127460
gen: 45000 best: 0.127460
gen: 45500 best: 0.127461
gen: 46000 best: 0.127461
gen: 46500 best: 0.127462
gen: 47000 best: 0.127462
gen: 47500 best: 0.127462
gen: 48000 best: 0.127463
gen: 48500 best: 0.127464
gen: 49000 best: 0.127465
gen: 49500 best: 0.127465
gen: 50000 best: 0.127468
gen: 50500 best: 0.127470
gen: 51000 best: 0.127472
gen: 51500 best: 0.127472
gen: 52000 best: 0.127472
gen: 52500 best: 0.127472
gen: 53000 best: 0.127472
gen: 53500 best: 0.127472
gen: 54000 best: 0.127472
gen: 54500 best: 0.127473
gen: 55000 best: 0.127473
gen: 55500 best: 0.127478
gen: 56000 best: 0.127480
gen: 56500 best: 0.127482
gen: 57000 best: 0.127483
gen: 57500 best: 0.127486
gen: 58000 best: 0.127488
gen: 58500 best: 0.127492
gen: 59000 best: 0.127492
gen: 59500 best: 0.127495
gen: 60000 best: 0.127495
gen: 60500 best: 0.127498
gen: 61000 best: 0.127499
gen: 61500 best: 0.127501
gen: 62000 best: 0.127502
gen: 62500 best: 0.127507
gen: 63000 best: 0.127509
gen: 63500 best: 0.127514
gen: 64000 best: 0.127520
gen: 64500 best: 0.127522
gen: 65000 best: 0.127522
gen: 65500 best: 0.127522
gen: 66000 best: 0.127522
gen: 66500 best: 0.127525
gen: 67000 best: 0.127528
gen: 67500 best: 0.127531
gen: 68000 best: 0.127538
gen: 68500 best: 0.127540
gen: 69000 best: 0.127541
gen: 69500 best: 0.127543
gen: 70000 best: 0.127547
