gen: 0 best: 0.091277
gen: 500 best: 0.103928
gen: 1000 best: 0.107299
gen: 1500 best: 0.108990
gen: 2000 best: 0.110371
gen: 2500 best: 0.111621
gen: 3000 best: 0.112775
gen: 3500 best: 0.113568
gen: 4000 best: 0.114130
gen: 4500 best: 0.114438
gen: 5000 best: 0.114592
gen: 5500 best: 0.114798
gen: 6000 best: 0.114885
gen: 6500 best: 0.115023
gen: 7000 best: 0.115237
gen: 7500 best: 0.115329
gen: 8000 best: 0.115560
gen: 8500 best: 0.115707
gen: 9000 best: 0.115771
gen: 9500 best: 0.115803
gen: 10000 best: 0.115810
gen: 10500 best: 0.115847
gen: 11000 best: 0.115850
gen: 11500 best: 0.115868
gen: 12000 best: 0.115884
gen: 12500 best: 0.115909
gen: 13000 best: 0.115912
gen: 13500 best: 0.115912
gen: 14000 best: 0.115920
gen: 14500 best: 0.115930
gen: 15000 best: 0.115944
gen: 15500 best: 0.115944
gen: 16000 best: 0.115944
gen: 16500 best: 0.115948
gen: 17000 best: 0.115976
gen: 17500 best: 0.115993
gen: 18000 best: 0.116001
gen: 18500 best: 0.116005
gen: 19000 best: 0.116020
gen: 19500 best: 0.116020
gen: 20000 best: 0.116038
gen: 20500 best: 0.116038
gen: 21000 best: 0.116047
gen: 21500 best: 0.116049
gen: 22000 best: 0.116049
gen: 22500 best: 0.116049
gen: 23000 best: 0.116050
gen: 23500 best: 0.116050
gen: 24000 best: 0.116053
gen: 24500 best: 0.116090
gen: 25000 best: 0.116107
gen: 25500 best: 0.116142
gen: 26000 best: 0.116151
gen: 26500 best: 0.116171
gen: 27000 best: 0.116171
gen: 27500 best: 0.116188
gen: 28000 best: 0.116198
gen: 28500 best: 0.116221
gen: 29000 best: 0.116223
gen: 29500 best: 0.116310
gen: 30000 best: 0.116418
gen: 30500 best: 0.116554
gen: 31000 best: 0.116591
gen: 31500 best: 0.116591
gen: 32000 best: 0.116612
gen: 32500 best: 0.116633
gen: 33000 best: 0.116680
gen: 33500 best: 0.116770
gen: 34000 best: 0.116850
gen: 34500 best: 0.116897
gen: 35000 best: 0.116958
gen: 35500 best: 0.116961
gen: 36000 best: 0.116994
gen: 36500 best: 0.117070
gen: 37000 best: 0.117120
gen: 37500 best: 0.117130
gen: 38000 best: 0.117146
gen: 38500 best: 0.117188
gen: 39000 best: 0.117211
gen: 39500 best: 0.117211
gen: 40000 best: 0.117267
gen: 40500 best: 0.117402
gen: 41000 best: 0.117433
gen: 41500 best: 0.117469
gen: 42000 best: 0.117516
gen: 42500 best: 0.117529
gen: 43000 best: 0.117541
gen: 43500 best: 0.117548
gen: 44000 best: 0.117548
gen: 44500 best: 0.117555
gen: 45000 best: 0.117558
gen: 45500 best: 0.117558
gen: 46000 best: 0.117558
gen: 46500 best: 0.117558
gen: 47000 best: 0.117572
gen: 47500 best: 0.117572
gen: 48000 best: 0.117572
gen: 48500 best: 0.117572
gen: 49000 best: 0.117572
gen: 49500 best: 0.117574
gen: 50000 best: 0.117574
gen: 50500 best: 0.117574
gen: 51000 best: 0.117574
gen: 51500 best: 0.117574
gen: 52000 best: 0.117574
gen: 52500 best: 0.117574
gen: 53000 best: 0.117574
gen: 53500 best: 0.117574
gen: 54000 best: 0.117574
gen: 54500 best: 0.117575
gen: 55000 best: 0.117575
gen: 55500 best: 0.117575
gen: 56000 best: 0.117575
gen: 56500 best: 0.117575
gen: 57000 best: 0.117575
gen: 57500 best: 0.117575
gen: 58000 best: 0.117576
gen: 58500 best: 0.117576
gen: 59000 best: 0.117576
gen: 59500 best: 0.117576
gen: 60000 best: 0.117576
gen: 60500 best: 0.117576
gen: 61000 best: 0.117576
gen: 61500 best: 0.117578
gen: 62000 best: 0.117578
gen: 62500 best: 0.117578
gen: 63000 best: 0.117578
gen: 63500 best: 0.117578
gen: 64000 best: 0.117578
gen: 64500 best: 0.117580
gen: 65000 best: 0.117580
gen: 65500 best: 0.117580
gen: 66000 best: 0.117594
gen: 66500 best: 0.117610
gen: 67000 best: 0.117610
gen: 67500 best: 0.117628
gen: 68000 best: 0.117667
gen: 68500 best: 0.117728
gen: 69000 best: 0.117728
gen: 69500 best: 0.117776
gen: 70000 best: 0.117843
