gen: 0 best: 0.092611
gen: 500 best: 0.093644
gen: 1000 best: 0.095930
gen: 1500 best: 0.098478
gen: 2000 best: 0.104589
gen: 2500 best: 0.114193
gen: 3000 best: 0.127532
gen: 3500 best: 0.127793
gen: 4000 best: 0.128025
gen: 4500 best: 0.128237
gen: 5000 best: 0.128398
gen: 5500 best: 0.128880
gen: 6000 best: 0.129377
gen: 6500 best: 0.129704
gen: 7000 best: 0.130141
gen: 7500 best: 0.130419
gen: 8000 best: 0.130715
gen: 8500 best: 0.131481
gen: 9000 best: 0.131894
gen: 9500 best: 0.132407
gen: 10000 best: 0.132905
gen: 10500 best: 0.133279
gen: 11000 best: 0.134189
gen: 11500 best: 0.134931
gen: 12000 best: 0.135742
gen: 12500 best: 0.141376
gen: 13000 best: 0.194912
gen: 13500 best: 0.195471
gen: 14000 best: 0.216375
gen: 14500 best: 0.221952
gen: 15000 best: 0.225699
gen: 15500 best: 0.227539
gen: 16000 best: 0.228238
gen: 16500 best: 0.229416
gen: 17000 best: 0.230038
gen: 17500 best: 0.230804
gen: 18000 best: 0.231090
gen: 18500 best: 0.231445
gen: 19000 best: 0.231785
gen: 19500 best: 0.232098
gen: 20000 best: 0.232521
gen: 20500 best: 0.232872
gen: 21000 best: 0.232981
gen: 21500 best: 0.233114
gen: 22000 best: 0.233495
gen: 22500 best: 0.233720
gen: 23000 best: 0.233914
gen: 23500 best: 0.234326
gen: 24000 best: 0.234748
gen: 24500 best: 0.234839
gen: 25000 best: 0.235224
gen: 25500 best: 0.235341
gen: 26000 best: 0.235490
gen: 26500 best: 0.235716
gen: 27000 best: 0.235927
gen: 27500 best: 0.235927
gen: 28000 best: 0.235970
gen: 28500 best: 0.235970
gen: 29000 best: 0.235970
gen: 29500 best: 0.235971
gen: 30000 best: 0.236227
gen: 30500 best: 0.236227
gen: 31000 best: 0.236227
gen: 31500 best: 0.236231
gen: 32000 best: 0.236262
gen: 32500 best: 0.236409
gen: 33000 best: 0.236409
gen: 33500 best: 0.236435
gen: 34000 best: 0.236465
gen: 34500 best: 0.236510
gen: 35000 best: 0.236656
gen: 35500 best: 0.236703
gen: 36000 best: 0.236741
gen: 36500 best: 0.236741
gen: 37000 best: 0.236759
gen: 37500 best: 0.236759
gen: 38000 best: 0.236794
gen: 38500 best: 0.236794
gen: 39000 best: 0.236794
gen: 39500 best: 0.236794
gen: 40000 best: 0.236794
gen: 40500 best: 0.236794
gen: 41000 best: 0.236794
gen: 41500 best: 0.236798
gen: 42000 best: 0.236798
gen: 42500 best: 0.236828
gen: 43000 best: 0.236828
gen: 43500 best: 0.236836
gen: 44000 best: 0.236836
gen: 44500 best: 0.236837
gen: 45000 best: 0.236837
gen: 45500 best: 0.236837
gen: 46000 best: 0.236837
gen: 46500 best: 0.236837
gen: 47000 best: 0.257477
gen: 47500 best: 0.261944
gen: 48000 best: 0.263117
gen: 48500 best: 0.263211
gen: 49000 best: 0.263417
gen: 49500 best: 0.263483
gen: 50000 best: 0.263483
gen: 50500 best: 0.263558
gen: 51000 best: 0.263558
gen: 51500 best: 0.263558
gen: 52000 best: 0.263558
gen: 52500 best: 0.263558
gen: 53000 best: 0.263689
gen: 53500 best: 0.263865
gen: 54000 best: 0.263871
gen: 54500 best: 0.263871
gen: 55000 best: 0.263927
gen: 55500 best: 0.263927
gen: 56000 best: 0.263927
gen: 56500 best: 0.263927
gen: 57000 best: 0.263944
gen: 57500 best: 0.263967
gen: 58000 best: 0.263967
gen: 58500 best: 0.263967
gen: 59000 best: 0.263967
gen: 59500 best: 0.263967
gen: 60000 best: 0.263967
gen: 60500 best: 0.263967
gen: 61000 best: 0.263969
gen: 61500 best: 0.263969
gen: 62000 best: 0.263969
gen: 62500 best: 0.263969
gen: 63000 best: 0.263983
gen: 63500 best: 0.263983
gen: 64000 best: 0.263983
gen: 64500 best: 0.263983
gen: 65000 best: 0.264017
gen: 65500 best: 0.264017
gen: 66000 best: 0.264017
gen: 66500 best: 0.264017
gen: 67000 best: 0.264017
gen: 67500 best: 0.264017
gen: 68000 best: 0.264017
gen: 68500 best: 0.264017
gen: 69000 best: 0.264019
gen: 69500 best: 0.264090
gen: 70000 best: 0.264090
