# architectures
phase1.architecture.length = 4
phase1.architecture = 12 15 10 2
phase1.architecture.hidden.activation = tanh
phase1.architecture.output.activation = tanh
phase2.architecture.length = 4
phase2.architecture = 22 20 12 2
phase2.architecture.hidden.activation = tanh
phase2.architecture.output.activation = tanh
wall.sensors = 10
car.sensors = 10

# other params
mutation.deviation = 0.500000
mutation.probability = 0.010000
alpha = 0.700000
beta = 0.300000

# static params
k.tournament = 3
population.size = 50
population.mean = 0.000000
population.deviation = 1.000000
mutation.mean = 0.000000
phase1.generations = 70000
phase2.generations = 70000
phase3.generations = 70000
number.of.steps = 500

# tracks params
train.number.of.tracks = 6
train.track.files = ../tracks/left1.txt ../tracks/right1.txt ../tracks/left2.txt ../tracks/right2.txt ../tracks/left4.txt ../tracks/right3.txt
train.number.of.cars = 2
train.car.unit = 50

test.number.of.tracks = 2
test.track.files = ../tracks/left4.txt ../tracks/right3.txt
test.number.of.cars = 2
test.car.unit = 50

# winner
winner.weights = 0.366636 0.454421 -0.474286 0.354600 -0.305527 -0.009063 -0.353030 -0.528144 0.107973 -0.162578 -0.103485 0.018994 0.445260 -0.103968 -0.090964 0.094702 -0.060749 0.057980 0.531476 0.076967 0.009374 -0.000956 -0.044550 0.043372 0.086858 -1.845936 -0.347164 -0.906831 0.434145 0.073213 -0.180383 -0.093435 0.480401 -0.074747 0.517561 0.676688 0.162665 0.090926 -0.261478 -0.097993 0.622052 -0.048837 0.437135 0.095793 0.162048 0.218815 -0.134006 0.606393 -1.760626 -0.507196 -0.274594 0.147205 -0.345429 -0.071167 -0.175529 -0.083176 -0.223021 0.369532 -0.121049 0.025742 -0.176248 -0.240861 0.123871 -0.366033 0.044359 0.282237 -0.015639 -0.024357 -0.279283 0.125483 0.598949 -0.119960 0.106032 -0.173562 -0.670004 0.239858 -0.552963 0.328634 0.182900 -0.430856 0.041312 0.493114 0.443671 -0.445107 -0.304887 0.124191 0.141927 -0.124346 -0.075985 0.178417 -0.110126 0.035817 0.602528 0.185291 -0.080980 0.532443 -0.380638 0.085294 0.604388 0.123091 -0.276902 0.586677 -0.580566 -0.082731 0.492554 0.596993 -0.300926 0.233789 -0.243890 -0.225970 -0.403793 -0.097761 0.054595 -0.108249 -0.095839 0.369738 -0.430629 1.386641 0.314048 0.411807 -0.088240 0.387553 0.201695 0.002100 0.296062 0.015705 -0.340509 -1.137705 0.061036 0.537782 0.251628 0.262182 -0.394619 -0.454735 -0.125261 0.209989 0.133088 -0.068492 0.057193 -0.274779 0.553364 0.572753 0.297926 -0.806095 0.007717 0.171455 -0.248213 -0.060346 0.178069 0.261412 -0.536032 0.022931 0.134920 -0.444943 0.783525 -0.474508 -0.313182 0.162775 -0.161138 0.387374 0.260936 0.614361 0.715446 -0.252947 0.069759 0.037858 0.579465 0.641664 0.145615 0.212568 -0.052575 -0.715080 -0.303105 0.215149 0.258749 -0.145165 0.111225 -0.097172 0.063985 -0.634973 -0.189484 0.459291 -0.380453 -0.076608 -0.156854 0.528429 -0.613077 0.323098 -0.030399 0.054451 0.221666 -0.693673 -0.811218 -0.408259 0.537559 -0.518975 0.284640 0.527216 -0.350772 -0.017497 -0.022179 0.009300 -0.040142 -0.129787 -0.009566 0.152608 0.072945 0.026120 0.189053 -0.611845 0.343509 -0.005562 -0.679026 0.344429 -0.199068 0.357845 -0.116257 0.419855 -0.071631 0.142302 0.142058 -0.226356 -0.373944 -0.069084 0.208236 0.115748 0.024047 0.298471 -0.282346 -0.167866 0.097567 0.437465 -1.342566 0.291814 -0.692729 -0.030403 -0.275167 0.552363 -0.366744 -0.358477 -0.311762 -0.239283 0.079366 -0.420061 0.176407 -0.445514 -0.036239 0.485072 -0.200950 0.185765 -0.570189 -0.120766 0.212669 0.010648 -0.098111 0.692659 -0.541525 -1.052842 0.066599 0.446906 0.267065 0.162110 -0.316701 -0.271628 0.132819 -0.423416 -0.075256 0.106217 -0.115691 0.086387 0.559426 0.288231 0.317532 -0.181726 -0.015656 -0.131228 0.416648 -0.340295 -0.397496 0.411828 0.346056 -0.631774 0.264603 0.273488 0.082842 -0.836436 0.419818 0.180405 0.165656 -0.309893 -0.605707 0.163526 0.062672 -0.038442 0.049695 -0.327849 0.566926 0.230281 -0.279063 0.534164 -0.291105 -0.802199 -0.420777 0.105554 -0.375595 0.073393 0.161398 -0.151998 -0.281623 0.270584 0.195472 0.167354 0.062921 0.020837 -0.350201 -0.378868 -0.232044 -0.062530 0.090323 -0.015604 0.120318 0.501669 -0.149836 -0.175706 0.073592 -0.080733 -0.107988 -0.220658 0.149758 -0.807671 0.157435 0.006911 0.065618 -0.285291 -0.175534 0.031629 0.086589 0.463583 0.093536 -0.392357 -0.136589 0.030724 0.531937 0.459475 0.016250 0.399566 -0.423927 -0.115389 0.474430 -0.415954 -0.186000 0.427841 -0.100379 -0.040489 0.246896 -0.261805 -0.006666 -0.004309 0.411273 0.036607 -0.089732 0.143522 -0.441674 -0.287506 -0.297994 0.295289 0.230553 0.240077 0.210595 -0.008179 0.528335 0.441999 -0.098986 0.484777 -0.073452 -0.362487 0.302014 0.109674 0.256866 0.073840 0.499469 0.167690 -0.006817 -0.146312 -0.221902 -0.366639 0.841469 0.376665 -0.390659 -0.107845 0.107237 -0.189229 0.253978 0.331396 -0.038639 0.056962 -0.312205 -0.061401 -0.287437 -0.280140 -0.405211 0.075149 -0.272791 -0.211038 -0.241265 0.138078 -0.405055 -0.234501 0.420039 0.011295 -0.001490 -0.126952 0.267297 -0.045583 0.578032 0.247660 0.392446 -0.066226 0.178782 0.069820 0.133520 0.405602 0.143608 -0.122074 -0.105657 0.495104 0.219045 -0.243776 0.169348 0.285808 0.255123 -0.487181 0.340518 -0.343225 0.178968 0.587574 0.383473 0.193493 -0.133987 0.180544 -0.158630 0.379370 0.541544 0.756123 0.105043 -0.082252 -0.314127 0.314101 -0.144264 0.077984 0.226341 0.023566 0.230752 0.357626 -0.209629 -0.238099 0.012039 0.385942 -0.090217 0.038176 0.093166 0.128533 -0.021163 0.697159 0.301970 0.257029 -0.005986 -0.097442 -0.430877 0.615581 -0.413999 0.126436 -0.108465 0.548951 0.537447 0.072752 0.201382 0.015147 -0.543103 0.157629 0.205983 -0.242394 0.387469 -0.424974 0.008054 0.438489 0.184113 0.459533 -0.005644 0.020095 -0.594837 -0.161264 0.094347 0.485972 -0.078765 -0.791568 -0.344609 0.338856 -0.167176 0.215901 -0.207090 0.240185 0.526523 0.476874 0.001291 0.237634 0.126742 0.743722 -0.213199 0.182268 0.409792 0.466822 0.310996 -0.238243 -0.591356 0.199811 -0.221092 -0.189185 -0.353950 -0.086136 -0.214494 -0.101427 0.183990 0.293413 -0.009157 0.459441 0.117948 0.094022 0.135085 -0.588093 -0.157527 0.051812 0.267706 0.287467 0.545360 -0.260220 -0.209524 -0.153486 0.035715 0.182308 0.416310 -0.057891 0.119069 0.400960 -0.113966 -0.481129 -0.198919 -0.347166 0.221214 -0.026259 0.303739 0.276716 -0.155867 0.502947 0.320493 0.459658 0.000633 -0.361274 -0.101376 -0.604578 0.163450 0.394345 -0.064229 -0.379080 0.289182 -0.134910 -0.128735 -0.066561 0.156378 -0.006428 -0.195919 -0.118946 0.388331 0.030757 -0.426367 -0.360250 -0.372372 -0.421093 0.899360 -0.112150 -0.037806 -0.368872 0.223856 0.120157 -0.423318 0.622412 -0.338444 -0.179346 0.484670 0.060309 0.419609 0.011711 0.035629 -0.209781 0.378098 0.058814 -0.032653 -0.220144 -0.097052 -0.111127 0.191482 0.046040 -0.040938 0.166793 0.301110 -0.118087 0.183123 0.123876 -0.237106 -0.170574 0.089666 0.416648 0.057846 0.301232 0.519399 -0.049759 0.006338 0.039659 0.035977 -0.549013 -0.710126 -0.162063 0.048809 -0.048418 0.231235 -0.040531 0.362423 -0.348461 -0.147789 -0.048003 0.980474 0.585580 0.163470 -0.681809 -0.319466 -0.516040 0.341240 0.073299 -0.235590 -0.081380 -0.123324 0.299391 -0.158740 -0.191968 -0.029563 -0.457849 0.036302 0.328477 0.367904 -0.388397 0.443869 0.180755 0.410508 -0.102934 0.054538 -0.832421 -0.087837 -0.038192 0.264294 0.406549 -0.102091 -0.068504 -0.219221 0.287766 0.076985 -0.550216 -0.649384 -0.078824 -0.068155 -0.564403 -0.072665 -0.078774 -0.157497 0.004789 -0.628703 -0.663003 0.306267 0.360048 -0.005164 -0.065771 0.112591 -0.349721 -0.118215 -0.096125 -0.188239 0.279673 0.323332 0.262557 0.014970 -0.280677 0.071458 -0.355767 0.028745 0.276232 -0.296717 -0.002560 -0.625119 -0.001177 -0.401480 -0.047248 -0.320563 0.041431 -0.331306 -0.251425 -0.316602 -0.203850 -0.282091 0.152870 0.284419 -0.078122 -0.336525 -0.101804 -0.369089 -0.147351 -0.054201 -0.215034 -0.531618 -0.079717 -0.336025 -0.225043 0.198610 -0.096577 0.023889 0.169139 0.157644 0.649390 -0.128778 0.682229 0.502927 0.663772 0.528345 0.130253 0.216415 0.219448 0.027610 0.611150 0.367997 -0.071254
winner.fitness = 0.038522
