gen: 0 best: 0.083899
gen: 500 best: 0.095130
gen: 1000 best: 0.096866
gen: 1500 best: 0.098397
gen: 2000 best: 0.103304
gen: 2500 best: 0.111196
gen: 3000 best: 0.126950
gen: 3500 best: 0.127077
gen: 4000 best: 0.127077
gen: 4500 best: 0.127397
gen: 5000 best: 0.127503
gen: 5500 best: 0.127604
gen: 6000 best: 0.127837
gen: 6500 best: 0.127919
gen: 7000 best: 0.127946
gen: 7500 best: 0.128118
gen: 8000 best: 0.128301
gen: 8500 best: 0.128301
gen: 9000 best: 0.128301
gen: 9500 best: 0.128336
gen: 10000 best: 0.128450
gen: 10500 best: 0.128508
gen: 11000 best: 0.128567
gen: 11500 best: 0.128704
gen: 12000 best: 0.128814
gen: 12500 best: 0.128971
gen: 13000 best: 0.129329
gen: 13500 best: 0.129351
gen: 14000 best: 0.129504
gen: 14500 best: 0.129508
gen: 15000 best: 0.129718
gen: 15500 best: 0.129782
gen: 16000 best: 0.130125
gen: 16500 best: 0.130330
gen: 17000 best: 0.130416
gen: 17500 best: 0.130665
gen: 18000 best: 0.130848
gen: 18500 best: 0.131131
gen: 19000 best: 0.131587
gen: 19500 best: 0.131952
gen: 20000 best: 0.132231
gen: 20500 best: 0.132410
gen: 21000 best: 0.132898
gen: 21500 best: 0.133800
gen: 22000 best: 0.134626
gen: 22500 best: 0.135073
gen: 23000 best: 0.136269
gen: 23500 best: 0.137754
gen: 24000 best: 0.191278
gen: 24500 best: 0.192408
gen: 25000 best: 0.193932
gen: 25500 best: 0.194508
gen: 26000 best: 0.208736
gen: 26500 best: 0.212530
gen: 27000 best: 0.216538
gen: 27500 best: 0.218830
gen: 28000 best: 0.221200
gen: 28500 best: 0.223869
gen: 29000 best: 0.224870
gen: 29500 best: 0.225179
gen: 30000 best: 0.225539
gen: 30500 best: 0.225728
gen: 31000 best: 0.226379
gen: 31500 best: 0.226922
gen: 32000 best: 0.227795
gen: 32500 best: 0.228300
gen: 33000 best: 0.228498
gen: 33500 best: 0.228602
gen: 34000 best: 0.228948
gen: 34500 best: 0.229412
gen: 35000 best: 0.229811
gen: 35500 best: 0.230238
gen: 36000 best: 0.230882
gen: 36500 best: 0.231311
gen: 37000 best: 0.231890
gen: 37500 best: 0.232721
gen: 38000 best: 0.232744
gen: 38500 best: 0.232883
gen: 39000 best: 0.233129
gen: 39500 best: 0.233579
gen: 40000 best: 0.233950
gen: 40500 best: 0.234006
gen: 41000 best: 0.234382
gen: 41500 best: 0.234502
gen: 42000 best: 0.234621
gen: 42500 best: 0.234686
gen: 43000 best: 0.234864
gen: 43500 best: 0.235156
gen: 44000 best: 0.235353
gen: 44500 best: 0.235474
gen: 45000 best: 0.235524
gen: 45500 best: 0.235524
gen: 46000 best: 0.235524
gen: 46500 best: 0.235608
gen: 47000 best: 0.235608
gen: 47500 best: 0.235608
gen: 48000 best: 0.235669
gen: 48500 best: 0.236028
gen: 49000 best: 0.236212
gen: 49500 best: 0.236212
gen: 50000 best: 0.236355
gen: 50500 best: 0.236355
gen: 51000 best: 0.236355
gen: 51500 best: 0.236461
gen: 52000 best: 0.236653
gen: 52500 best: 0.236813
gen: 53000 best: 0.236903
gen: 53500 best: 0.236903
gen: 54000 best: 0.236903
gen: 54500 best: 0.236903
gen: 55000 best: 0.236903
gen: 55500 best: 0.236903
gen: 56000 best: 0.236949
gen: 56500 best: 0.236949
gen: 57000 best: 0.236949
gen: 57500 best: 0.236949
gen: 58000 best: 0.236949
gen: 58500 best: 0.236949
gen: 59000 best: 0.236965
gen: 59500 best: 0.236965
gen: 60000 best: 0.236965
gen: 60500 best: 0.236965
gen: 61000 best: 0.236978
gen: 61500 best: 0.236978
gen: 62000 best: 0.236978
gen: 62500 best: 0.236978
gen: 63000 best: 0.237017
gen: 63500 best: 0.237017
gen: 64000 best: 0.237017
gen: 64500 best: 0.237017
gen: 65000 best: 0.237017
gen: 65500 best: 0.237017
gen: 66000 best: 0.237017
gen: 66500 best: 0.237017
gen: 67000 best: 0.237017
gen: 67500 best: 0.237017
gen: 68000 best: 0.237017
gen: 68500 best: 0.237017
gen: 69000 best: 0.237017
gen: 69500 best: 0.237017
gen: 70000 best: 0.237017
